X: 1
T: Akame ga Kill! - Skyreach (Lead)
Z: ABC Generated by Starbound Composer v0.8.7
L: 1/4
M: 4/4
Q: 1/4=184
K: Dm
z4 
[D/d/] [A,/A/] [E/e/] [A,/A/] [D/d/] [A,/A/] z/ [F/f/] 
[E/e/] [A,/A/] z/ [G/g/] [F/f/] [C/c/] [A,A] 
[D/d/] [A,/A/] [E/e/] [A,/A/] [D/d/] [A,/A/] z/ [F/f/] 
[E/e/] [A,/A/] z/ [_E3/4_e3/4] z/4 [E3/e3/] 
[D/d/] [A,/A/] [=E/=e/] [A,/A/] [D/d/] [A,/A/] z/ [F/f/] 
[E/e/] [A,/A/] z/ [G/g/] [F/f/] [C/c/] [A,A] 
[B,B] z/ [B,2B2] [Cc] 
[C/c/] [C7c7] 
[zd4] E/ D/ E/ D/ z/ [z/E] 
[z/e4] D E E/ F3/4 z/4 
[Gf4] A/ D3/ z 
d4 
[zd2] E/ D/ [E/c3/] F/ z/ G 
G/ F/ E F G3/4 z/4 
A/ G/ A5/ z5 
E/ [A,/D/] [G,/E/] [A,D] E D 
[E/G/] F F G/ B,/ [E/A/] 
[B,/D/] D/ B,/ z E/ D/ z/ 
G/ F/ D/ E/ F B,/ E/ 
B,/ F/ G3/4 z/4 [C3/E3/] [C3/4F3/4] z/4 
G3/4 z/4 C/ C D/ D 
D z/ [Dd] [F/f/] [E/e/] [C/c/] 
[G,/G/] [C/D/] F/ [DG] [D/G/] [D/G/] [D/F/] 
[D/G/] [DF] [EG] [E/G/] [DF] 
[DE] C/ [CE] [D/F/] [DF] 
[D/F/] C [CE] [D/F/] [DF] z 
[Gg] [A2f2a2] [c2a2c'2] 
[Beb] [Ada] [Gdg] [F/c/f/] [Gdg] 
[A/d/a/] [A2d2a2] z/ G2 
c2 G G/ G/ 
G/ [C/G/c/] [F/^c/f/] [^G/_e/^g/] [=c3/e3/c'3/] [B^cb] 
[Fcf] [=c/c'/] [Beb] [FBf] [FGf] 
[_E/e/] [F/f/] [G/g/] [=Gc=g] [^G/c/^g/] [=Gc=g] 
[G,3/4E3/4] z/4 C3/ z [C/c/] 
[F/^c/f/] [^G/e/^g/] [=c3/e3/c'3/] [Beb] [Ff] 
[c/c'/] [Beb] [Geg] [G/e/g/] [Beb] z/ 
[E/e/] [=G=g] [Geg] [G/e/g/] [F/^c/f/] [G/c/g/] 
[G/g/] [A=ca] z [C/G/c/] [F/^c/f/] [^G/e/^g/] 
[=c3/e3/c'3/] [B^cb] [Fcf] [=c/c'/] 
[Beb] [FBf] [FGf] [E/e/] [F/f/] 
[G/g/] [=Gc=g] [^G/c/^g/] [=Gc=g] [E^Ge] 
[C3/c3/] z [C/c/] [F/^c/f/] [G/e/^g/] 
[=c3/e3/c'3/] [Beb] [Ff] [c/c'/] 
[Beb] [Geg] [G/e/g/] [Beb] z/ 
[E/e/] [=G=g] [Geg] [G/e/g/] [F/^c/f/] [G/c/g/] 
[G/g/] [A3=c3a3] z2 
[F/^c/f/] [E/c/e/] [F/c/f/] [^Gc^g] [=Ge=g] [^Ge^g] 
[Beb] z/ [EBe] [=c=gc'] [^c/g/^c'/] 
[=cg=c'] [Bgb] [Afa] z3/ 
[A3/4e3/4a3/4] [B3/4e3/4b3/4] [c/e/c'/] [cfc'] [F/G/f/] [FGf] 
[cfc'] [Beb] [B/e/b/] [c/e/c'/] z/ [=G/e/g/] 
[F/B/f/] [E/B/e/] [F9/c9/f9/] 
[F,/C/F/] [F,/C/F/] z [_E,/B,/E/] [E,/B,/E/] z/ [Dd] 
[A,/A/] [=E/=e/] [A,/A/] [D/d/] [A,/A/] z/ [F/f/] [E/e/] 
[A,/A/] z/ [G/g/] [F/f/] [C/c/] [A,A] [D/d/] 
[A,/A/] [E/e/] [A,/A/] [D/d/] [A,/A/] z/ [F/f/] [E/e/] 
[A,/A/] z/ [_E3/4_e3/4] z/4 [E3/e3/] [D/d/] 
[A,/A/] [=E/=e/] [A,/A/] [D/d/] [A,/A/] z/ [F/f/] [E/e/] 
[A,/A/] z/ [G/g/] [F/f/] [C/c/] [A,A] [B,B] z/ 
[B,2B2] [Cc] [C/c/] [C3c3] 
D,/ [D/d/] [C/c/] [A,/A/] [^G,/^G/] [=G,/=G/] [F,/F/] [D,2D2] 
