X: 1
T: Asian Kung-fu Generation - Re Re
Z: ABC Generated by Starbound Composer v0.8.7
L: 1/4
M: 4/4
Q: 1/4=154
K: E
C,19/20 z/20 [A,,15/32F19/20] z/32 E,15/32 z/32 [F15/32A,15/32] z/32 [G15/32E,15/32] z/32 [F15/32C15/32] z/32 [G15/32E,15/32] z/32 
[B15/32A,15/32] z/32 [G15/32E,15/32] z/32 [B15/32A,,15/32] z/32 [c15/32E,15/32] z/32 [B15/32A,15/32] z/32 [c15/32E,15/32] z/32 [b15/32C15/32] z/32 [c'15/32E,15/32] z/32 
[b15/32A,15/32] z/32 [c'15/32E,15/32] z/32 [E,,15/32F19/20] z/32 B,,15/32 z/32 [F15/32E,15/32] z/32 [G15/32B,,15/32] z/32 [F15/32G,15/32] z/32 [G15/32B,,15/32] z/32 
[B15/32E,15/32] z/32 [G15/32B,,15/32] z/32 [B15/32E,,15/32] z/32 [c15/32B,,15/32] z/32 [B15/32E,15/32] z/32 [c15/32B,,15/32] z/32 [b15/32G,15/32] z/32 [c'15/32B,,15/32] z/32 
[b15/32E,15/32] z/32 [c'15/32B,,15/32] z/32 [A,,15/32F19/20] z/32 E,15/32 z/32 [F15/32A,15/32] z/32 [G15/32E,15/32] z/32 [F15/32C15/32] z/32 [G15/32E,15/32] z/32 
[B15/32A,15/32] z/32 [G15/32E,15/32] z/32 [B15/32A,,15/32] z/32 [c15/32E,15/32] z/32 [B15/32A,15/32] z/32 [c15/32E,15/32] z/32 [b15/32C15/32] z/32 [c'15/32E,15/32] z/32 
[b15/32A,15/32] z/32 [c'15/32E,15/32] z/32 [E,,15/32F19/20] z/32 B,,15/32 z/32 [F15/32E,15/32] z/32 [G15/32B,,15/32] z/32 [F15/32G,15/32] z/32 [G15/32B,,15/32] z/32 
[B15/32E,15/32] z/32 [G15/32B,,15/32] z/32 F15/32 z/32 B,15/32 z/32 G15/32 z/32 B,15/32 z/32 B15/32 z/32 E15/32 z/32 
c15/32 z/32 F15/32 z/32 [F15/32f15/32A,,15/32] z/32 [F15/32f15/32A,,15/32] z/32 [E,15/32A,15/32G19/20f19/20] z/32 A,,15/32 z/32 [A,,15/32B19/20e19/20] z/32 A,,15/32 z/32 
[c15/32E,15/32C15/32] z/32 [F15/32A,,15/32] z/32 [F15/32f15/32B,,15/32] z/32 [F15/32f15/32B,,15/32] z/32 [F,15/32B,15/32G19/20f19/20] z/32 B,,15/32 z/32 [B,,15/32B19/20e19/20] z/32 B,,15/32 z/32 
[c15/32F,15/32D15/32] z/32 [F15/32B,,15/32] z/32 [F15/32f15/32G,,15/32] z/32 [F15/32f15/32G,,15/32] z/32 [D,15/32G,15/32F19/20f19/20] z/32 G,,15/32 z/32 [G,,15/32B19/20e19/20] z/32 G,,15/32 z/32 
[c15/32D,15/32B,15/32] z/32 [B15/32G,,15/32] z/32 [F15/32c15/32C,15/32] z/32 [B15/32C,15/32] z/32 [G,15/32C15/32G19/20B19/20] z/32 C,15/32 z/32 [C,15/32B,19/20G19/20] z/32 C,15/32 z/32 
[c15/32G,15/32E15/32] z/32 [F15/32B,,15/32] z/32 [F15/32f15/32A,,15/32] z/32 [F15/32f15/32A,,15/32] z/32 [E,15/32A,15/32G19/20f19/20] z/32 A,,15/32 z/32 [A,,15/32B19/20e19/20] z/32 A,,15/32 z/32 
[c15/32E,15/32C15/32] z/32 [F15/32A,,15/32] z/32 [F15/32f15/32B,,15/32] z/32 [F15/32f15/32B,,15/32] z/32 [F,15/32B,15/32G19/20f19/20] z/32 B,,15/32 z/32 [B,,15/32B19/20e19/20] z/32 B,,15/32 z/32 
[c15/32F,15/32D15/32] z/32 [F15/32B,,15/32] z/32 [F15/32f15/32G,,15/32] z/32 [F15/32f15/32G,,15/32] z/32 [D,15/32G,15/32G19/20f19/20] z/32 G,,15/32 z/32 [G,,15/32B19/20e19/20] z/32 G,,15/32 z/32 
[c15/32D,15/32B,15/32] z/32 [B15/32G,,15/32] z/32 [F15/32c15/32C,15/32] z/32 [B15/32C,15/32] z/32 [G,15/32C15/32G19/20B19/20] z/32 C,15/32 z/32 [C,15/32B,19/20G19/20] z/32 C,15/32 z/32 
[c15/32G,15/32E15/32] z/32 [F15/32B,,15/32] z/32 [F15/32f15/32A,,15/32] z/32 [F15/32f15/32A,,15/32] z/32 [E,15/32A,15/32G19/20f19/20] z/32 A,,15/32 z/32 [A,,15/32B19/20e19/20] z/32 A,,15/32 z/32 
[c15/32E,15/32C15/32] z/32 [F15/32A,,15/32] z/32 [F15/32f15/32B,,15/32] z/32 [F15/32f15/32B,,15/32] z/32 [F,15/32B,15/32G19/20f19/20] z/32 B,,15/32 z/32 [B,,15/32B19/20e19/20] z/32 B,,15/32 z/32 
[c15/32F,15/32D15/32] z/32 [F15/32B,,15/32] z/32 [F15/32f15/32G,,15/32] z/32 [F15/32f15/32G,,15/32] z/32 [D,15/32G,15/32G19/20f19/20] z/32 G,,15/32 z/32 [G,,15/32B19/20e19/20] z/32 G,,15/32 z/32 
[c15/32D,15/32B,15/32] z/32 [B15/32G,,15/32] z/32 [F15/32c15/32C,15/32] z/32 [B15/32C,15/32] z/32 [G,15/32C15/32G19/20B19/20] z/32 C,15/32 z/32 [C,15/32B,19/20G19/20] z/32 C,15/32 z/32 
[c15/32G,15/32E15/32] z/32 [F15/32B,,15/32] z/32 [F15/32f15/32A,,15/32] z/32 [F15/32f15/32A,,15/32] z/32 [E,15/32A,15/32G19/20f19/20] z/32 A,,15/32 z/32 [A,,15/32B19/20e19/20] z/32 A,,15/32 z/32 
[c15/32E,15/32C15/32] z/32 [F15/32A,,15/32] z/32 [F15/32f15/32B,,15/32] z/32 [F15/32f15/32B,,15/32] z/32 [F,15/32B,15/32G19/20f19/20] z/32 B,,15/32 z/32 [B,,15/32B19/20e19/20] z/32 B,,15/32 z/32 
[c15/32F,15/32D15/32] z/32 [F15/32B,,15/32] z/32 [C,,15/32C,15/32F19/20f19/20] z/32 [C,,15/32C,15/32] z/32 [G15/32C,,15/32C,15/32] z/32 [E15/32e15/32C,,15/32C,15/32] z/32 [C,,15/32C,15/32E19/20e19/20] z/32 [C,,15/32C,15/32] z/32 
[C15/32c15/32C,,15/32C,15/32] z/32 [B,15/32B15/32C,,15/32C,15/32] z/32 [E,,,15/32E,,15/32C19/20c19/20] z/32 [E,,,15/32E,,15/32] z/32 [C15/32c15/32E,,,15/32E,,15/32] z/32 [E,,,15/32E,,15/32C19/20c19/20] z/32 [E,,,15/32E,,15/32] z/32 [C15/32c15/32E,,,15/32E,,15/32] z/32 
[G15/32g15/32E,,,15/32E,,15/32] z/32 [F15/32f15/32E,,,15/32E,,15/32] z/32 [F,,,15/32F,,15/32E19/10c19/10e19/10] z/32 C,15/32 z/32 [F,15/32A,15/32] z/32 C,15/32 z/32 B,,15/32 z/32 [G,15/32G15/32B,,15/32] z/32 
[B,15/32B15/32B,,15/32D,15/32] z/32 [B,,15/32G19/20g19/20] z/32 G,,15/32 z/32 [F15/32f15/32D,15/32] z/32 [F15/32f15/32G,15/32B,15/32] z/32 [D,15/32E19/20e19/20] z/32 C,15/32 z/32 [E15/32e15/32G,15/32] z/32 
[G15/32g15/32C15/32E15/32] z/32 [F15/32f15/32G,15/32] z/32 [F,,15/32E19/20c19/20e19/20] z/32 C,15/32 z/32 [F,15/32A,15/32] z/32 [B,15/32B15/32C,15/32] z/32 [B,,15/32C19/20c19/20] z/32 F,15/32 z/32 
[B,15/32D15/32] z/32 [B,15/32B15/32F,15/32] z/32 [C15/32c15/32G,,15/32] z/32 [B,15/32B15/32G,,15/32] z/32 [B,15/32B15/32D,15/32G,15/32] z/32 [G,15/32G15/32G,,15/32] z/32 [C,15/32G,19/20G19/20] z/32 G,15/32 z/32 
[G15/32g15/32C15/32E15/32] z/32 [F15/32f15/32G,15/32] z/32 [F,,15/32E19/10c19/10e19/10] z/32 C,15/32 z/32 [F,15/32A,15/32] z/32 C,15/32 z/32 B,,15/32 z/32 F,15/32 z/32 
[B,15/32D15/32] z/32 [C15/32c15/32F,15/32] z/32 [G,,15/32C19/20c19/20] z/32 D,15/32 z/32 [E15/32e15/32G,15/32B,15/32] z/32 [D,15/32E19/20e19/20] z/32 C,15/32 z/32 [E15/32e15/32G,15/32] z/32 
[G15/32g15/32C15/32E15/32] z/32 [F15/32f15/32G,15/32] z/32 [F,,15/32E19/20c19/20e19/20] z/32 C,15/32 z/32 [F,15/32A,15/32C19/20c19/20] z/32 C,15/32 z/32 [B,,15/32C19/20c19/20] z/32 B,,15/32 z/32 
[B,15/32B15/32D,15/32F,15/32] z/32 [G,15/32G15/32B,,15/32] z/32 [G,15/32G15/32G,,15/32] z/32 G,,15/32 z/32 [D,15/32G,15/32B,19/20B19/20] z/32 G,,15/32 z/32 [G,,15/32C,15/32C19/20c19/20] z/32 [G,,15/32C,15/32] z/32 
[G,,15/32C,15/32] z/32 [F,15/32G,,15/32C,15/32] z/32 [F15/32A,,15/32A,10/7C10/7] z/32 [F15/32A,,15/32] z/32 [A,,15/32F19/20] z/32 A,,15/32 z/32 [A,,15/32E19/20] z/32 A,,15/32 z/32 
A,,15/32 z/32 [F,15/32A,,15/32] z/32 [F15/32B,,15/32B,10/7D10/7] z/32 [F15/32B,,15/32] z/32 [B,,15/32F19/20] z/32 B,,15/32 z/32 [B,,15/32E19/20] z/32 B,,15/32 z/32 
B,,15/32 z/32 [F,15/32B,,15/32] z/32 [F15/32G,,15/32B,10/7C10/7] z/32 [F15/32G,,15/32] z/32 [G,,15/32F19/20] z/32 G,,15/32 z/32 [G,,15/32E19/20] z/32 G,,15/32 z/32 
[C15/32G,,15/32] z/32 [B,15/32G,,15/32] z/32 [C15/32C,15/32E,10/7G,10/7] z/32 [B,15/32C,15/32] z/32 [C,15/32B,19/20] z/32 C,15/32 z/32 [C,15/32G,19/20] z/32 C,15/32 z/32 
C,15/32 z/32 [F,15/32C,15/32] z/32 [F15/32A,,15/32A,10/7C10/7] z/32 [F15/32A,,15/32] z/32 [A,,15/32F19/20] z/32 A,,15/32 z/32 [A,,15/32E19/20] z/32 A,,15/32 z/32 
A,,15/32 z/32 [F,15/32A,,15/32] z/32 [F15/32B,,15/32B,10/7D10/7] z/32 [F15/32B,,15/32] z/32 [B,,15/32F19/20] z/32 B,,15/32 z/32 [B,,15/32E19/20] z/32 B,,15/32 z/32 
B,,15/32 z/32 [F,15/32B,,15/32] z/32 [F15/32G,,15/32B,10/7C10/7] z/32 [F15/32G,,15/32] z/32 [G,,15/32F19/20] z/32 G,,15/32 z/32 [G,,15/32E19/20] z/32 G,,15/32 z/32 
[C15/32G,,15/32] z/32 [B,15/32G,,15/32] z/32 [C15/32C,15/32E,10/7G,10/7] z/32 [B,15/32C,15/32] z/32 [C,15/32B,19/20] z/32 C,15/32 z/32 [C,15/32G,19/20] z/32 C,15/32 z/32 
C,15/32 z/32 [F,15/32C,15/32] z/32 [F15/32A,,15/32A,10/7C10/7] z/32 [F15/32A,,15/32] z/32 [A,,15/32F19/20] z/32 A,,15/32 z/32 [A,,15/32E19/20] z/32 A,,15/32 z/32 
A,,15/32 z/32 [F,15/32A,,15/32] z/32 [F15/32B,,15/32F,19/20B,10/7D10/7] z/32 [F15/32B,,15/32] z/32 [B,,15/32F19/20] z/32 B,,15/32 z/32 [B,,15/32E19/20] z/32 B,,15/32 z/32 
B,,15/32 z/32 [F,15/32B,,15/32] z/32 [F15/32G,,15/32D,19/20B,10/7C10/7] z/32 [F15/32G,,15/32] z/32 [G,,15/32F19/20] z/32 G,,15/32 z/32 [G,,15/32E19/20] z/32 G,,15/32 z/32 
[C15/32G,,15/32] z/32 [B,15/32G,,15/32] z/32 [C,15/32C19/20E,19/10G,19/10] z/32 C,15/32 z/32 C,15/32 z/32 [B,15/32C,15/32] z/32 [C,15/32B,19/20] z/32 C,15/32 z/32 
C,15/32 z/32 [F,15/32C,15/32] z/32 [A,,15/32G,19/20E19/20] z/32 A,,15/32 z/32 [G15/32E,15/32A,15/32] z/32 [B,15/32A,,15/32] z/32 [B15/32A,,15/32] z/32 [E15/32A,,15/32] z/32 
[E,15/32C15/32G19/20] z/32 A,,15/32 z/32 [B,,15/32D19/20F19/20] z/32 B,,15/32 z/32 [G15/32F,15/32B,15/32] z/32 [B,15/32B,,15/32] z/32 [B15/32B,,15/32] z/32 [E15/32B,,15/32] z/32 
[F,15/32D15/32F19/20] z/32 B,,15/32 z/32 [G,,15/32E19/20G19/20e19/20] z/32 G,,15/32 z/32 [G15/32D,15/32G,15/32] z/32 [B,15/32G,,15/32] z/32 [B15/32G,,15/32] z/32 [E15/32G,,15/32] z/32 
[c15/32D,15/32B,15/32] z/32 [e15/32G,,15/32] z/32 [C,15/32E19/20B19/20e19/20] z/32 G,15/32 z/32 [G15/32C15/32E15/32] z/32 [F15/32G,15/32] z/32 [B,,15/32B19/20g19/20] z/32 F,15/32 z/32 
[c15/32B,15/32D15/32] z/32 [F15/32f15/32F,15/32] z/32 [A,,15/32E19/20B19/20e19/20] z/32 A,,15/32 z/32 [G15/32E,15/32A,15/32] z/32 [B,15/32A,,15/32] z/32 [B15/32A,,15/32] z/32 [E15/32A,,15/32] z/32 
[c15/32E,15/32C15/32] z/32 [B,15/32A,,15/32] z/32 [F15/32B,,15/32] z/32 [B,15/32B,,15/32] z/32 [G15/32F,15/32B,15/32] z/32 [B,15/32B,,15/32] z/32 [B15/32B,,15/32] z/32 [E15/32B,,15/32] z/32 
[F,15/32D15/32F19/20c19/20f19/20] z/32 B,,15/32 z/32 [G,,15/32E19/20B19/20e19/20] z/32 G,,15/32 z/32 [G15/32D,19/20G,19/20] z/32 B,15/32 z/32 [B15/32G,,15/32] z/32 [E15/32G,,15/32] z/32 
[c15/32D,15/32B,15/32] z/32 [B,15/32G,,15/32] z/32 [C,15/32G19/20c19/20g19/20] z/32 C,15/32 z/32 [G15/32G,15/32C15/32] z/32 [B,15/32C,15/32] z/32 [B15/32F,,15/32] z/32 [E15/32G,,15/32] z/32 
[c15/32F,,15/32] z/32 [B,15/32B,,15/32] z/32 [A,,15/32B,10/7F10/7] z/32 A,,15/32 z/32 [E,15/32A,15/32] z/32 [B,15/32F15/32A,,15/32] z/32 [B,15/32A,,15/32] z/32 [B,15/32A,,15/32] z/32 
[C15/32c15/32E,15/32] z/32 [B,15/32A,,15/32] z/32 [B,,15/32B,10/7F10/7] z/32 B,,15/32 z/32 [F,15/32B,15/32] z/32 [B,15/32F15/32B,,15/32] z/32 [B,15/32B,,15/32] z/32 [B,15/32B,,15/32] z/32 
[C15/32c15/32F,15/32D15/32] z/32 [B,15/32B,,15/32] z/32 [G,,15/32B,10/7F10/7] z/32 G,,15/32 z/32 [D,15/32G,15/32] z/32 [B,15/32F15/32G,,15/32] z/32 [B,15/32G,,15/32] z/32 [B,15/32G,,15/32] z/32 
[D,15/32G,15/32B,19/20B19/20] z/32 G,,15/32 z/32 [C,15/32G19/20B19/20g19/20] z/32 G,15/32 z/32 [G15/32C15/32E15/32] z/32 [F15/32f15/32G,15/32] z/32 [E15/32B15/32e15/32B,,15/32] z/32 F,15/32 z/32 
[C15/32c15/32B,15/32D15/32] z/32 [B,15/32F,15/32] z/32 [A,,15/32B,10/7F10/7] z/32 A,,15/32 z/32 [E,15/32A,15/32] z/32 [B,15/32F15/32A,,15/32] z/32 [B,15/32A,,15/32] z/32 [B,15/32A,,15/32] z/32 
[C15/32c15/32E,15/32] z/32 [B,15/32A,,15/32] z/32 [B,,15/32B,10/7F10/7] z/32 B,,15/32 z/32 [F,15/32B,15/32] z/32 [B,15/32F15/32B,,15/32] z/32 [B,15/32B,,15/32] z/32 [B,15/32B,,15/32] z/32 
[C15/32c15/32F,15/32D15/32] z/32 [B,15/32B,,15/32] z/32 [G,,15/32B,10/7F10/7] z/32 G,,15/32 z/32 [D,15/32G,15/32] z/32 [B,15/32F15/32G,,15/32] z/32 [B,15/32G,,15/32] z/32 [B,15/32G,,15/32] z/32 
[C15/32c15/32D,15/32B,15/32] z/32 [e15/32G,,15/32] z/32 [E15/32B15/32e15/32C,,15/32C,15/32] z/32 [d15/32C,,15/32C,15/32] z/32 [d15/32C,,15/32C,15/32] z/32 [c15/32B,,15/32] z/32 [c15/32B,,,15/32B,,15/32] z/32 [B15/32A,,,15/32A,,15/32] z/32 
[E15/32B15/32A,,,15/32A,,15/32] z/32 [A15/32A,,15/32] z/32 [E133/20G133/20E,,,133/20E,,133/20] 
