X: 1
T: Crusher-P feat Kaai Yuki - Calalini (Lyric)
Z: ABC Generated by Starbound Composer v0.8.7
L: 1/4
M: 4/4
Q: 1/4=139
K: C
z64 
B, B, B, B, 
F F F ^F/ =F/ 
^F F F F 
_B B B B 
B, B, B, B, 
=F F F ^F/ =F/ 
^F F F F 
B B B B 
B, B, B, B, 
=F F F ^F/ =F/ 
^F F F F 
B B B B 
B, B, B, B, 
=F F F ^F/ =F/ 
^F F F F 
B B B B 
^G/ z/ F/ z/ G/ z/ =B/ z/ 
_B/ z/ B/ z/ ^d/ z/ f/ ^f/ 
d/ d/ z/ d/ d/ d/ f/ ^g/ 
_b/ d/ z/ d/ B/ d/ =f/ ^f/ 
f/ d/ z/ f/ g/ d/ ^c/ d/ 
b/ d/ z/ d/ c/ d/ f/ g/ 
d/ d/ z/ d/ c/ d/ =f/ ^f/ 
g/ d/ z/ d/ c/ d/ =f/ ^f/ 
f/ d/ z/ d/ z/ d/ =f/ ^f/ 
=f/ f/ z/ d/ =d/ ^d/ f/ ^f/ 
d/ d/ z/ d/ z/ d/ =f/ ^f/ 
b/ d/ z/ d/ c/ d/ =f/ ^f/ 
f/ d/ z/ d/ f/ d/ c/ d/ 
b/ d/ z/ c/ d/ =f/ ^f/ g/ 
f/ d/ z/ d/ c/ d/ =f/ ^f/ 
f/ d/ z/ d/ c/ d/ =f/ ^f/ 
d d d d 
c B/ G F/ z/ F/ 
G/ F/ G/ F/ G/ F/ G/ F/ 
G B/ ^D2 z/ 
d d/ d/ d d 
c B/ G F/ z/ F/ 
G/ F/ G/ F/ G/ F/ G/ F/ 
G B/ B2 z/ 
F D/ F F/ G/ B/ 
d/ c/ B/ G/ F/ F/ G/ G/ 
B3/ G2 c/ 
d d/ d/ d/ c z/ 
F D/ F F/ G/ B/ 
d/ c/ B/ G/ B/ G/ F/ G/ 
B3/ G2 c/ 
d2/3 z/3 d/ d/ d/ c z/ 
f/3 z/6 d/ c/ d/ f/3 z/6 d/ c/ d/ 
f/3 z/6 d/ f/3 z/6 d/ f/3 z/6 g/ d/ c/ 
f/3 z/6 d/ c/ d/ f/3 z/6 d/ c/ d/ 
f/3 z/6 d/ f/3 z/6 d/ f/3 z/6 g/ d/ c/ 
f/3 z/6 d/ c/ d/ f/3 z/6 d/ c/ d/ 
f/3 z/6 d/ f/3 z/6 d/ f/3 z/6 g/ d/ c/ 
f/3 z/6 d/ c/ d/ f/3 z/6 d/ c/ d/ 
f/3 z/6 d/ f/3 z/6 d/ f/3 z/6 g/ d/ c/ 
=B _B =B f 
=f c _B F 
G B G B 
d B G2 
=B _B =B ^f 
=f c _B F 
G B G B 
d B G2 
d5 
B G B G4 
D4 
d5 
B G B G4 
D4 
d d d d 
c B/ G F/ z/ F/ 
G/ F/ G/ F/ G/ F/ G/ F/ 
G B/ D2 z/ 
d d/ d/ d d 
c B/ G F/ z/ F/ 
G/ F/ G/ F/ G/ F/ G/ F/ 
G B/ B2 z/ 
F D/ F F/ G/ B/ 
d/ c/ B/ G/ F/ F/ G/ G/ 
B3/ G2 c/ 
d d/ d/ d/ c z/ 
F D/ F F/ G/ B/ 
d/ c/ B/ G/ B/ G/ F/ G/ 
B3/ G2 c/ 
d2/3 z/3 d/ d/ d/ c z/ 
^f/3 z/6 d/ c/ d/ f/3 z/6 d/ c/ d/ 
f/3 z/6 d/ f/3 z/6 d/ f/3 z/6 g/ d/ c/ 
f/3 z/6 d/ c/ d/ f/3 z/6 d/ c/ d/ 
f/3 z/6 d/ f/3 z/6 d/ f/3 z/6 g/ d/ c/ 
f/3 z/6 d/ c/ d/ f/3 z/6 d/ c/ d/ 
f/3 z/6 d/ f/3 z/6 d/ f/3 z/6 g/ d/ c/ 
f/3 z/6 d/ c/ d/ f/3 z/6 d/ c/ d/ 
f/3 z/6 d/ f/3 z/6 d/ f/3 z/6 g/ d/ c/ 
B,4 
=F4 
^F4 
B4 
=B/ B/ z/ B/ z/ B/ B/ z/ 
_B/ B/ z/ B/ d/ B/ =f/ ^f/ 
d/ d/ z/ d/ d/ d/ f/ g/ 
b/ d/ z/ d/ B/ d/ =f/ ^f/ 
f/ d/ z/ f/ g/ d/ c/ d/ 
b/ d/ z/ d/ c/ d/ f/ g/ 
d/ d/ z/ d/ c/ d/ =f/ ^f/ 
g/ d/ z/ d/ c/ d/ =f/ ^f/ 
d d d d 
c B/ G F/ z/ F/ 
G/ F/ G/ F/ G/ F/ G/ F/ 
G B/ D2 z/ 
d d/ d/ d d 
c B/ G F/ z/ F/ 
G/ F/ G/ F/ G/ F/ G/ F/ 
G B/ B2 z/ 
F D/ F F/ G/ B/ 
d/ c/ B/ G/ F/ F/ G/ G/ 
B3/ G2 c/ 
d d/ d/ d/ c z/ 
F D/ F F/ G/ B/ 
d/ c/ B/ G/ B/ G/ F/ G/ 
B3/ G2 c/ 
d2/3 z/3 d/ d/ d/ c z/ 
d d d d 
c B/ G F/ z/ F/ 
G/ F/ G/ F/ G/ F/ G/ F/ 
G B/ D2 z/ 
d d/ d/ d d 
c B/ G F/ z/ F/ 
G/ F/ G/ F/ G/ F/ G/ F/ 
G B/ B2 z/ 
F D/ F F/ G/ B/ 
d/ c/ B/ G/ F/ F/ G/ G/ 
B3/ G2 c/ 
d d/ d/ d/ c z/ 
F D/ F F/ G/ B/ 
d/ c/ B/ G/ B/ G/ F/ G/ 
B3/ G2 c/ 
d2/3 z/3 d/ d/ d/ c z/ 
f/3 z/6 d/ c/ d/ f/3 z/6 d/ c/ d/ 
f/3 z/6 d/ f/3 z/6 d/ f/3 z/6 g/ d/ c/ 
f/3 z/6 d/ c/ d/ f/3 z/6 d/ c/ d/ 
f/3 z/6 d/ f/3 z/6 d/ f/3 z/6 g/ d/ c/ 
f/3 z/6 d/ c/ d/ f/3 z/6 d/ c/ d/ 
f/3 z/6 d/ f/3 z/6 d/ f/3 z/6 g/ d/ c/ 
f/3 z/6 d/ c/ d/ f/3 z/6 d/ c/ d/ 
f/3 z/6 d/ f/3 z/6 d/ f/3 z/6 g/ d/ c/ 
f/3 z/6 d/ c/ d/ f/3 z/6 d/ c/ d/ 
f/3 z/6 d/ f/3 z/6 d/ f/3 z/6 g/ d/ c/ 
f/3 z/6 d/ c/ d/ f/3 z/6 d/ c/ d/ 
f/3 z/6 d/ f/3 z/6 d/ f/3 z/6 g/ d/ c/ 
f/3 z/6 d/ c/ d/ f/3 z/6 d/ c/ d/ 
f/3 z/6 d/ f/3 z/6 d/ f/3 z/6 g/ d/ c/ 
f/3 z/6 d/ c/ d/ f/3 z/6 d/ c/ d/ 
f/3 z/6 d/ f/3 z/6 d/ f/3 z/6 g/ d/ c/ 
