X: 1
T: Crusher-P feat Kaai Yuki - Calalini (Background)
Z: ABC Generated by Starbound Composer v0.8.7
L: 1/4
M: 4/4
Q: 1/4=139
K: C
[^d19/5^f19/5B,,,19/5B,,19/5] z/5 
[=d19/5=f19/5_B,,,19/5_B,,19/5] z/5 
[f19/5_b19/5^D,,19/5^D,19/5] z/5 
[_B19/5^d19/5^G,,,19/5^G,,19/5] z/5 
[=B19/5^f19/5=B,,,19/5=B,,19/5] z/5 
[_B19/5=f19/5_B,,,19/5_B,,19/5] z/5 
[G19/5=d19/5D,,19/5D,19/5] z/5 
[^G19/5^d19/5G,,,19/5G,,19/5] z/5 
[=B19/5^f19/5=B,,,19/5=B,,19/5] z/5 
[_B19/5=f19/5_B,,,19/5_B,,19/5] z/5 
[=G19/5=d19/5D,,19/5D,19/5] z/5 
[^G19/5^d19/5G,,,19/5G,,19/5] z/5 
[=B19/5^f19/5=B,,,19/5=B,,19/5] z/5 
[_B19/5=f19/5_B,,,19/5_B,,19/5] z/5 
[=G19/5=d19/5D,,19/5D,19/5] z/5 
[^G19/5^d19/5G,,,19/5G,,19/5] z/5 
[=B19/5^f19/5=B,,,19/5=B,,19/5] z/5 
[_B19/5=f19/5_B,,,19/5_B,,19/5] z/5 
[d19/5b19/5D,,19/5D,19/5] z/5 
[G19/5d19/5G,,,19/5G,,19/5] z/5 
[=B19/5^f19/5=B,,,19/5=B,,19/5] z/5 
[_B19/5=f19/5_B,,,19/5_B,,19/5] z/5 
[=G19/5=d19/5D,,19/5D,19/5] z/5 
[^G19/5^d19/5G,,,19/5G,,19/5] z/5 
[=B19/5^f19/5=B,,,19/5=B,,19/5] z/5 
[_B19/5=f19/5_B,,,19/5_B,,19/5] z/5 
[d19/5b19/5D,,19/5D,19/5] z/5 
[G19/5d19/5G,,,19/5G,,19/5] z/5 
[=B19/5^f19/5=B,,,19/5=B,,19/5] z/5 
[_B19/5=f19/5_B,,,19/5_B,,19/5] z/5 
[=G19/5=d19/5D,,19/5D,19/5] z/5 
[^G19/5^d19/5G,,,19/5G,,19/5] z/5 
[^D19/20=B,,19/5] z/20 D19/20 z/20 D15/32 z/32 D15/32 z/32 F15/32 z/32 [z/^F19/20] 
[z/_B,,19/5] D15/32 z/32 ^C/4 z/4 _B,10/7 z/14 ^G,15/32 z/32 ^F,/4 z/4 
[G,19/20D,19/5] z/20 G,15/32 z/32 F,15/32 z/32 G,15/32 z/32 F,/4 z/4 G,/4 z/4 [z/B,19/20] 
[z/G,,19/5] G,15/32 z/32 F,/4 z/4 G,/4 z/4 B,19/10 z/10 
[D19/20=B,,19/5] z/20 D19/20 z/20 D15/32 z/32 D15/32 z/32 =F15/32 z/32 ^F15/32 z/32 
[z/_B,,19/5] D15/32 z/32 C15/32 z/32 B,10/7 z/14 G,15/32 z/32 F,/4 z/4 
[G,19/20D,19/5] z/20 G,15/32 z/32 F,15/32 z/32 G,15/32 z/32 F,/4 z/4 G,/4 z/4 [z/B,19/20] 
[z/G,,19/5] G,15/32 z/32 F,/4 z/4 B,19/8 z/8 
[=B,,19/20D10/7] z/20 B,,15/32 z/32 G15/32 z/32 [F/4B,,19/20] z/4 =F15/32 z/32 [F/4B,,15/32] z/4 [^F15/32B,,15/32] z/32 
_B,,19/20 z/20 [B,,15/32D19/20] z17/32 [C15/32B,,19/20] z/32 [z/D19/20] B,,15/32 z17/32 
[C15/32D,19/20] z/32 D/4 z/4 [=F15/32D,15/32] z/32 [z/^F19/20] [z/D,19/20] [z/D19/20] D,15/32 z/32 D,15/32 z/32 
[C19/20G,,19/20] z/20 [B,15/32G,,15/32] z/32 [z/G,10/7] G,,19/20 z/20 G,,15/32 z17/32 
[D19/20=B,,19/20] z/20 B,,15/32 z/32 G15/32 z/32 [F/4B,,19/20] z/4 =F15/32 z/32 [F/4B,,15/32] z/4 [^F15/32B,,15/32] z/32 
_B,,19/20 z/20 B,,15/32 z/32 [z/C19/20] [z/B,,19/20] [z/D19/20] B,,15/32 z17/32 
[C15/32D,19/20] z/32 D15/32 z/32 [=F15/32D,15/32] z/32 [z/^F19/20] [z/D,19/20] [z/D19/20] D,15/32 z/32 D,15/32 z/32 
[C15/32G,,19/20] z/32 B,/4 z/4 [B,15/32G,,15/32] z/32 [z/G,19/20] G,,19/20 z/20 G,,15/32 z17/32 
[F15/32=B15/32=B,,,19/5=B,,19/5] z/32 [F15/32B15/32] z/32 [F15/32B15/32] z17/32 [F15/32B15/32] z/32 [F15/32B15/32] z/32 [F15/32B15/32] z/32 [F15/32B15/32] z/32 
[_B15/32f15/32_B,,19/5=F,19/5] z/32 [B15/32f15/32] z/32 [B15/32f15/32] z17/32 [B15/32f15/32] z/32 [B15/32f15/32] z/32 [B15/32f15/32] z/32 [B15/32f15/32] z/32 
[d15/32^f15/32D,19/5^F,19/5] z/32 [d15/32f15/32] z/32 [d15/32f15/32] z17/32 [d15/32f15/32] z/32 [d15/32f15/32] z/32 [d15/32f15/32] z/32 [d15/32f15/32] z/32 
[G15/32b15/32G,,19/5B,19/5] z/32 [G15/32b15/32] z/32 [G15/32b15/32] z17/32 [G15/32b15/32] z/32 [G15/32b15/32] z/32 [G15/32b15/32] z/32 [G15/32b15/32] z/32 
[F15/32=B15/32=B,,19/20B,,,19/5] z/32 [F15/32B15/32] z/32 [F15/32B15/32B,,19/20] z17/32 [F15/32B15/32B,,19/20] z/32 [F15/32B15/32] z/32 [F15/32B15/32B,,19/20] z/32 [F15/32B15/32] z/32 
[_B15/32=f15/32=F,19/20_B,,19/5] z/32 [B15/32f15/32] z/32 [B15/32f15/32F,19/20] z17/32 [B15/32f15/32F,19/20] z/32 [B15/32f15/32] z/32 [B15/32f15/32F,19/20] z/32 [B15/32f15/32] z/32 
[d15/32^f15/32^F,19/20D,19/5] z/32 [d15/32f15/32] z/32 [d15/32f15/32F,19/20] z17/32 [d15/32f15/32F,19/20] z/32 [d15/32f15/32] z/32 [d15/32f15/32F,19/20] z/32 [d15/32f15/32] z/32 
[G15/32b15/32B,19/20G,,19/5] z/32 [G15/32b15/32] z/32 [G15/32b15/32B,19/20] z17/32 [G15/32b15/32B,19/20] z/32 [G15/32b15/32] z/32 [G15/32b15/32B,19/20] z/32 [G15/32b15/32] z/32 
[F15/32=B15/32=B,,19/20B,,,19/5] z/32 [F15/32B15/32] z/32 [F15/32B15/32B,,19/20] z17/32 [F15/32B15/32B,,19/20] z/32 [F15/32B15/32] z/32 [F15/32B15/32B,,19/20] z/32 [F15/32B15/32] z/32 
[_B15/32=f15/32=F,19/20_B,,19/5] z/32 [B15/32f15/32] z/32 [B15/32f15/32F,19/20] z17/32 [B15/32f15/32F,19/20] z/32 [B15/32f15/32] z/32 [B15/32f15/32F,19/20] z/32 [B15/32f15/32] z/32 
[d15/32^f15/32^F,19/20D,19/5] z/32 [d15/32f15/32] z/32 [d15/32f15/32F,19/20] z17/32 [d15/32f15/32F,19/20] z/32 [d15/32f15/32] z/32 [d15/32f15/32F,19/20] z/32 [d15/32f15/32] z/32 
[G15/32b15/32B,19/20G,,19/5] z/32 [G15/32b15/32] z/32 [G15/32b15/32B,19/20] z17/32 [G15/32b15/32B,19/20] z/32 [G15/32b15/32] z/32 [G15/32b15/32B,19/20] z/32 [G15/32b15/32] z/32 
[F15/32=B15/32=B,,19/20B,,,19/5] z/32 [F15/32B15/32] z/32 [F15/32B15/32B,,19/20] z17/32 [F15/32B15/32B,,19/20] z/32 [F15/32B15/32] z/32 [F15/32B15/32B,,19/20] z/32 [F15/32B15/32] z/32 
[_B15/32=f15/32=F,19/20_B,,19/5] z/32 [B15/32f15/32] z/32 [B15/32f15/32F,19/20] z17/32 [B15/32f15/32F,19/20] z/32 [B15/32f15/32] z/32 [B15/32f15/32F,19/20] z/32 [B15/32f15/32] z/32 
[d15/32^f15/32^F,19/20D,19/5] z/32 [d15/32f15/32] z/32 [d15/32f15/32F,19/20] z17/32 [d15/32f15/32F,19/20] z/32 [d15/32f15/32] z/32 [d15/32f15/32F,19/20] z/32 [d15/32f15/32] z/32 
[G15/32b15/32B,19/20G,,19/5] z/32 [G15/32b15/32] z/32 [G15/32b15/32B,19/20] z17/32 [G15/32b15/32B,19/20] z/32 [G15/32b15/32] z/32 [G15/32b15/32B,19/20] z/32 [G15/32b15/32] z/32 
[F15/32=B15/32=B,,19/20B,,,19/5] z/32 [F15/32B15/32] z/32 [F15/32B15/32B,,19/20] z17/32 [F15/32B15/32B,,19/20] z/32 [F15/32B15/32] z/32 [F15/32B15/32B,,19/20] z17/32 
[_B15/32=f15/32=F,19/20_B,,19/5] z/32 [B15/32f15/32] z/32 [B15/32f15/32F,19/20] z17/32 [B15/32f15/32F,19/20] z/32 [B15/32f15/32] z/32 [B15/32f15/32F,19/20] z17/32 
[d15/32^f15/32^F,19/20D,19/5] z/32 [d15/32f15/32] z/32 [d15/32f15/32F,19/20] z17/32 [d15/32f15/32F,19/20] z/32 [d15/32f15/32] z/32 [d15/32f15/32F,19/20] z17/32 
[G15/32b15/32B,19/20G,,19/5] z/32 [G15/32b15/32] z/32 [G15/32b15/32B,19/20] z17/32 [G15/32b15/32B,19/20] z/32 [G15/32b15/32] z/32 [G15/32b15/32B,19/20] z17/32 
[F/3=B/3=B,,19/20B,,,19/5] z/6 [F15/32B15/32] z/32 [F15/32B15/32B,,19/20] z17/32 [F/3B/3B,,19/20] z/6 [F15/32B15/32] z/32 [F15/32B15/32B,,19/20] z17/32 
[_B/3=f/3=F,19/20_B,,19/5] z/6 [B15/32f15/32] z/32 [B15/32f15/32F,19/20] z17/32 [B/3f/3F,19/20] z/6 [B15/32f15/32] z/32 [B15/32f15/32F,19/20] z17/32 
[d/3^f/3^F,19/20D,19/5] z/6 [d15/32f15/32] z/32 [d15/32f15/32F,19/20] z17/32 [d/3f/3F,19/20] z/6 [d15/32f15/32] z/32 [d15/32f15/32F,19/20] z17/32 
[G/3b/3B,19/20G,,19/5] z/6 [G15/32b15/32] z/32 [G15/32b15/32B,19/20] z17/32 [G/3b/3B,19/20] z/6 [G15/32b15/32] z/32 [G15/32b15/32B,19/20] z17/32 
[D19/20=B,,19/20] z/20 [D19/20B,,19/20] z/20 [D15/32B,,17/24] z/32 [z/4D15/32] B,,/4 [=F15/32B,,15/32] z/32 [B,,15/32^F19/20] z/32 
[z/_B,,19/20] D15/32 z/32 [C/4B,,17/24] z/4 [z/4B,10/7] B,,/4 B,,15/32 z/32 B,,15/32 z/32 [G,15/32B,,15/32] z/32 [F,/4B,,15/32] z/4 
[D,15/32G,19/20] z/32 D,15/32 z/32 [G,15/32D,19/20] z/32 F,15/32 z/32 [G,15/32D,17/24] z/32 F,/4 D,/4 [G,/4D,15/32] z/4 [D,15/32B,19/20] z/32 
G,,2/9 z/36 [z/4G,,17/36] [z/4G,15/32] G,,/4 [F,/4G,,17/24] z/4 G,/4 G,,/4 [G,,15/32B,19/10] z/32 G,,15/32 z/32 G,,15/32 z/32 G,,15/32 z/32 
[D19/20=B,,19/20] z/20 [D19/20B,,19/20] z/20 [D15/32B,,17/24] z/32 [z/4D15/32] B,,/4 [=F15/32B,,15/32] z/32 [^F15/32B,,15/32] z/32 
[z/_B,,19/20] D15/32 z/32 [C15/32B,,17/24] z/32 [z/4B,10/7] B,,/4 B,,15/32 z/32 B,,15/32 z/32 [G,15/32B,,15/32] z/32 [F,/4B,,15/32] z/4 
[D,15/32G,19/20] z/32 D,15/32 z/32 [G,19/20D,19/20] z/20 [G,15/32D,17/24] z/32 F,/4 D,/4 [G,/4D,15/32] z/4 [D,15/32B,19/20] z/32 
G,,2/9 z/36 [z/4G,,17/36] [z/4G,15/32] G,,/4 [F,/4G,,17/24] z/4 [z/4B,19/8] G,,/4 G,,15/32 z/32 G,,15/32 z/32 G,,15/32 z/32 G,,15/32 z/32 
[=B,,19/20D10/7] z/20 [z/B,,19/20] G15/32 z/32 [F/4B,,17/24] z/4 [z/4=F15/32] B,,/4 [F/4B,,15/32] z/4 [^F15/32B,,15/32] z/32 
_B,,19/20 z/20 [B,,17/24D19/20] z/24 B,,/4 [C15/32B,,15/32] z/32 [B,,15/32D19/20] z/32 B,,15/32 z/32 B,,15/32 z/32 
[C15/32D,15/32] z/32 [D/4D,15/32] z/4 [=F15/32D,19/20] z/32 [z/^F19/20] [z/D,17/24] [z/4D19/20] D,/4 D,15/32 z/32 D,15/32 z/32 
[G,,2/9C19/20] z/36 G,,17/36 z/36 G,,/4 [B,15/32G,,17/24] z/32 [z/4G,10/7] G,,/4 G,,15/32 z/32 G,,15/32 z/32 G,,15/32 z/32 G,,15/32 z/32 
[D19/20=B,,19/20] z/20 [z/B,,19/20] G15/32 z/32 [F/4B,,17/24] z/4 [z/4=F15/32] B,,/4 [F/4B,,15/32] z/4 [^F15/32B,,15/32] z/32 
[z/_B,,19/20] D/4 z/4 [D/4B,,17/24] z/4 D/4 B,,/4 [C15/32B,,15/32] z/32 [B,,15/32D19/20] z/32 B,,15/32 z/32 B,,15/32 z/32 
[C15/32D,15/32] z/32 [D15/32D,15/32] z/32 [=F15/32D,19/20] z/32 ^F/4 [z/4F17/24] [z/D,17/24] D2/9 z/36 [D,/4D17/24] D,15/32 z/32 [D15/32D,15/32] z/32 
[G,,2/9B,19/20] z/36 G,,17/36 z/36 G,,/4 [B,15/32G,,17/24] z/32 [z/4G,19/20] G,,/4 G,,15/32 z/32 G,,15/32 z/32 G,,15/32 z/32 G,,15/32 z/32 
[F15/32=B15/32B,,,19/5=B,,19/5] z/32 [F15/32B15/32] z/32 [F15/32B15/32] z17/32 [F15/32B15/32] z/32 [F15/32B15/32] z/32 [F15/32B15/32] z/32 [F15/32B15/32] z/32 
[_B15/32=f15/32_B,,19/5=F,19/5] z/32 [B15/32f15/32] z/32 [B15/32f15/32] z17/32 [B15/32f15/32] z/32 [B15/32f15/32] z/32 [B15/32f15/32] z/32 [B15/32f15/32] z/32 
[d15/32^f15/32D,19/5^F,19/5] z/32 [d15/32f15/32] z/32 [d15/32f15/32] z17/32 [d15/32f15/32] z/32 [d15/32f15/32] z/32 [d15/32f15/32] z/32 [d15/32f15/32] z/32 
[G15/32b15/32G,,19/5B,19/5] z/32 [G15/32b15/32] z/32 [G15/32b15/32] z17/32 [G15/32b15/32] z/32 [G15/32b15/32] z/32 [G15/32b15/32] z/32 [G15/32b15/32] z/32 
[F15/32=B15/32=B,,19/20B,,,19/5] z/32 [F15/32B15/32] z/32 [F15/32B15/32B,,19/20] z17/32 [F15/32B15/32B,,19/20] z/32 [F15/32B15/32] z/32 [F15/32B15/32B,,19/20] z/32 [F15/32B15/32] z/32 
[_B15/32=f15/32=F,19/20_B,,19/5] z/32 [B15/32f15/32] z/32 [B15/32f15/32F,19/20] z17/32 [B15/32f15/32F,19/20] z/32 [B15/32f15/32] z/32 [B15/32f15/32F,19/20] z/32 [B15/32f15/32] z/32 
[d15/32^f15/32^F,19/20D,19/5] z/32 [d15/32f15/32] z/32 [d15/32f15/32F,19/20] z17/32 [d15/32f15/32F,19/20] z/32 [d15/32f15/32] z/32 [d15/32f15/32F,19/20] z/32 [d15/32f15/32] z/32 
[G15/32b15/32B,19/20G,,19/5] z/32 [G15/32b15/32] z/32 [G15/32b15/32B,19/20] z17/32 [G15/32b15/32B,19/20] z/32 [G15/32b15/32] z/32 [G15/32b15/32B,19/20] z/32 [G15/32b15/32] z/32 
[F15/32=B15/32=B,,19/20B,,,19/5] z/32 [F15/32B15/32] z/32 [F15/32B15/32B,,19/20] z17/32 [F15/32B15/32B,,19/20] z/32 [F15/32B15/32] z/32 [F15/32B15/32B,,19/20] z/32 [F15/32B15/32] z/32 
[_B15/32=f15/32=F,19/20_B,,19/5] z/32 [B15/32f15/32] z/32 [B15/32f15/32F,19/20] z17/32 [B15/32f15/32F,19/20] z/32 [B15/32f15/32] z/32 [B15/32f15/32F,19/20] z/32 [B15/32f15/32] z/32 
[d15/32^f15/32^F,19/20D,19/5] z/32 [d15/32f15/32] z/32 [d15/32f15/32F,19/20] z17/32 [d15/32f15/32F,19/20] z/32 [d15/32f15/32] z/32 [d15/32f15/32F,19/20] z/32 [d15/32f15/32] z/32 
[G15/32b15/32B,19/20G,,19/5] z/32 [G15/32b15/32] z/32 [G15/32b15/32B,19/20] z17/32 [G15/32b15/32B,19/20] z/32 [G15/32b15/32] z/32 [G15/32b15/32B,19/20] z/32 [G15/32b15/32] z/32 
[F15/32=B15/32=B,,19/20B,,,19/5] z/32 [F15/32B15/32] z/32 [F15/32B15/32B,,19/20] z17/32 [F15/32B15/32B,,19/20] z/32 [F15/32B15/32] z/32 [F15/32B15/32B,,19/20] z/32 [F15/32B15/32] z/32 
[_B15/32=f15/32=F,19/20_B,,19/5] z/32 [B15/32f15/32] z/32 [B15/32f15/32F,19/20] z17/32 [B15/32f15/32F,19/20] z/32 [B15/32f15/32] z/32 [B15/32f15/32F,19/20] z/32 [B15/32f15/32] z/32 
[d15/32^f15/32^F,19/20D,19/5] z/32 [d15/32f15/32] z/32 [d15/32f15/32F,19/20] z17/32 [d15/32f15/32F,19/20] z/32 [d15/32f15/32] z/32 [d15/32f15/32F,19/20] z/32 [d15/32f15/32] z/32 
[G15/32b15/32B,19/20G,,19/5] z/32 [G15/32b15/32] z/32 [G15/32b15/32B,19/20] z17/32 [G15/32b15/32B,19/20] z/32 [G15/32b15/32] z/32 [G15/32b15/32B,19/20] z/32 [G15/32b15/32] z/32 
[F15/32=B15/32=B,,19/20B,,,19/5] z/32 [F15/32B15/32] z/32 [F15/32B15/32B,,19/20] z17/32 [F15/32B15/32B,,19/20] z/32 [F15/32B15/32] z/32 [F15/32B15/32B,,19/20] z17/32 
[_B15/32=f15/32=F,19/20_B,,19/5] z/32 [B15/32f15/32] z/32 [B15/32f15/32F,19/20] z17/32 [B15/32f15/32F,19/20] z/32 [B15/32f15/32] z/32 [B15/32f15/32F,19/20] z17/32 
[d15/32^f15/32^F,19/20D,19/5] z/32 [d15/32f15/32] z/32 [d15/32f15/32F,19/20] z17/32 [d15/32f15/32F,19/20] z/32 [d15/32f15/32] z/32 [d15/32f15/32F,19/20] z17/32 
[G15/32b15/32B,19/20G,,19/5] z/32 [G15/32b15/32] z/32 [G15/32b15/32B,19/20] z17/32 [G15/32b15/32B,19/20] z/32 [G15/32b15/32] z/32 [G15/32b15/32B,19/20] z17/32 
[F/3=B/3=B,,19/20B,,,19/5] z/6 [F15/32B15/32] z/32 [F15/32B15/32B,,19/20] z17/32 [F/3B/3B,,19/20] z/6 [F15/32B15/32] z/32 [F15/32B15/32B,,19/20] z17/32 
[_B/3=f/3=F,19/20_B,,19/5] z/6 [B15/32f15/32] z/32 [B15/32f15/32F,19/20] z17/32 [B/3f/3F,19/20] z/6 [B15/32f15/32] z/32 [B15/32f15/32F,19/20] z17/32 
[d/3^f/3^F,19/20D,19/5] z/6 [d15/32f15/32] z/32 [d15/32f15/32F,19/20] z17/32 [d/3f/3F,19/20] z/6 [d15/32f15/32] z/32 [d15/32f15/32F,19/20] z17/32 
[G/3b/3B,19/20G,,19/5] z/6 [G15/32b15/32] z/32 [G15/32b15/32B,19/20] z17/32 [G/3b/3B,19/20] z/6 [G15/32b15/32] z/32 [G15/32b15/32B,19/20] z17/32 
[=B,,15/32B,,,19/5] z/32 B,,15/32 z/32 B,,15/32 z/32 B,,15/32 z/32 B,,15/32 z/32 B,,15/32 z/32 B,,15/32 z/32 B,,15/32 z/32 
[=F,15/32_B,,19/5] z/32 F,15/32 z/32 F,15/32 z/32 F,15/32 z/32 F,15/32 z/32 F,15/32 z/32 F,15/32 z/32 F,15/32 z/32 
[^F,15/32D,19/5] z/32 F,15/32 z/32 F,15/32 z/32 F,15/32 z/32 F,15/32 z/32 F,15/32 z/32 F,15/32 z/32 F,15/32 z/32 
[B,15/32G,,19/5] z/32 B,15/32 z/32 B,15/32 z/32 B,15/32 z/32 B,15/32 z/32 B,15/32 z/32 [F15/32B,15/32] z/32 [G15/32B,15/32] z/32 
[F19/20=B,,19/5B,,,19/5] z/20 =F15/32 z/32 C19/20 z/20 D19/20 z/20 F15/32 z/32 
[^F19/20=F,19/5_B,,19/5] z/20 F15/32 z/32 G15/32 z/32 F19/20 z/20 D15/32 z/32 [z/F19/20] 
[z/^F,19/5D,19/5] F19/20 z/20 G15/32 z/32 F19/20 z/20 D15/32 z/32 =F15/32 z/32 
[^F19/20B,19/5G,,19/5] z/20 F15/32 z/32 G15/32 z/32 F15/32 z17/32 G15/32 z/32 F15/32 z/32 
[z=B,,19/5B,,,19/5] G15/32 z/32 F15/32 z33/32 G15/32 z/32 F15/32 z/32 
[z=F,19/5_B,,19/5] G15/32 z/32 F15/32 z33/32 G15/32 z/32 F15/32 z/32 
[z^F,19/5D,19/5] G15/32 z/32 F15/32 z33/32 d19/20 z/20 
[^g19/20B,19/5G,,19/5] z/20 g2/9 z/36 f/4 =f15/32 z/32 ^f19/10 z/10 
[F15/32=B15/32B,,,19/5=B,,19/5] z/32 [F15/32B15/32] z/32 [F15/32B15/32] z17/32 [F15/32B15/32] z/32 [F15/32B15/32] z/32 [F15/32B15/32] z/32 [F15/32B15/32] z/32 
[_B15/32=f15/32_B,,19/5=F,19/5] z/32 [B15/32f15/32] z/32 [B15/32f15/32] z17/32 [B15/32f15/32] z/32 [B15/32f15/32] z/32 [B15/32f15/32] z/32 [B15/32f15/32] z/32 
[d15/32^f15/32D,19/5^F,19/5] z/32 [d15/32f15/32] z/32 [d15/32f15/32] z17/32 [d15/32f15/32] z/32 [d15/32f15/32] z/32 [d15/32f15/32] z/32 [d15/32f15/32] z/32 
[G15/32b15/32G,,19/5B,19/5] z/32 [G15/32b15/32] z/32 [G15/32b15/32] z17/32 [G15/32b15/32] z/32 [G15/32b15/32] z/32 [G15/32b15/32] z/32 [G15/32b15/32] z/32 
[F15/32=B15/32=B,,19/20B,,,19/5] z/32 [F15/32B15/32] z/32 [F15/32B15/32B,,19/20] z17/32 [F15/32B15/32B,,19/20] z/32 [F15/32B15/32] z/32 [F15/32B15/32B,,19/20] z/32 [F15/32B15/32] z/32 
[_B15/32=f15/32=F,19/20_B,,19/5] z/32 [B15/32f15/32] z/32 [B15/32f15/32F,19/20] z17/32 [B15/32f15/32F,19/20] z/32 [B15/32f15/32] z/32 [B15/32f15/32F,19/20] z/32 [B15/32f15/32] z/32 
[d15/32^f15/32^F,19/20D,19/5] z/32 [d15/32f15/32] z/32 [d15/32f15/32F,19/20] z17/32 [d15/32f15/32F,19/20] z/32 [d15/32f15/32] z/32 [d15/32f15/32F,19/20] z/32 [d15/32f15/32] z/32 
[G15/32b15/32B,19/20G,,19/5] z/32 [G15/32b15/32] z/32 [G15/32b15/32B,19/20] z17/32 [G15/32b15/32B,19/20] z/32 [G15/32b15/32] z/32 [G15/32b15/32B,19/20] z/32 [G15/32b15/32] z/32 
[F15/32=B15/32=B,,19/20B,,,19/5] z/32 [F15/32B15/32] z/32 [F15/32B15/32B,,19/20] z17/32 [F15/32B15/32B,,19/20] z/32 [F15/32B15/32] z/32 [F15/32B15/32B,,19/20] z/32 [F15/32B15/32] z/32 
[_B15/32=f15/32=F,19/20_B,,19/5] z/32 [B15/32f15/32] z/32 [B15/32f15/32F,19/20] z17/32 [B15/32f15/32F,19/20] z/32 [B15/32f15/32] z/32 [B15/32f15/32F,19/20] z/32 [B15/32f15/32] z/32 
[d15/32^f15/32^F,19/20D,19/5] z/32 [d15/32f15/32] z/32 [d15/32f15/32F,19/20] z17/32 [d15/32f15/32F,19/20] z/32 [d15/32f15/32] z/32 [d15/32f15/32F,19/20] z/32 [d15/32f15/32] z/32 
[G15/32b15/32B,19/20G,,19/5] z/32 [G15/32b15/32] z/32 [G15/32b15/32B,19/20] z17/32 [G15/32b15/32B,19/20] z/32 [G15/32b15/32] z/32 [G15/32b15/32B,19/20] z/32 [G15/32b15/32] z/32 
[F15/32=B15/32=B,,19/20B,,,19/5] z/32 [F15/32B15/32] z/32 [F15/32B15/32B,,19/20] z17/32 [F15/32B15/32B,,19/20] z/32 [F15/32B15/32] z/32 [F15/32B15/32B,,19/20] z/32 [F15/32B15/32] z/32 
[_B15/32=f15/32=F,19/20_B,,19/5] z/32 [B15/32f15/32] z/32 [B15/32f15/32F,19/20] z17/32 [B15/32f15/32F,19/20] z/32 [B15/32f15/32] z/32 [B15/32f15/32F,19/20] z/32 [B15/32f15/32] z/32 
[d15/32^f15/32^F,19/20D,19/5] z/32 [d15/32f15/32] z/32 [d15/32f15/32F,19/20] z17/32 [d15/32f15/32F,19/20] z/32 [d15/32f15/32] z/32 [d15/32f15/32F,19/20] z/32 [d15/32f15/32] z/32 
[G15/32b15/32B,19/20G,,19/5] z/32 [G15/32b15/32] z/32 [G15/32b15/32B,19/20] z17/32 [G15/32b15/32B,19/20] z/32 [G15/32b15/32] z/32 [G15/32b15/32B,19/20] z/32 [G15/32b15/32] z/32 
[F15/32=B15/32=B,,19/20B,,,19/5] z/32 [F15/32B15/32] z/32 [F15/32B15/32B,,19/20] z17/32 [F15/32B15/32B,,19/20] z/32 [F15/32B15/32] z/32 [F15/32B15/32B,,19/20] z/32 [F15/32B15/32] z/32 
[_B15/32=f15/32=F,19/20_B,,19/5] z/32 [B15/32f15/32] z/32 [B15/32f15/32F,19/20] z17/32 [B15/32f15/32F,19/20] z/32 [B15/32f15/32] z/32 [B15/32f15/32F,19/20] z/32 [B15/32f15/32] z/32 
[d15/32^f15/32^F,19/20D,19/5] z/32 [d15/32f15/32] z/32 [d15/32f15/32F,19/20] z17/32 [d15/32f15/32F,19/20] z/32 [d15/32f15/32] z/32 [d15/32f15/32F,19/20] z/32 [d15/32f15/32] z/32 
[G15/32b15/32B,19/20G,,19/5] z/32 [G15/32b15/32] z/32 [G15/32b15/32B,19/20] z17/32 [G15/32b15/32B,19/20] z/32 [G15/32b15/32] z/32 [G15/32b15/32B,19/20] z/32 [G15/32b15/32] z/32 
[F15/32=B15/32=B,,19/20B,,,19/5] z/32 [F15/32B15/32] z/32 [F15/32B15/32B,,19/20] z17/32 [F15/32B15/32B,,19/20] z/32 [F15/32B15/32] z/32 [F15/32B15/32B,,19/20] z/32 [F15/32B15/32] z/32 
[_B15/32=f15/32=F,19/20_B,,19/5] z/32 [B15/32f15/32] z/32 [B15/32f15/32F,19/20] z17/32 [B15/32f15/32F,19/20] z/32 [B15/32f15/32] z/32 [B15/32f15/32F,19/20] z/32 [B15/32f15/32] z/32 
[d15/32^f15/32^F,19/20D,19/5] z/32 [d15/32f15/32] z/32 [d15/32f15/32F,19/20] z17/32 [d15/32f15/32F,19/20] z/32 [d15/32f15/32] z/32 [d15/32f15/32F,19/20] z/32 [d15/32f15/32] z/32 
[G15/32b15/32B,19/20G,,19/5] z/32 [G15/32b15/32] z/32 [G15/32b15/32B,19/20] z17/32 [G15/32b15/32B,19/20] z/32 [G15/32b15/32] z/32 [G15/32b15/32B,19/20] z/32 [G15/32b15/32] z/32 
[F15/32=B15/32=B,,19/20B,,,19/5] z/32 [F15/32B15/32] z/32 [F15/32B15/32B,,19/20] z17/32 [F15/32B15/32B,,19/20] z/32 [F15/32B15/32] z/32 [F15/32B15/32B,,19/20] z/32 [F15/32B15/32] z/32 
[_B15/32=f15/32=F,19/20_B,,19/5] z/32 [B15/32f15/32] z/32 [B15/32f15/32F,19/20] z17/32 [B15/32f15/32F,19/20] z/32 [B15/32f15/32] z/32 [B15/32f15/32F,19/20] z/32 [B15/32f15/32] z/32 
[d15/32^f15/32^F,19/20D,19/5] z/32 [d15/32f15/32] z/32 [d15/32f15/32F,19/20] z17/32 [d15/32f15/32F,19/20] z/32 [d15/32f15/32] z/32 [d15/32f15/32F,19/20] z/32 [d15/32f15/32] z/32 
[G15/32b15/32B,19/20G,,19/5] z/32 [G15/32b15/32] z/32 [G15/32b15/32B,19/20] z17/32 [G15/32b15/32B,19/20] z/32 [G15/32b15/32] z/32 [G15/32b15/32B,19/20] z/32 [G15/32b15/32] z/32 
[F15/32=B15/32=B,,19/20B,,,19/5] z/32 [F15/32B15/32] z/32 [F15/32B15/32B,,19/20] z17/32 [F15/32B15/32B,,19/20] z/32 [F15/32B15/32] z/32 [F15/32B15/32B,,19/20] z/32 [F15/32B15/32] z/32 
[_B15/32=f15/32=F,19/20_B,,19/5] z/32 [B15/32f15/32] z/32 [B15/32f15/32F,19/20] z17/32 [B15/32f15/32F,19/20] z/32 [B15/32f15/32] z/32 [B15/32f15/32F,19/20] z/32 [B15/32f15/32] z/32 
[d15/32^f15/32^F,19/20D,19/5] z/32 [d15/32f15/32] z/32 [d15/32f15/32F,19/20] z17/32 [d15/32f15/32F,19/20] z/32 [d15/32f15/32] z/32 [d15/32f15/32F,19/20] z/32 [d15/32f15/32] z/32 
[G15/32b15/32B,19/20G,,19/5] z/32 [G15/32b15/32] z/32 [G15/32b15/32B,19/20] z17/32 [G15/32b15/32B,19/20] z/32 [G15/32b15/32] z/32 [G15/32b15/32B,19/20] z/32 [G15/32b15/32] z/32 
[F15/32=B15/32=B,,19/20B,,,19/5] z/32 [F15/32B15/32] z/32 [F15/32B15/32B,,19/20] z17/32 [F15/32B15/32B,,19/20] z/32 [F15/32B15/32] z/32 [F15/32B15/32B,,19/20] z17/32 
[_B15/32=f15/32=F,19/20_B,,19/5] z/32 [B15/32f15/32] z/32 [B15/32f15/32F,19/20] z17/32 [B15/32f15/32F,19/20] z/32 [B15/32f15/32] z/32 [B15/32f15/32F,19/20] z17/32 
[d15/32^f15/32^F,19/20D,19/5] z/32 [d15/32f15/32] z/32 [d15/32f15/32F,19/20] z17/32 [d15/32f15/32F,19/20] z/32 [d15/32f15/32] z/32 [d15/32f15/32F,19/20] z17/32 
[G15/32b15/32B,19/20G,,19/5] z/32 [G15/32b15/32] z/32 [G15/32b15/32B,19/20] z17/32 [G15/32b15/32B,19/20] z/32 [G15/32b15/32] z/32 [G15/32b15/32B,19/20] z17/32 
[F/3=B/3=B,,19/20B,,,19/5] z/6 [F15/32B15/32] z/32 [F15/32B15/32B,,19/20] z17/32 [F/3B/3B,,19/20] z/6 [F15/32B15/32] z/32 [F15/32B15/32B,,19/20] z17/32 
[_B/3=f/3=F,19/20_B,,19/5] z/6 [B15/32f15/32] z/32 [B15/32f15/32F,19/20] z17/32 [B/3f/3F,19/20] z/6 [B15/32f15/32] z/32 [B15/32f15/32F,19/20] z17/32 
[d/3^f/3^F,19/20D,19/5] z/6 [d15/32f15/32] z/32 [d15/32f15/32F,19/20] z17/32 [d/3f/3F,19/20] z/6 [d15/32f15/32] z/32 [d15/32f15/32F,19/20] z17/32 
[G/3b/3B,19/20G,,19/5] z/6 [G15/32b15/32] z/32 [G15/32b15/32B,19/20] z17/32 [G/3b/3B,19/20] z/6 [G15/32b15/32] z/32 [G15/32b15/32B,19/20] z17/32 
[F15/32=B15/32=B,,19/20B,,,19/5] z/32 [F15/32B15/32] z/32 [F15/32B15/32B,,19/20] z17/32 [F15/32B15/32B,,19/20] z/32 [F15/32B15/32] z/32 [F15/32B15/32B,,19/20] z17/32 
[_B15/32=f15/32=F,19/20_B,,19/5] z/32 [B15/32f15/32] z/32 [B15/32f15/32F,19/20] z17/32 [B15/32f15/32F,19/20] z/32 [B15/32f15/32] z/32 [B15/32f15/32F,19/20] z17/32 
[d15/32^f15/32^F,19/20D,19/5] z/32 [d15/32f15/32] z/32 [d15/32f15/32F,19/20] z17/32 [d15/32f15/32F,19/20] z/32 [d15/32f15/32] z/32 [d15/32f15/32F,19/20] z17/32 
[G15/32b15/32B,19/20G,,19/5] z/32 [G15/32b15/32] z/32 [G15/32b15/32B,19/20] z17/32 [G15/32b15/32B,19/20] z/32 [G15/32b15/32] z/32 [G15/32b15/32B,19/20] z17/32 
[F/3=B/3=B,,19/20B,,,19/5] z/6 [F15/32B15/32] z/32 [F15/32B15/32B,,19/20] z17/32 [F/3B/3B,,19/20] z/6 [F15/32B15/32] z/32 [F15/32B15/32B,,19/20] z17/32 
[_B/3=f/3=F,19/20_B,,19/5] z/6 [B15/32f15/32] z/32 [B15/32f15/32F,19/20] z17/32 [B/3f/3F,19/20] z/6 [B15/32f15/32] z/32 [B15/32f15/32F,19/20] z17/32 
[d/3^f/3^F,19/20D,19/5] z/6 [d15/32f15/32] z/32 [d15/32f15/32F,19/20] z17/32 [d/3f/3F,19/20] z/6 [d15/32f15/32] z/32 [d15/32f15/32F,19/20] z17/32 
[G/3b/3B,19/20G,,19/5] z/6 [G15/32b15/32] z/32 [G15/32b15/32B,19/20] z17/32 [G/3b/3B,19/20] z/6 [G15/32b15/32] z/32 [G15/32b15/32B,19/20] 
