X: 1
T: Crusher P feat. GUMI - Copycat (Background)
Z: ABC Generated by Starbound Composer v0.8.7
L: 1/4
M: 4/4
Q: 1/4=136
K: Eb
[zC,19/8] G,19/20 z/20 C17/24 z/24 C,17/24 z/24 C15/32 z/32 
[zE,19/8] B,19/20 z/20 E17/24 z/24 E,17/24 z/24 E15/32 z/32 
[zA,,19/8] E,19/20 z/20 A,17/24 z/24 A,,17/24 z/24 A,15/32 z/32 
[zG,,19/8] D,19/20 z/20 G,17/24 z/24 G,,17/24 z/24 G,15/32 z/32 
[zC,19/8] G,19/20 z/20 C17/24 z/24 C,17/24 z/24 C15/32 z/32 
[zE,19/8] B,19/20 z/20 E17/24 z/24 E,17/24 z/24 E15/32 z/32 
[zA,,19/8] E,19/20 z/20 A,17/24 z/24 A,,17/24 z/24 A,15/32 z/32 
[zG,,19/8] D,19/20 z/20 G,17/24 z/24 G,,17/24 z/24 G,15/32 z/32 
[zC,19/8] G,19/20 z/20 C17/24 z/24 C,17/24 z/24 C15/32 z/32 
[zE,19/8] B,19/20 z/20 E17/24 z/24 E,17/24 z/24 E15/32 z/32 
[zA,,19/8] E,19/20 z/20 A,17/24 z/24 A,,17/24 z/24 A,15/32 z/32 
[zG,,19/8] D,19/20 z/20 G,17/24 z/24 G,,17/24 z/24 G,15/32 z/32 
[zC,19/8] G,19/20 z/20 C17/24 z/24 C,17/24 z/24 C15/32 z/32 
[zE,19/8] B,19/20 z/20 E17/24 z/24 E,17/24 z/24 E15/32 z/32 
[zA,,19/8] E,19/20 z/20 A,17/24 z/24 A,,17/24 z/24 A,15/32 z/32 
[zG,,19/8] D,19/20 z/20 G,17/24 z/24 G,,17/24 z/24 G,15/32 z/32 
[zC,19/8C,,19/5] G,19/20 z/20 C17/24 z/24 C,17/24 z/24 C15/32 z/32 
[zE,19/8E,,19/5] B,19/20 z/20 E17/24 z/24 E,17/24 z/24 E15/32 z/32 
[zA,,19/8A,,,19/5] E,19/20 z/20 A,17/24 z/24 A,,17/24 z/24 A,15/32 z/32 
[zG,,19/8G,,,19/5] D,19/20 z/20 G,17/24 z/24 G,,17/24 z/24 G,15/32 z/32 
[zC,19/8C,,19/5] G,19/20 z/20 C17/24 z/24 C,17/24 z/24 C15/32 z/32 
[zE,19/8E,,19/5] B,19/20 z/20 E17/24 z/24 E,17/24 z/24 E15/32 z/32 
[zA,,19/8A,,,19/5] E,19/20 z/20 A,17/24 z/24 A,,17/24 z/24 A,15/32 z/32 
[zG,,19/8G,,,19/5] D,19/20 z/20 G,17/24 z/24 G,,17/24 z/24 G,15/32 z/32 
c15/32 z/32 [G15/32C15/32] z/32 c15/32 z/32 [d15/32C15/32] z/32 e15/32 z/32 [d15/32C15/32] z/32 c15/32 z/32 [B15/32C15/32] z/32 
e15/32 z/32 [B15/32E15/32] z/32 e15/32 z/32 [f15/32E15/32] z/32 g15/32 z/32 [e15/32E15/32] z/32 f15/32 z/32 [d15/32E15/32] z/32 
e15/32 z/32 [A15/32A,15/32] z/32 c15/32 z/32 [e15/32A,15/32] z/32 [z/g19/20] A,15/32 z/32 [z/e19/20] A,15/32 z/32 
d15/32 z/32 [G15/32G,15/32] z/32 =B15/32 z/32 [c15/32G,15/32] z/32 [z/d19/20] G,15/32 z/32 [z/B19/20] G,15/32 z/32 
c15/32 z/32 [G15/32C15/32] z/32 c15/32 z/32 [d15/32C15/32] z/32 e15/32 z/32 [d15/32C15/32] z/32 c15/32 z/32 [_B15/32C15/32] z/32 
e15/32 z/32 [B15/32E15/32] z/32 e15/32 z/32 [f15/32E15/32] z/32 g15/32 z/32 [e15/32E15/32] z/32 f15/32 z/32 [d15/32E15/32] z/32 
e15/32 z/32 [A15/32A,15/32] z/32 c15/32 z/32 [e15/32A,15/32] z/32 [z/g19/20] A,15/32 z/32 [z/a19/20] A,15/32 z/32 
[z/g19/20] G,15/32 z/32 e15/32 z/32 [f15/32G,15/32] z/32 [z/c19/20] G,15/32 z/32 [z/=B19/20] G,15/32 z/32 
[c15/32C,,G,,C,] z/32 G15/32 z/32 c15/32 z/32 [d15/32C,,/C,/] z/32 [e15/32C,,G,,C,] z/32 d15/32 z/32 c15/32 z/32 [_B15/32C,,/C,/] z/32 
[e15/32E,,B,,E,] z/32 B15/32 z/32 e15/32 z/32 [f15/32E,,/E,/] z/32 [g15/32E,,B,,E,] z/32 e15/32 z/32 f15/32 z/32 [d15/32E,,/E,/] z/32 
[e15/32A,,,E,,A,,] z/32 A15/32 z/32 c15/32 z/32 [e15/32A,,,/A,,/] z/32 [g19/20A,,,E,,A,,] z/20 [z/e19/20] [A,,,/A,,/] 
[d15/32G,,,D,,G,,] z/32 G15/32 z/32 =B15/32 z/32 [c15/32G,,,/G,,/] z/32 [d19/20G,,,D,,G,,] z/20 [G,,/B19/20G,,,D,,] G,,/ 
[c15/32C,,G,,C,] z/32 G15/32 z/32 c15/32 z/32 [d15/32C,,/C,/] z/32 [e15/32C,,G,,C,] z/32 d15/32 z/32 c15/32 z/32 [_B15/32C,,/C,/] z/32 
[e15/32E,,B,,E,] z/32 B15/32 z/32 e15/32 z/32 [f15/32E,,/E,/] z/32 [g15/32E,,B,,E,] z/32 e15/32 z/32 f15/32 z/32 [d15/32E,,/E,/] z/32 
[e15/32A,,,E,,A,,] z/32 A15/32 z/32 c15/32 z/32 [e15/32A,,,/A,,/] z/32 [g19/20A,,,E,,A,,] z/20 [z/a19/20] [A,,,/A,,/] 
[g19/20G,,,D,,G,,] z/20 e15/32 z/32 [f15/32G,,,/G,,/] z/32 [c19/20G,,,D,,G,,] z/20 [G,,/=B19/20G,,,D,,] G,,/ 
[c15/32C,,G,,C,] z/32 G15/32 z/32 c15/32 z/32 [d15/32C,,/C,/] z/32 [e15/32C,,G,,C,] z/32 d15/32 z/32 c15/32 z/32 [_B15/32C,,/C,/] z/32 
[e15/32E,,B,,E,] z/32 B15/32 z/32 e15/32 z/32 [f15/32E,,/E,/] z/32 [g15/32E,,B,,E,] z/32 e15/32 z/32 f15/32 z/32 [d15/32E,,/E,/] z/32 
[e15/32A,,,E,,A,,] z/32 A15/32 z/32 c15/32 z/32 [e15/32A,,,/A,,/] z/32 [g19/20A,,,E,,A,,] z/20 [z/e19/20] [A,,,/A,,/] 
[d15/32G,,,D,,G,,] z/32 G15/32 z/32 =B15/32 z/32 [c15/32G,,,/G,,/] z/32 [d19/20G,,,D,,G,,] z/20 [G,,/B19/20G,,,D,,] G,,/ 
[c15/32C,,G,,C,] z/32 G15/32 z/32 c15/32 z/32 [d15/32C,,/C,/] z/32 [e15/32C,,G,,C,] z/32 d15/32 z/32 c15/32 z/32 [_B15/32C,,/C,/] z/32 
[e15/32E,,B,,E,] z/32 B15/32 z/32 e15/32 z/32 [f15/32E,,/E,/] z/32 [g15/32E,,B,,E,] z/32 e15/32 z/32 f15/32 z/32 [d15/32E,,/E,/] z/32 
[e15/32A,,,E,,A,,] z/32 A15/32 z/32 c15/32 z/32 [e15/32A,,,/A,,/] z/32 [g19/20A,,,E,,A,,] z/20 [z/a19/20] [A,,,/A,,/] 
[g19/20G,,,D,,G,,] z/20 e15/32 z/32 [f15/32G,,,/G,,/] z/32 [c19/20G,,,D,,G,,] z/20 [G,,/=B19/20G,,,D,,] G,,/ z4 
C,4 
E,4 
A,,4 
G,,4 
C, E,19/20 z/20 G,19/20 z/20 E,19/20 z/20 
E, E,19/20 z/20 B,19/20 z/20 E,19/20 z/20 
A,, G,19/20 z/20 G,19/20 z/20 E,19/20 z/20 
[G,,G,] =B,19/20 z/20 C19/20 z/20 D19/20 z/20 
[C,19/20C,,19/10] z/20 C,19/20 z/20 [E19/20C,,19/10] z/20 C,19/20 z/20 
[E,19/20E,,19/10] z/20 _B,19/20 z/20 [E19/20E,,19/10] z/20 F19/20 z/20 
[B,19/20A,,,19/10] z/20 E,19/20 z/20 [G,19/20A,,,19/10] z/20 C19/20 z/20 
[C19/20G,,,19/10] z/20 G,19/20 z/20 [F,19/20G,,,19/10] z/20 G,19/20 z/20 
[C,19/20C,,19/10] z/20 C,19/20 z/20 [E19/20C,,19/10] z/20 C,19/20 z/20 
[E,19/20E,,19/10] z/20 B,19/20 z/20 [E19/20E,,19/10] z/20 D19/20 z/20 
[C,19/20A,,,19/10] z/20 C,19/20 z/20 [A,19/20A,,,19/10] z/20 D19/20 z/20 
[C19/20G,,,19/10] z21/20 [D19/20G,,,19/10] z21/20 
c15/32 z/32 [G15/32C15/32] z/32 c15/32 z/32 [d15/32C15/32] z/32 e15/32 z/32 [d15/32C15/32] z/32 c15/32 z/32 [_B15/32C15/32] z/32 
e15/32 z/32 [B15/32E15/32] z/32 e15/32 z/32 [f15/32E15/32] z/32 g15/32 z/32 [e15/32E15/32] z/32 f15/32 z/32 [d15/32E15/32] z/32 
e15/32 z/32 [A15/32A,15/32] z/32 c15/32 z/32 [e15/32A,15/32] z/32 [z/g19/20] A,15/32 z/32 [z/e19/20] A,15/32 z/32 
d15/32 z/32 [G15/32G,15/32] z/32 =B15/32 z/32 [c15/32G,15/32] z/32 [z/d19/20] G,15/32 z/32 [z/B19/20] G,15/32 z/32 
c15/32 z/32 [G15/32C15/32] z/32 c15/32 z/32 [d15/32C15/32] z/32 e15/32 z/32 [d15/32C15/32] z/32 c15/32 z/32 [_B15/32C15/32] z/32 
e15/32 z/32 [B15/32E15/32] z/32 e15/32 z/32 [f15/32E15/32] z/32 g15/32 z/32 [e15/32E15/32] z/32 f15/32 z/32 [d15/32E15/32] z/32 
e15/32 z/32 [A15/32A,15/32] z/32 c15/32 z/32 [e15/32A,15/32] z/32 [z/g19/20] A,15/32 z/32 [z/a19/20] A,15/32 z/32 
[z/g19/20] G,15/32 z/32 e15/32 z/32 [f15/32G,15/32] z/32 [z/c19/20] G,15/32 z/32 [z/=B19/20] G,15/32 z/32 
[c15/32C,,G,,C,] z/32 G15/32 z/32 c15/32 z/32 [d15/32C,,/C,/] z/32 [e15/32C,,G,,C,] z/32 d15/32 z/32 c15/32 z/32 [_B15/32C,,/C,/] z/32 
[e15/32E,,B,,E,] z/32 B15/32 z/32 e15/32 z/32 [f15/32E,,/E,/] z/32 [g15/32E,,B,,E,] z/32 e15/32 z/32 f15/32 z/32 [d15/32E,,/E,/] z/32 
[e15/32A,,,E,,A,,] z/32 A15/32 z/32 c15/32 z/32 [e15/32A,,,/A,,/] z/32 [g19/20A,,,E,,A,,] z/20 [z/e19/20] [A,,,/A,,/] 
[d15/32G,,,D,,G,,] z/32 G15/32 z/32 =B15/32 z/32 [c15/32G,,,/G,,/] z/32 [d19/20G,,,D,,G,,] z/20 [G,,/B19/20G,,,D,,] G,,/ 
[c15/32C,,G,,C,] z/32 G15/32 z/32 c15/32 z/32 [d15/32C,,/C,/] z/32 [e15/32C,,G,,C,] z/32 d15/32 z/32 c15/32 z/32 [_B15/32C,,/C,/] z/32 
[e15/32E,,B,,E,] z/32 B15/32 z/32 e15/32 z/32 [f15/32E,,/E,/] z/32 [g15/32E,,B,,E,] z/32 e15/32 z/32 f15/32 z/32 [d15/32E,,/E,/] z/32 
[e15/32A,,,E,,A,,] z/32 A15/32 z/32 c15/32 z/32 [e15/32A,,,/A,,/] z/32 [g19/20A,,,E,,A,,] z/20 [z/a19/20] [A,,,/A,,/] 
[g19/20G,,,D,,G,,] z/20 e15/32 z/32 [f15/32G,,,/G,,/] z/32 [c19/20G,,,D,,G,,] z/20 [G,,/=B19/20G,,,D,,] G,,/ 
[c15/32C,,G,,C,] z/32 G15/32 z/32 c15/32 z/32 [d15/32C,,/C,/] z/32 [e15/32C,,G,,C,] z/32 d15/32 z/32 c15/32 z/32 [_B15/32C,,/C,/] z/32 
[e15/32E,,B,,E,] z/32 B15/32 z/32 e15/32 z/32 [f15/32E,,/E,/] z/32 [g15/32E,,B,,E,] z/32 e15/32 z/32 f15/32 z/32 [d15/32E,,/E,/] z/32 
[e15/32A,,,E,,A,,] z/32 A15/32 z/32 c15/32 z/32 [e15/32A,,,/A,,/] z/32 [g19/20A,,,E,,A,,] z/20 [z/e19/20] [A,,,/A,,/] 
[d15/32G,,,D,,G,,] z/32 G15/32 z/32 =B15/32 z/32 [c15/32G,,,/G,,/] z/32 [d19/20G,,,D,,G,,] z/20 [G,,/B19/20G,,,D,,] G,,/ 
[c15/32C,,G,,C,] z/32 G15/32 z/32 c15/32 z/32 [d15/32C,,/C,/] z/32 [e15/32C,,G,,C,] z/32 d15/32 z/32 c15/32 z/32 [_B15/32C,,/C,/] z/32 
[e15/32E,,B,,E,] z/32 B15/32 z/32 e15/32 z/32 [f15/32E,,/E,/] z/32 [g15/32E,,B,,E,] z/32 e15/32 z/32 f15/32 z/32 [d15/32E,,/E,/] z/32 
[e15/32A,,,E,,A,,] z/32 A15/32 z/32 c15/32 z/32 [e15/32A,,,/A,,/] z/32 [g19/20A,,,E,,A,,] z/20 [z/a19/20] [A,,,/A,,/] 
[g19/20G,,,D,,G,,] z/20 e15/32 z/32 [f15/32G,,,/G,,/] z/32 [c19/20G,,,D,,G,,] z/20 [G,,/=B19/20G,,,D,,] G,,/ 
[c15/32C,,G,,C,] z/32 G15/32 z/32 c15/32 z/32 [d15/32C,,/C,/] z/32 [e15/32C,,G,,C,] z/32 d15/32 z/32 c15/32 z/32 [_B15/32C,,/C,/] z/32 
[e15/32E,,B,,E,] z/32 B15/32 z/32 e15/32 z/32 [f15/32E,,/E,/] z/32 [g15/32E,,B,,E,] z/32 e15/32 z/32 f15/32 z/32 [d15/32E,,/E,/] z/32 
[e15/32A,,,E,,A,,] z/32 A15/32 z/32 c15/32 z/32 [e15/32A,,,/A,,/] z/32 [g19/20A,,,E,,A,,] z/20 [z/e19/20] [A,,,/A,,/] 
[d15/32G,,,D,,G,,] z/32 G15/32 z/32 =B15/32 z/32 [c15/32G,,,/G,,/] z/32 [d19/20G,,,D,,G,,] z/20 [G,,/B19/20G,,,D,,] G,,/ 
[c15/32C,,G,,C,] z/32 G15/32 z/32 c15/32 z/32 [d15/32C,,/C,/] z/32 [e15/32C,,G,,C,] z/32 d15/32 z/32 c15/32 z/32 [_B15/32C,,/C,/] z/32 
[e15/32E,,B,,E,] z/32 B15/32 z/32 e15/32 z/32 [f15/32E,,/E,/] z/32 [g15/32E,,B,,E,] z/32 e15/32 z/32 f15/32 z/32 [d15/32E,,/E,/] z/32 
[e15/32A,,,E,,A,,] z/32 A15/32 z/32 c15/32 z/32 [e15/32A,,,/A,,/] z/32 [g19/20A,,,E,,A,,] z/20 [z/a19/20] [A,,,/A,,/] 
[g19/20G,,,D,,G,,] z/20 e15/32 z/32 [f15/32G,,,/G,,/] z/32 [c19/20G,,,D,,G,,] z/20 [G,,/=B19/20G,,,D,,] G,,/ 
[C/9C,15/32] z/72 c/8 C/8 c/8 [C/9C,19/20] z/72 c/8 C/8 c/8 c/9 z/72 c'/8 c/8 c'/8 c/9 z/72 c'/8 c/4 e/9 z/72 e'/8 e/8 e'/8 e/9 z/72 e'/8 e/8 e'/8 c/9 z/72 c'/8 c/8 c'/8 c/9 z/72 c'/8 c/8 c'/8 
[E/9E,15/32] z/72 e/8 E/8 e/8 [E/9E,19/20] z/72 e/8 E/8 e/8 _B/9 z/72 b/8 B/8 b/8 B/9 z/72 b/8 B/8 b/8 e/9 z/72 e'/8 e/8 e'/8 e/9 z/72 e'/8 e/8 e'/8 B/9 z/72 b/8 B/8 b/8 B/9 z/72 b/8 B/8 b/8 
[E/9A,,15/32] z/72 e/8 E/8 e/8 [E/9A,,19/20] z/72 e/8 E/8 e/8 A/9 z/72 a/8 A/8 a/8 A/9 z/72 a/8 A/8 a/8 c/9 z/72 c'/8 c/8 c'/8 c/9 z/72 c'/8 c/8 c'/8 A/9 z/72 a/8 A/8 a/8 A/9 z/72 a/8 A/8 a/8 
[G,/9G,,15/32] z/72 G/8 G,/8 G/8 [G,/9G,,19/20] z/72 G/8 G,/8 G/8 G/9 z/72 g/8 G/8 g/8 G/9 z/72 g/8 G/8 g/8 c/9 z/72 c'/8 c/8 c'/8 c/9 z/72 c'/8 c/8 c'/8 =B/9 z/72 =b/8 B/8 b/8 B/9 z/72 b/8 B/8 b/8 
[C/9C,15/32] z/72 c/8 C/8 c/8 [C/9C,19/20] z/72 c/8 C/8 c/8 c/9 z/72 c'/8 c/8 c'/8 c/9 z/72 c'/8 c/8 c'/8 e/9 z/72 e'/8 e/8 e'/8 e/9 z/72 e'/8 e/8 e'/8 c/9 z/72 c'/8 c/8 c'/8 c/9 z/72 c'/8 c/8 c'/8 
[E/9E,15/32] z/72 e/8 E/8 e/8 [E/9E,19/20] z/72 e/8 E/8 e/8 _B/9 z/72 _b/8 B/8 b/8 B/9 z/72 b/8 B/8 b/8 e/9 z/72 e'/8 e/8 e'/8 e/9 z/72 e'/8 e/8 e'/8 B/9 z/72 b/8 B/8 b/8 B/9 z/72 b/8 B/8 b/8 
[E/9A,,15/32] z/72 e/8 E/8 e/8 [E/9A,,19/20] z/72 e/8 E/8 e/8 A/9 z/72 a/8 A/8 a/8 A/9 z/72 a/8 A/8 a/8 c/9 z/72 c'/8 c/8 c'/8 c/9 z/72 c'/8 c/8 c'/8 A/9 z/72 a/8 A/8 a/8 A/9 z/72 a/8 A/8 a/8 
[G,/9G,,15/32] z/72 G/8 G,/8 G/8 [G,/9G,,19/20] z/72 G/8 G,/8 G/8 G/9 z/72 g/8 G/8 g/8 G/9 z/72 g/8 G/8 g/8 c/9 z/72 c'/8 c/8 c'/8 c/9 z/72 c'/8 c/8 c'/8 =B/9 z/72 =b/8 B/8 b/8 B/9 z/72 b/8 B/8 b/8 
[C/9C,15/32] z/72 c/8 C/8 c/8 [C/9G,,15/32] z/72 c/8 C/8 c/8 [c/9C,15/32] z/72 c'/8 c/8 c'/8 [c/9D,15/32] z/72 c'/8 c/8 c'/8 [e/9E,15/32] z/72 e'/8 e/8 e'/8 [e/9D,15/32] z/72 e'/8 e/8 e'/8 [c/9C,15/32] z/72 c'/8 c/8 c'/8 [c/9B,,15/32] z/72 c'/8 c/8 c'/8 
[E/9E,15/32] z/72 e/8 E/8 e/8 [E/9B,,15/32] z/72 e/8 E/8 e/8 [_B/9E,15/32] z/72 _b/8 B/8 b/8 [B/9F,15/32] z/72 b/8 B/8 b/8 [e/9G,15/32] z/72 e'/8 e/8 e'/8 [e/9E,15/32] z/72 e'/8 e/8 e'/8 [B/9F,15/32] z/72 b/8 B/8 b/8 [B/9D,15/32] z/72 b/8 B/8 b/8 
[E/9E,15/32] z/72 e/8 E/8 e/8 [E/9A,,15/32] z/72 e/8 E/8 e/8 [A/9C,15/32] z/72 a/8 A/8 a/8 [A/9E,15/32] z/72 a/8 A/8 a/8 [c/9G,19/20] z/72 c'/8 c/8 c'/8 c/9 z/72 c'/8 c/8 c'/8 [A/9E,19/20] z/72 a/8 A/8 a/8 A/9 z/72 a/8 A/8 a/8 
[G,/9D,15/32] z/72 G/8 G,/8 G/8 [G,/9G,,15/32] z/72 G/8 G,/8 G/8 [G/9=B,,15/32] z/72 g/8 G/8 g/8 [G/9C,15/32] z/72 g/8 G/8 g/8 [c/9D,19/20] z/72 c'/8 c/8 c'/8 c/9 z/72 c'/8 c/8 c'/8 [=B/9B,,19/20] z/72 =b/8 B/8 b/8 B/9 z/72 b/8 B/8 b/8 
[C/9C,15/32] z/72 c/8 C/8 c/8 [C/9G,,15/32] z/72 c/8 C/8 c/8 [c/9C,15/32] z/72 c'/8 c/8 c'/8 [c/9D,15/32] z/72 c'/8 c/8 c'/8 [e/9E,15/32] z/72 e'/8 e/8 e'/8 [e/9D,15/32] z/72 e'/8 e/8 e'/8 [c/9C,15/32] z/72 c'/8 c/8 c'/8 [c/9_B,,15/32] z/72 c'/8 c/8 c'/8 
[E/9E,15/32] z/72 e/8 E/8 e/8 [E/9B,,15/32] z/72 e/8 E/8 e/8 [_B/9E,15/32] z/72 _b/8 B/8 b/8 [B/9F,15/32] z/72 b/8 B/8 b/8 [e/9G,15/32] z/72 e'/8 e/8 e'/8 [e/9E,15/32] z/72 e'/8 e/8 e'/8 [B/9F,15/32] z/72 b/8 B/8 b/8 [B/9D,15/32] z/72 b/8 B/8 b/8 
[E/9E,15/32] z/72 e/8 E/8 e/8 [E/9A,,15/32] z/72 e/8 E/8 e/8 [A/9C,15/32] z/72 a/8 A/8 a/8 [A/9E,15/32] z/72 a/8 A/8 a/8 [c/9G,19/20] z/72 c'/8 c/8 c'/8 c/9 z/72 c'/8 c/8 c'/8 [A/9A,19/20] z/72 a/8 A/8 a/8 A/9 z/72 a/8 A/8 a/8 
[G,/9G,19/20] z/72 G/8 G,/8 G/8 G,/9 z/72 G/8 G,/8 G/8 [G/9E,15/32] z/72 g/8 G/8 g/8 [G/9F,15/32] z/72 g/8 G/8 g/8 [c/9C,19/20] z/72 c'/8 c/8 c'/8 c/9 z/72 c'/8 c/8 c'/8 [=B/9=B,,19/20] z/72 =b/8 B/8 b/8 B/9 z/72 b/8 B/8 b/8 
[C/9C,15/32] z/72 c/8 C/8 c/8 [C/9G,,15/32] z/72 c/8 C/8 c/8 [c/9C,15/32] z/72 c'/8 c/8 c'/8 [c/9D,15/32] z/72 c'/8 c/8 c'/8 [e/9E,15/32] z/72 e'/8 e/8 e'/8 [e/9D,15/32] z/72 e'/8 e/8 e'/8 [c/9C,15/32] z/72 c'/8 c/8 c'/8 [c/9_B,,15/32] z/72 c'/8 c/8 c'/8 
[E/9E,15/32] z/72 e/8 E/8 e/8 [E/9B,,15/32] z/72 e/8 E/8 e/8 [_B/9E,15/32] z/72 _b/8 B/8 b/8 [B/9F,15/32] z/72 b/8 B/8 b/8 [e/9G,15/32] z/72 e'/8 e/8 e'/8 [e/9E,15/32] z/72 e'/8 e/8 e'/8 [B/9F,15/32] z/72 b/8 B/8 b/8 [B/9D,15/32] z/72 b/8 B/8 b/8 
[E/9E,15/32] z/72 e/8 E/8 e/8 [E/9A,,15/32] z/72 e/8 E/8 e/8 [A/9C,15/32] z/72 a/8 A/8 a/8 [A/9E,15/32] z/72 a/8 A/8 a/8 [c/9G,19/20] z/72 c'/8 c/8 c'/8 c/9 z/72 c'/8 c/8 c'/8 [A/9E,19/20] z/72 a/8 A/8 a/8 A/9 z/72 a/8 A/8 a/8 
[G,/9D,15/32] z/72 G/8 G,/8 G/8 [G,/9G,,15/32] z/72 G/8 G,/8 G/8 [G/9=B,,15/32] z/72 g/8 G/8 g/8 [G/9C,15/32] z/72 g/8 G/8 g/8 [c/9D,19/20] z/72 c'/8 c/8 c'/8 c/9 z/72 c'/8 c/8 c'/8 [=B/9B,,19/20] z/72 =b/8 B/8 b/8 B/9 z/72 b/8 B/8 b/8 
[C/9C,15/32] z/72 c/8 C/8 c/8 [C/9G,,15/32] z/72 c/8 C/8 c/8 [c/9C,15/32] z/72 c'/8 c/8 c'/8 [c/9D,15/32] z/72 c'/8 c/8 c'/8 [e/9E,15/32] z/72 e'/8 e/8 e'/8 [e/9D,15/32] z/72 e'/8 e/8 e'/8 [c/9C,15/32] z/72 c'/8 c/8 c'/8 [c/9_B,,15/32] z/72 c'/8 c/8 c'/8 
[E/9E,15/32] z/72 e/8 E/8 e/8 [E/9B,,15/32] z/72 e/8 E/8 e/8 [_B/9E,15/32] z/72 _b/8 B/8 b/8 [B/9F,15/32] z/72 b/8 B/8 b/8 [e/9G,15/32] z/72 e'/8 e/8 e'/8 [e/9E,15/32] z/72 e'/8 e/8 e'/8 [B/9F,15/32] z/72 b/8 B/8 b/8 [B/9D,15/32] z/72 b/8 B/8 b/8 
[E/9E,15/32] z/72 e/8 E/8 e/8 [E/9A,,15/32] z/72 e/8 E/8 e/8 [A/9C,15/32] z/72 a/8 A/8 a/8 [A/9E,15/32] z/72 a/8 A/8 a/8 [c/9G,19/20] z/72 c'/8 c/8 c'/8 c/9 z/72 c'/8 c/8 c'/8 [A/9A,19/20] z/72 a/8 A/8 a/8 A/9 z/72 a/8 A/8 a/8 
[G,/9G,19/20] z/72 G/8 G,/8 G/8 G,/9 z/72 G/8 G,/8 G/8 [G/9E,15/32] z/72 g/8 G/8 g/8 [G/9F,15/32] z/72 g/8 G/8 g/8 [c/9C,19/20] z/72 c'/8 c/8 c'/8 c/9 z/72 c'/8 c/8 c'/8 [=B/9=B,,19/20] z/72 =b/8 B/8 b/8 z9/ 
[c15/32C,,G,,C,] z/32 G15/32 z/32 c15/32 z/32 [d15/32C,,/C,/] z/32 [e15/32C,,G,,C,] z/32 d15/32 z/32 c15/32 z/32 [_B15/32C,,/C,/] z/32 
[e15/32E,,_B,,E,] z/32 B15/32 z/32 e15/32 z/32 [f15/32E,,/E,/] z/32 [g15/32E,,B,,E,] z/32 e15/32 z/32 f15/32 z/32 [d15/32E,,/E,/] z/32 
[e15/32A,,,E,,A,,] z/32 A15/32 z/32 c15/32 z/32 [e15/32A,,,/A,,/] z/32 [g19/20A,,,E,,A,,] z/20 [z/e19/20] [A,,,/A,,/] 
[d15/32G,,,D,,G,,] z/32 G15/32 z/32 =B15/32 z/32 [c15/32G,,,/G,,/] z/32 [d19/20G,,,D,,G,,] z/20 [G,,/B19/20G,,,D,,] G,,/ 
[c15/32C,,G,,C,] z/32 G15/32 z/32 c15/32 z/32 [d15/32C,,/C,/] z/32 [e15/32C,,G,,C,] z/32 d15/32 z/32 c15/32 z/32 [_B15/32C,,/C,/] z/32 
[e15/32E,,B,,E,] z/32 B15/32 z/32 e15/32 z/32 [f15/32E,,/E,/] z/32 [g15/32E,,B,,E,] z/32 e15/32 z/32 f15/32 z/32 [d15/32E,,/E,/] z/32 
[e15/32A,,,E,,A,,] z/32 A15/32 z/32 c15/32 z/32 [e15/32A,,,/A,,/] z/32 [g19/20A,,,E,,A,,] z/20 [z/a19/20] [A,,,/A,,/] 
[g19/20G,,,D,,G,,] z/20 e15/32 z/32 [f15/32G,,,/G,,/] z/32 [c19/20G,,,D,,G,,] z/20 [G,,/=B19/20G,,,D,,] G,,/ 
K: Cb
[d15/32D,,A,,D,] z/32 A15/32 z/32 d15/32 z/32 [e15/32D,,/D,/] z/32 [f15/32D,,A,,D,] z/32 e15/32 z/32 d15/32 z/32 [c15/32D,,/D,/] z/32 
[f15/32F,,C,F,] z/32 c15/32 z/32 f15/32 z/32 [g15/32F,,/F,/] z/32 [a15/32F,,C,F,] z/32 f15/32 z/32 g15/32 z/32 [e15/32F,,/F,/] z/32 
[f15/32__B,,,F,,__B,,] z/32 __B15/32 z/32 d15/32 z/32 [f15/32B,,,/B,,/] z/32 [a19/20B,,,F,,B,,] z/20 [z/f19/20] [B,,,/B,,/] 
[e15/32A,,,E,,A,,] z/32 A15/32 z/32 =c15/32 z/32 [d15/32A,,,/A,,/] z/32 [e19/20A,,,E,,A,,] z/20 [A,,/c19/20A,,,E,,] A,,/ 
K: F
[d15/32D,,A,,D,] z/32 A15/32 z/32 d15/32 z/32 [e15/32D,,/D,/] z/32 [f15/32D,,A,,D,] z/32 e15/32 z/32 d15/32 z/32 [c15/32D,,/D,/] z/32 
[f15/32F,,C,F,] z/32 c15/32 z/32 f15/32 z/32 [g15/32F,,/F,/] z/32 [a15/32F,,C,F,] z/32 f15/32 z/32 g15/32 z/32 [e15/32F,,/F,/] z/32 
[f15/32_B,,,F,,_B,,] z/32 _B15/32 z/32 d15/32 z/32 [f15/32B,,,/B,,/] z/32 [a19/20B,,,F,,B,,] z/20 [z/_b19/20] [B,,,/B,,/] 
[a19/20A,,,E,,A,,] z/20 f15/32 z/32 [g15/32A,,,/A,,/] z/32 [d19/20A,,,E,,A,,] z/20 [A,,/^c19/20A,,,E,,] A,,/ 
[d/D,,A,,D,] A/ d/ [a/D,,/D,/] [c'/D,,A,,D,] a/ g/ [a/D,,/D,/] 
[d/F,,C,F,] =c/ d/ [a/F,,/F,/] [c'/F,,C,F,] a/ g/ [a/F,,/F,/] 
[d/B,,,F,,B,,] c/ d/ [a/B,,,/B,,/] [c'/B,,,F,,B,,] a/ g/ [a/B,,,/B,,/] 
[aA,,,E,,A,,] f/ [g/A,,,/A,,/] [dA,,,E,,A,,] [A,,/^cA,,,E,,] A,,/ 
[d/D,,A,,D,] A/ d/ [a/D,,/D,/] [c'/D,,A,,D,] a/ g/ [a/D,,/D,/] 
[d/F,,C,F,] =c/ d/ [a/F,,/F,/] [c'/F,,C,F,] a/ g/ [a/F,,/F,/] 
[d/B,,,F,,B,,] c/ d/ [a/B,,,/B,,/] [c'/B,,,F,,B,,] a/ g/ [a/B,,,/B,,/] 
[aA,,,E,,A,,] f/ [g/A,,,/A,,/] [dA,,,E,,A,,] [A,,/^cA,,,E,,] A,,/ 
[d/D,,A,,D,] =c/ d/ [a/D,,/D,/] [c'/D,,A,,D,] a/ g/ [a/D,,/D,/] 
[d/F,,C,F,] c/ d/ [a/F,,/F,/] [c'/F,,C,F,] a/ g/ [a/F,,/F,/] 
[d/B,,,F,,B,,] c/ d/ [a/B,,,/B,,/] [c'/B,,,F,,B,,] a/ [g/f'] [a/B,,,/B,,/] 
[e'A,,,E,,A,,] [d/d'] [f/A,,,/A,,/] [a/e'A,,,E,,A,,] g/ [f/e'/A,,/A,,,E,,] [f/f'/A,,/] 
[d/d'D,,A,,D,] c/ d/ [a/D,,/D,/] [c'/D,,A,,D,] a/ g/ [a/D,,/D,/] 
[d/F,,C,F,] c/ d/ [a/F,,/F,/] [c'/F,,C,F,] a/ g/ [a/F,,/F,/] 
[d/B,,,F,,B,,] c/ d/ [a/B,,,/B,,/] [c'/B,,,F,,B,,] a/ [g/f'] [a/B,,,/B,,/] 
[e'A,,,E,,A,,] [d/d'] [f/A,,,/A,,/] [a/A,,,E,,A,,] g/ [f/f'/A,,/A,,,E,,] [f/f'/A,,/] 
[d'19/20D,19/8] z/20 A,19/20 z/20 D17/24 z/24 D,17/24 z/24 D15/32 z/32 
[zF,19/8] C19/20 z/20 F17/24 z/24 F,17/24 z/24 F15/32 z/32 
[zB,,19/8] F,19/20 z/20 B,17/24 z/24 B,,17/24 z/24 B,15/32 z/32 
[zA,,19/8] E,19/20 z/20 A,17/24 z/24 A,,17/24 z/24 A,15/32 z17/32 
A,15/32 z17/32 A,15/32 z17/32 A,15/32 z17/32 A,15/32 z17/32 
A,15/32 z17/32 A,15/32 z17/32 A,15/32 z17/32 A,15/32 
