X: 1
T: Doom E1M6 - On The Hunt (Space Synth 2)
Z: ABC Generated by Starbound Composer v0.8.7
L: 1/4
Q: 1/4=95
K: C
z151/8 
[B,7/12E,7/12] z7/24 [B,11/36F,11/36] z53/180 [B,41/140F,41/140] z2/7 [B,13/84F,13/84] z5/36 [B,151/252E,151/252] z73/252 [B,11/36F,11/36] z7/24 [B,7/24F,7/24] z7/24 
[B,7/48F,7/48] z5/32 [B,131/224E,131/224] z65/224 [B,89/288F,89/288] z37/126 [B,2/7F,2/7] z41/140 [B,3/20F,3/20] z19/120 [B,7/12E,7/12] z7/24 [B,13/42F,13/42] z2/7 
[B,65/224F,65/224] z9/32 [B,5/32F,5/32] z5/32 [B,47/80E,47/80] z23/80 [B,5/16F,5/16] z2/7 [B,25/84F,25/84] z7/24 [B,5/32F,5/32] z33/224 [B,4/7E,4/7] z3/10 
[B,43/140F,43/140] z2/7 [B,33/112F,33/112] z41/144 [B,11/72F,11/72] z9/56 [B,145/252E,145/252] z85/288 [B,69/224F,69/224] z2/7 [B,3/10F,3/10] z47/160 [B,37/288F,37/288] z43/252 [B,129/224E,129/224] z89/288 
[B,37/126F,37/126] z2/7 [B,/7F,/7] z5/32 [B,19/32E,19/32] [E7/12A,7/12] z7/24 [E17/56_B,17/56] z37/126 [E89/288B,89/288] z9/32 [E7/48B,7/48] z11/72 [E53/90A,53/90] z3/10 
[E7/24B,7/24] z7/24 [E7/24B,7/24] z7/24 [E7/48B,7/48] z5/32 [E169/288A,169/288] z53/180 [E3/10B,3/10] z53/180 [E5/18B,5/18] z89/288 [E33/224B,33/224] z13/84 [E7/12A,7/12] z7/24 
[E7/24B,7/24] z3/10 [E3/20B,3/20] z23/160 [E19/32A,19/32] [=B,85/144E,85/144] z37/126 [B,17/56F,17/56] z7/24 [B,7/24F,7/24] z7/24 [B,/7F,/7] z11/70 [B,83/140E,83/140] z2/7 
[B,37/126F,37/126] z89/288 [B,9/32F,9/32] z33/112 [B,/7F,/7] z5/32 [B,19/32E,19/32] z2/7 [B,69/224F,69/224] z85/288 [B,73/252F,73/252] z2/7 [B,37/252F,37/252] z/6 [B,73/126E,73/126] z2/7 
[B,43/140F,43/140] z3/10 [B,5/36F,5/36] z37/252 [B,33/56E,33/56] [^F33/56B,33/56] z2/7 [F5/16C5/16] z23/80 [F41/140C41/140] z33/112 [F7/48C7/48] z/6 [F4/7B,4/7] z2/7 
[F13/42C13/42] z7/24 [F25/168C25/168] z/7 [F3/5B,3/5] [E81/140A,81/140] z37/126 [E89/288_B,89/288] z65/224 [E73/252B,73/252] z85/288 [E23/160B,23/160] z19/120 [E7/12A,7/12] z7/24 
[E11/36B,11/36] z73/252 [E/7B,/7] z33/224 [E135/224A,135/224] [=B,81/140E,81/140] z53/180 [B,11/36F,11/36] z7/24 [B,7/24F,7/24] z7/24 [B,11/72F,11/72] z19/126 [B,4/7E,4/7] z3/10 
[B,43/140F,43/140] z41/140 [B,23/80F,23/80] z9/32 [B,5/32F,5/32] z9/56 [B,33/56E,33/56] z7/24 [B,25/84F,25/84] z2/7 [B,3/10F,3/10] z47/160 [B,5/32F,5/32] z/7 [B,73/126E,73/126] z89/288 
[B,65/224F,65/224] z73/252 [B,85/288E,85/288] z47/160 [A,3/10D,3/10] [B,19/32E,19/32] z85/288 [B,43/144F,43/144] z9/32 [B,89/288F,89/288] z41/144 [B,7/48F,7/48] z25/168 [B,83/140E,83/140] z3/10 
[B,7/24F,7/24] z7/24 [B,7/24F,7/24] z7/24 [B,13/84F,13/84] z19/126 [B,85/144E,85/144] z23/80 [B,49/160F,49/160] z47/160 [B,3/10F,3/10] z9/32 [B,33/224F,33/224] z13/84 [B,7/12E,7/12] z7/24 
[B,23/72F,23/72] z5/18 [B,53/180F,53/180] z41/140 [B,/7F,/7] z10/63 [B,169/288E,169/288] z65/224 [B,17/56F,17/56] z7/24 [B,7/24F,7/24] z7/24 [B,/7F,/7] z11/70 [B,53/90E,53/90] z73/252 
[B,65/224F,65/224] z89/288 [B,37/126F,37/126] z2/7 [B,/7F,/7] z/6 [B,7/12E,7/12] z7/24 [B,29/96F,29/96] z67/224 [B,2/7F,2/7] z65/224 [B,31/224F,31/224] z39/224 [B,129/224E,129/224] z41/140 
[B,3/10F,3/10] z3/10 [B,/7F,/7] z/7 [B,38/63E,38/63] [E145/252A,145/252] z2/7 [E5/16_B,5/16] z33/112 [E2/7B,2/7] z33/112 [E7/48B,7/48] z/6 [E4/7A,4/7] z73/252 
[E11/36B,11/36] z25/84 [E2/7B,2/7] z3/10 [E13/90B,13/90] z7/45 [E47/80A,47/80] z9/32 [E5/16B,5/16] z65/224 [E2/7B,2/7] z67/224 [E23/160B,23/160] z19/120 [E7/12A,7/12] z7/24 
[E13/42B,13/42] z2/7 [E13/84B,13/84] z5/36 [E151/252A,151/252] [=B,131/224E,131/224] z47/160 [B,3/10F,3/10] z7/24 [B,7/24F,7/24] z7/24 [B,5/32F,5/32] z33/224 [B,151/252E,151/252] z5/18 
[B,19/63F,19/63] z41/140 [B,53/180F,53/180] z5/18 [B,11/72F,11/72] z/6 [B,7/12E,7/12] z7/24 [B,29/96F,29/96] z9/32 [B,3/10F,3/10] z47/160 [B,5/32F,5/32] z3/20 [B,91/160E,91/160] z89/288 
[B,11/36F,11/36] z7/24 [B,5/32F,5/32] z13/96 [B,7/12E,7/12] [F19/32B,19/32] z67/224 [F33/112C33/112] z41/144 [F89/288C89/288] z9/32 [F7/48C7/48] z11/72 [F53/90B,53/90] z3/10 
[F3/10C3/10] z47/160 [F37/288C37/288] z/6 [F167/288B,167/288] [E19/32A,19/32] z33/112 [E67/224_B,67/224] z47/160 [E3/10B,3/10] z2/7 [E/7B,/7] z13/84 [E7/12A,7/12] z25/84 
[E71/224B,71/224] z9/32 [E7/48B,7/48] z17/120 [E3/5A,3/5] [=B,93/160E,93/160] z65/224 [B,17/56F,17/56] z7/24 [B,7/24F,7/24] z7/24 [B,3/20F,3/20] z7/45 [B,37/63E,37/63] z2/7 
[B,37/126F,37/126] z89/288 [B,65/224F,65/224] z73/252 [B,5/36F,5/36] z/6 [B,7/12E,7/12] z7/24 [B,29/96F,29/96] z85/288 [B,73/252F,73/252] z65/224 [B,41/288F,41/288] z/6 [B,73/126E,73/126] z41/140 
[B,37/120F,37/120] z7/24 [B,7/24E,7/24] z7/24 [A,13/42D,13/42] 
