X: 1
T: Doom E1M9 - Hiding the Secrets
L: 1/4
Q: 1/4=95
Z: ABC Generated by Starbound Composer v0.8.7
K: C
[F,,3/32C,,3/32B,,3/32^D3/10^D,,3/10^D,3/10_B,,3/10] z33/160 [C,,4/45F,,4/45=B,,17/160^C43/140^C,,43/140^C,43/140^G,,43/140] z55/252 [F,,13/140B,,17/168=C,,25/224] z33/160 [z/96C91/288^C,,91/288C,91/288G,,91/288] [F,,/12B,,/12=C,,/12] z2/9 [B,,13/144F,,13/144C,,13/144B,89/288B,,,89/288B,,89/288^F,,89/288] z7/32 [=F,,23/288C,,3/32B,,3/32C29/96^C,,29/96C,29/96G,,29/96] z2/9 [F,,/12=C,,/12B,,/9] z19/84 [F,,5/63C,,5/63B,,5/63C43/140^C,,43/140C,43/140G,,43/140] z41/180 [F,,11/120=C,,11/120B,,/10D3/10D,,3/10D,3/10_B,,3/10] z5/24 [C,,3/32F,,3/32=B,,3/28C9/28^C,,9/28C,9/28G,,9/28] z51/224 [F,,/14=C,,/14B,,2/21] z13/56 [C,,3/40F,,/12B,,3/32D17/56D,,17/56D,17/56_B,,17/56] z8/35 [F,,25/252C,,25/252=B,,3/28E9/28E,,9/28E,9/28B,,9/28] z2/9 
[D7/24D,,7/24D,7/24_B,,7/24] [z/48F,,11/168E,,7/72=B,,7/72C29/96^C,,29/96C,29/96G,,29/96] A,11/144 z59/288 [B,5/16B,,,5/16B,,5/16^F,,5/16] [C,/8=C,,13/96D69/224D,,69/224D,69/224_B,,69/224] z41/224 [C71/224^C,,71/224C,71/224G,,71/224] [z/96E,,25/224] [F,,17/168G,/8] z4/21 [C13/42C,,13/42C,13/42G,,13/42] [F,,3/28=C,,25/168G,11/70B,33/112B,,,33/112=B,,33/112F,,33/112] z3/16 [z41/144C5/16^C,,5/16C,5/16G,,5/16] [z/36F,,17/126] [E,,3/28G,3/20] z25/126 [C19/63C,,19/63C,19/63G,,19/63] [z/56=C,,/7D41/140D,,13/42D,13/42_B,,13/42] [F,,/8G,/6] z/6 [C29/96^C,,29/96C,29/96G,,29/96] [z/32E,,41/288F,,5/32] 
G,/7 z31/224 [D29/96D,,29/96D,29/96B,,29/96] [=C,,7/60F,,13/96G,/6D43/96E,,37/60E,37/60=B,,37/60] z/5 C,,21/160 [z27/160E41/224] [z/70=C11/120E,,/10G,11/70B,,,87/140B,,87/140F,,87/140] [z13/168F,,5/42] [z5/24B,31/72] C,,/8 z9/56 [z/28C,/7] [z/84C,,23/168F,,/7D17/56D,,17/56D,17/56_B,,17/56] G,13/96 z5/32 [^C17/56^C,,17/56C,17/56G,,17/56] [z3/140E,,17/140F,,15/112] G,23/160 z5/32 [C7/24C,,7/24C,7/24G,,7/24] [F,,7/48=C,,7/48G,19/120B,37/120B,,,37/120=B,,37/120F,,37/120] z13/80 [z3/10C19/60^C,,19/60C,19/60G,,19/60] [z/60F,,19/140] [E,,/9G,7/48] z47/252 [z2/7C79/252C,,79/252C,79/252G,,79/252] 
[z/36F,,/8] [=C,,29/252G,37/288D11/36D,,11/36D,11/36_B,,11/36] z4/21 [C,,13/96C11/36^C,,11/36C,11/36G,,11/36] z31/224 [z/56F,,25/224] [z/72G,/8] E,,/9 z3/16 [=C,,9/80D5/16D,,5/16D,5/16B,,5/16] z27/160 [z/32F,,/8] [C,,/8G,/7E5/16E,,5/16E,5/16=B,,5/16] z3/16 [C,,13/112D43/144D,,43/144D,43/144_B,,43/144] z23/126 [z/72F,,/9E,,/9C11/36^C,,11/36C,11/36G,,11/36] G,/8 z/6 [=C,,2/15B,11/36B,,,11/36=B,,11/36F,,11/36] z27/160 [z/288A,/8] [C,,53/288D79/252D,,79/252D,79/252_B,,79/252] z29/224 [C25/84^C,,25/84C,25/84G,,25/84] [F,,5/48G,/8E,,13/96] z17/80 [z53/180C37/120C,,37/120C,37/120G,,37/120] [z/72F,,7/72] [=C,,19/168G,/8B,7/24B,,,7/24=B,,7/24F,,7/24] z5/28 
[C,,/7C9/28^C,,9/28C,9/28G,,9/28] z11/70 [z/80F,,/10] [z/112G,11/80] E,,3/28 z11/56 [C17/56C,,17/56C,17/56G,,17/56] [z/112=C,,13/84D65/224D,,9/28D,9/28_B,,9/28] [F,,9/80G,15/112] z/5 [C3/10^C,,3/10C,3/10G,,3/10] [z3/140E,,9/70] [F,,19/224G,31/252] z31/160 [D19/60D,,19/60D,19/60B,,19/60] [z/84=C,,11/96D37/84E,,59/96E,59/96=B,,59/96] [z/112F,,23/224] G,9/80 z27/160 C,,/8 z3/224 [z39/224E31/168] [z/96=C23/288E,,3/32F,,25/224B,,,137/224B,,137/224F,,137/224] [z5/72G,11/96] [z2/9B,79/180] C,,7/60 z11/70 [z/28C,43/252] [F,,3/28G,17/126C,,11/70D19/63D,,19/63D,19/63_B,,19/63] z7/36 [^C11/36^C,,11/36C,11/36G,,11/36] 
[F,,3/28E,,5/36G,/7] z23/112 [C33/112C,,33/112C,33/112G,,33/112] [z/56=C,,25/224B,13/42B,,,13/42=B,,13/42F,,13/42] [F,,3/32G,/8] z19/96 [C,,2/15C29/96^C,,29/96C,29/96G,,29/96] z27/160 [F,,11/96E,,31/224G,31/224] z17/84 [=C,,10/63C69/224^C,,69/224C,69/224G,,69/224] z43/288 [F,,3/32G,27/224D5/16D,,5/16D,5/16_B,,5/16] z7/32 [=C,,/8C29/96^C,,29/96C,29/96G,,29/96] z17/96 [F,,5/48E,,/8G,/8] z3/16 [=C,,/7D9/28D,,9/28D,9/28B,,9/28] z19/112 [z/112F,,5/48] [E,,13/112G,13/112E17/56E,,17/56E,17/56=B,,17/56] z3/16 [C,,/8D17/56D,,17/56D,17/56_B,,17/56] z5/28 [z/63F,,23/224=G,,23/224E,,/7C9/28^C,,9/28C,9/28^G,,9/28] G,7/72 z5/96 =F,,/16 z3/32 
[=C,,3/28B,3/10B,,,3/10=B,,3/10^F,,3/10] z39/224 [z3/160C,19/160] [C,,19/120D43/140D,,43/140D,43/140_B,,43/140] z25/168 [C13/42^C,,13/42C,13/42G,,13/42] [z/84E,,11/96G,/8] F,,23/224 z3/16 [C89/288C,,89/288C,89/288G,,89/288] [F,,5/63=C,,/9G,11/90B,11/36B,,,11/36=B,,11/36F,,11/36] z19/84 [z/96C13/42^C,,13/42C,13/42G,,13/42] =C,,17/160 z17/90 [z/252F,,23/288G,/9] E,,3/28 z/5 [C3/10^C,,3/10C,3/10G,,3/10] [F,,/9G,/8=C,,/7D5/16D,,5/16D,5/16_B,,5/16] z29/144 [C43/144^C,,43/144C,43/144G,,43/144] [z/72E,,5/36] [F,,3/32G,/8] z19/96 [D11/36D,,11/36D,11/36B,,11/36] [=C,,23/180F,,23/180G,17/126E179/288E,,179/288E,179/288=B,,179/288] z23/120 
C,,/8 z17/96 [z3/224E,,29/288B,59/96B,,,59/96B,,59/96F,,59/96] [F,,17/168G,/7] z19/96 C,,3/32 z5/24 [z/96F,,5/48C,,13/96D23/72D,,23/72D,23/72_B,,23/72] [G,3/32A,11/96] z31/144 [C11/36^C,,11/36C,11/36G,,11/36] [F,,2/21E,,5/48G,11/84] z53/252 [C43/144C,,43/144C,43/144G,,43/144] [z/80=C,,9/80G,15/112B,5/16B,,,5/16=B,,5/16F,,5/16] F,,/10 z/5 [C,,/8C3/10^C,,3/10C,3/10G,,3/10] z7/40 [z/80E,,7/60F,,7/60] G,/8 z19/112 [C67/224C,,67/224C,67/224G,,67/224] [z/96D91/288D,,91/288D,91/288_B,,91/288] [E,,/12F,,11/96G,5/36] z2/9 [E,,/9C89/288C,,89/288C,89/288G,,89/288] z19/96 [F,,3/32=C,,25/224G,13/96] z5/24 
[z/96D13/42D,,13/42D,13/42B,,13/42] E,,29/288 z25/126 [F,,5/63G,3/28E,,3/28E43/140E,,43/140E,43/140=B,,43/140] z41/180 [C,,9/80D3/10D,,3/10D,3/10_B,,3/10] z3/16 [z/36=F,,/12=G,,/12E,,3/28C9/28^C,,9/28C,9/28^G,,9/28] [^F,,5/63G,7/72] z3/14 [=C,,3/28B,17/56B,,,17/56=B,,17/56F,,17/56] z5/28 [z/56C,25/224] [C,,/12D17/56D,,17/56D,17/56_B,,17/56] z37/168 [C,,15/112C9/28^C,,9/28C,9/28G,,9/28] z5/32 [z/32F,,39/224] [G,/5E,,3/14] z11/120 [=C,,7/72C29/96^C,,29/96C,29/96G,,29/96] z59/288 [z3/224=C,,37/288B,5/16B,,,5/16=B,,5/16F,,5/16] [F,,/7G,43/252] z5/32 [E,,13/96C69/224^C,,69/224C,69/224G,,69/224] z29/168 [=C,,11/112F,,/7G,17/84] z7/32 [C,,25/224C29/96^C,,29/96C,29/96G,,29/96] z4/21 
[F,,19/96G,17/84D13/42D,,13/42D,13/42_B,,13/42] z25/224 [=C,,3/28C33/112^C,,33/112C,33/112G,,33/112] z3/16 [z/80E,,/8] [z/120F,,29/180] G,5/24 z/12 [=C,,3/28D11/36D,,11/36D,11/36B,,11/36] z25/126 [z/63C,,29/288E11/18E,,11/18E,11/18=B,,11/18] [z/84G,5/28] F,,5/36 z17/126 C,,/7 z/6 [z/84B,11/24B,,,11/24B,,11/24F,,11/24] [z/112E,,15/112G,11/56] F,,7/48 z13/96 C,,11/96 z19/96 [z/96C,,25/224C,25/224G,3/16^G29/96G,,29/96^G,29/96D,29/96] F,,19/120 z2/15 [C,,5/36^F19/60F,,19/60^F,19/60C,19/60] z8/45 [z/160E,,21/160] [F,,43/288=G,59/288] z13/90 [C,,/10F3/10F,,3/10F,3/10C,3/10] z/5 [z/32C,,/7G,3/16E9/28E,,9/28E,9/28B,,9/28] F,,5/32 z15/112 [E,,31/252F17/56F,,17/56F,17/56C,17/56] z13/72 
[z/56C,,7/72] [F,,25/168G,5/28] z23/168 [A,23/224C,,17/140F9/28F,,9/28F,9/28C,9/28] z55/288 [z/36F,,11/72G,53/288] [G7/24G,,7/24^G,7/24D,7/24] [C,,7/48F37/120F,,37/120F,37/120C,37/120] z13/80 [z/140E,,19/160] [F,,/7=G,31/168] z/6 [C,,2/15G25/84G,,25/84^G,25/84D,25/84] z23/140 [z/224E,,9/56A79/252A,,79/252A,79/252E,79/252] [F,,21/160=G,39/224] z8/45 [C,,37/288G11/36G,,11/36^G,11/36D,11/36] z17/96 [z/42=F,,/12=G,,/12E,,/6F11/36^F,,11/36F,11/36C,11/36] [z/252=G,43/252] F,,/9 z/6 [C,,/9E43/144E,,43/144E,43/144B,,43/144] z3/16 [z5/144C,,9/80G5/16^G,,5/16^G,5/16D,5/16] C,25/252 z5/28 [C,,/8F5/16F,,5/16F,5/16C,5/16] z3/16 [=F,19/144E,,7/48] z/6 [C,,13/126F11/36F,,11/36^F,11/36C,11/36] z17/84 
[z/84=F,/6E11/36E,,11/36E,11/36B,,11/36] C,,/7 z19/126 [E,,11/72F79/252F,,79/252^F,79/252C,79/252] z9/56 [z5/252C,,3/28] =F,17/72 z/24 [C,,/6F19/60F,,19/60^F,19/60C,19/60] z3/20 [z/60G37/120G,,37/120G,37/120D,37/120] =F,5/18 z/72 [C,,17/120F7/24F,,7/24^F,7/24C,7/24] z3/20 [z/36E,,/6] =F,49/180 z3/140 [C,,3/28G17/56G,,17/56G,17/56D,17/56] z25/252 F,/18 z/24 [C,,3/32F,/8A5/8A,,5/8A,5/8E,5/8] z47/224 C,,15/112 z3/16 [E,,/8F,/7E3/5E,,3/5E,3/5B,,3/5] z7/40 C,,/10 z/5 [z/90C,,4/35G19/60G,,19/60G,19/60D,19/60] F,2/9 z/12 
[C,,2/15F29/96F,,29/96^F,29/96C,29/96] z27/160 [E,,5/32=F,55/224] z5/32 [C,,25/224F29/96F,,29/96^F,29/96C,29/96] z4/21 [=F,/8C,,/6E13/42E,,13/42E,13/42B,,13/42] z31/168 [F,3/28E,,11/70F19/63F,,19/63^F,19/63C,19/63] z7/36 [C,,7/72=F,35/144] z5/24 [C,,/7F5/16F,,5/16^F,5/16C,5/16] z11/70 [z/80=F,41/180] [G33/112G,,33/112G,33/112D,33/112] [C,,/7F13/42F,,13/42^F,13/42C,13/42] z/6 [z/84E,,/6] =F,51/224 z/16 [C,,41/288G71/224G,,71/224G,71/224D,71/224] z11/63 [E,,5/56F,41/224A69/224A,,69/224A,69/224E,69/224] z5/72 E,,8/63 z5/224 [C,,17/160G5/16G,,5/16G,5/16D,5/16] z33/160 [E,,23/160F,17/96F29/96F,,29/96^F,29/96C,29/96] z19/120 
[E7/24E,,7/24E,7/24B,,7/24] [A,/7C,,/5G9/28G,,9/28G,9/28D,9/28] z5/28 [z73/252F17/56F,,17/56F,17/56C,17/56] [z/72F,,31/288] [=G,/8E,,/8] z5/28 [z37/126F9/28F,,9/28F,9/28C,9/28] [z/36F,,/9] [C,,3/28G,3/28E3/10E,,3/10E,3/10B,,3/10] z27/140 [C,,11/80F43/140F,,43/140F,43/140C,43/140] z5/32 [z3/224F,,29/288] [E,,3/28G,25/224] z17/84 [F29/96F,,29/96F,29/96C,29/96] [F,,11/96G,31/224C,,41/288G89/288G,,89/288^G,89/288D,89/288] z7/36 [F,,11/36F,11/36C,11/36F91/288] z/96 [z5/288E,,37/288] [F,,4/45=G,/9] z27/140 [G43/140G,,43/140^G,43/140D,43/140] [z3/160C,,17/140G31/70A,,49/80A,49/80E,49/80] 
[F,,23/224=G,/8] z5/28 C,,/7 [z19/112A5/28] [z/112=F3/32E,,5/48F,,5/48E,,29/48E,29/48B,,29/48] [z19/224G,9/70] [z59/288E41/96] C,,/9 z8/45 [z/60C,17/120] [F,,5/42G,5/36C,,/6D11/36D,,11/36_B,11/36D,11/36_B,,11/36] z47/252 [C23/72^C,,23/72^G,23/72C,23/72G,,23/72] [z/120F,,13/120E,,/8] =G,9/70 z37/224 [C5/16C,,5/16^G,5/16C,5/16G,,5/16] [=C,,35/288F,,35/288=G,13/96=B,29/96B,,,29/96F,29/96=B,,29/96F,,29/96] z13/72 [C,,/8C23/72^C,,23/72^G,23/72C,23/72G,,23/72] z7/36 [F,,7/72E,,/9=G,/9] z5/24 [=C,,5/36C11/36^C,,11/36^G,11/36C,11/36G,,11/36] z11/72 [z/72F,,3/32] [=G,/9D43/144D,,43/144_B,43/144D,43/144_B,,43/144] z3/16 [=C,,15/112C5/16^C,,5/16^G,5/16C,5/16G,,5/16] z5/28 
[F,,3/32E,,/9=G,/9] z33/160 [=C,,9/70D43/140D,,43/140B,43/140D,43/140B,,43/140] z37/224 [z3/224F,,17/160] [E,,29/252G,29/252E13/42E,,13/42=B,13/42E,13/42=B,,13/42] z7/36 [C,,/8D11/36D,,11/36_B,11/36D,11/36_B,,11/36] z13/72 [F,,13/144G,/9E,,23/180C89/288^C,,89/288^G,89/288C,89/288G,,89/288] z7/32 [=C,,25/224=B,29/96B,,,29/96F,29/96=B,,29/96F,,29/96] z5/28 [z/84C,31/252] [z/96D13/42D,,13/42_B,13/42D,13/42_B,,13/42] C,,5/32 z/7 [C43/140^C,,43/140G,43/140C,43/140G,,43/140] [z/120E,,17/140] [z/96=G,/8] F,,3/32 z3/16 [z11/36C9/28C,,9/28^G,9/28C,9/28G,,9/28] [z/63F,,29/288] [=C,,3/28=G,13/112=B,17/56B,,,17/56F,17/56=B,,17/56F,,17/56] z11/56 [C,,/8C17/56^C,,17/56^G,17/56C,17/56G,,17/56] z/6 [z/84F,,/9=G,2/15] E,,3/28 z3/14 
[C7/24C,,7/24^G,7/24C,7/24G,,7/24] [F,,17/168=G,/8=C,,23/168D29/96D,,29/96_B,29/96D,29/96_B,,29/96] z45/224 [C5/16^C,,5/16^G,5/16C,5/16G,,5/16] [z/96F,,3/32E,,/8] =G,/8 z29/168 [D71/224D,,71/224B,71/224D,71/224B,,71/224] [=C,,3/32F,,3/32G,19/160E137/224E,,137/224=B,137/224E,137/224=B,,137/224] z5/24 C,,/9 z25/126 [E,,5/63F,,5/63G,31/224B,17/28B,,,17/28F,17/28B,,17/28F,,17/28] z31/144 C,,9/80 z/5 [G,/36F,,3/28A,3/28C,,/8D11/36D,,11/36_B,11/36D,11/36_B,,11/36] G,19/288 z61/288 [C19/63^C,,19/63^G,19/63C,19/63G,,19/63] [z/56E,,25/224] [F,,3/32=G,/8] z19/96 [z25/84C29/96C,,29/96^G,29/96C,29/96G,,29/96] [z/224=G,19/140] [=C,,/8F,,/8=B,5/16B,,,5/16F,5/16=B,,5/16F,,5/16] z3/16 
[C,,/8C29/96^C,,29/96^G,29/96C,29/96G,,29/96] z3/16 [E,,17/160F,,17/160=G,37/288] z/5 [C3/10C,,3/10^G,3/10C,3/10G,,3/10] [z/70E,,/10D3/10D,,3/10_B,3/10D,3/10_B,,3/10] [F,,11/112=G,5/42] z3/16 [E,,/8C9/28C,,9/28^G,9/28C,9/28G,,9/28] z11/56 [F,,19/224=C,,2/21=G,31/252] z7/32 [E,,7/72D17/56D,,17/56B,17/56D,17/56B,,17/56] z13/63 [F,,23/224E,,19/168G,17/140E9/28E,,9/28=B,9/28E,9/28=B,,9/28] z7/32 [C,,3/32D7/24D,,7/24_B,7/24D,7/24_B,,7/24] z19/96 [z/72E,,11/96C37/120^C,,37/120^G,37/120C,37/120G,,37/120] [F,,11/126=G,/9] z29/140 [=C,,13/120=B,19/60B,,,19/60F,19/60=B,,19/60F,,19/60] z5/24 [z/84C,,/12D25/84D,,25/84_B,25/84D,25/84_B,,25/84] D,25/252 z47/252 [C,,5/42C79/252^C,,79/252^G,79/252C,79/252G,,79/252] z7/36 [z/288E,,19/126] 
D,3/32 z5/24 [=C,,2/21C11/36^C,,11/36G,11/36C,11/36G,,11/36] z11/56 [z/72D,3/32] [=C,,/9=B,43/144B,,,43/144F,43/144=B,,43/144F,,43/144] z3/16 [C,,/8C5/16^C,,5/16G,5/16C,5/16G,,5/16] z3/16 [D,/8E,,/7] z3/16 [=C,,13/112C43/144^C,,43/144G,43/144C,43/144G,,43/144] z23/126 [z2/63D11/36D,,11/36_B,11/36D,11/36_B,,11/36] D,5/63 z7/36 [z/84C11/36C,,11/36G,11/36C,11/36G,,11/36] =C,,19/168 z13/72 [z/36E,,17/126] D,3/28 z5/28 [C,,3/28D25/84D,,25/84B,25/84D,25/84B,,25/84] z4/21 [z/60C,,5/48E5/8E,,5/8=B,5/8E,5/8=B,,5/8] D,/10 z/5 C,,/10 z5/24 [D,19/168E,,17/120B,103/168B,,,103/168F,103/168B,,103/168F,,103/168] z5/28 C,,3/28 z3/14 
[C,,2/21=F,3/28G,17/56^G,,,17/56D,17/56G,,17/56D,,17/56] z5/24 [C,,/8A,17/56A,,,17/56E,17/56A,,17/56E,,17/56] z5/28 [z11/252E,,17/140] F,7/90 z/5 [C,,/9B,3/10B,,,3/10^F,3/10B,,3/10F,,3/10] z17/90 [z/30A,3/10A,,,3/10E,3/10A,,3/10E,,3/10] =F,2/21 z6/35 [C,,11/90G,19/60G,,,19/60D,19/60G,,19/60D,,19/60] z7/36 [z/84E,,11/96] F,23/224 z3/16 [E,,23/224B,5/16B,,,5/16^F,5/16B,,5/16F,,5/16] z47/224 [=F,3/32E,,25/224C29/96^C,,29/96G,29/96C,29/96G,,29/96] z5/24 [E,,13/96D13/42D,,13/42_B,13/42D,13/42_B,,13/42] z39/224 [z/140=C,,17/126] F,/10 z7/36 [E,,/9E11/36E,,11/36=B,11/36E,11/36=B,,11/36] z/6 [z/36F,23/180] [E,,/6D17/28D,,17/28_B,17/28D,17/28_B,,17/28] z7/48 C,,7/48 z25/168 
[E,,31/168^C,,13/28C137/224G,137/224C,137/224G,,137/224] z23/168 =C,,15/112 z5/32 [z/32A,11/96G,71/224G,,,71/224D,71/224G,,71/224D,,71/224] D,/12 z17/84 [C,,4/35A,69/224A,,,69/224E,69/224A,,69/224E,,69/224] z31/160 [z5/288C,19/224E,,27/224] D,4/45 z33/160 [E,,23/160=B,29/96B,,,29/96^F,29/96=B,,29/96F,,29/96] z19/120 [C,,5/48D,5/48A,7/24A,,,7/24E,7/24A,,7/24E,,7/24] z3/16 [C,,/7G,9/28G,,,9/28D,9/28G,,9/28D,,9/28] z19/112 [z/112D,13/112] E,,23/168 z/6 [C,,/8B,17/56B,,,17/56F,17/56B,,17/56F,,17/56] z/6 [z/84D,11/96] [C9/28^C,,9/28G,9/28C,9/28G,,9/28] [=C,,5/36D3/10D,,3/10_B,3/10D,3/10_B,,3/10] z29/180 [z/80E,,9/70] D,13/112 z5/28 
[E,,39/224E13/42E,,13/42=B,13/42E,13/42=B,,13/42] z13/96 [D,/9C,,11/96C11/18^C,,11/18G,11/18C,11/18G,,11/18] z55/288 =C,,11/96 z7/36 [z/126E,,11/90B,155/252B,,,155/252F,155/252B,,155/252F,,155/252] D,5/56 z7/32 E,,37/288 z/6 [z/252D,/9] [C,,3/14G,43/140G,,,43/140D,43/140G,,43/140D,,43/140] z13/140 [A,3/10A,,,3/10E,3/10A,,3/10E,,3/10] [D,/9E,,/7] z29/144 [B,43/144B,,,43/144F,43/144B,,43/144F,,43/144] [z/72C,,7/72A,11/36A,,,11/36E,11/36A,,11/36E,,11/36] D,7/72 z7/36 [C,,5/42G,11/36G,,,11/36D,11/36G,,11/36D,,11/36] z47/252 [z/36E,,17/126] D,/12 z5/24 [C,,/8B,29/96B,,,29/96F,29/96B,,29/96F,,29/96] z17/96 [D,29/288C5/16^C,,5/16G,5/16C,5/16G,,5/16] z61/288 
[=C,,23/160D29/96D,,29/96_B,29/96D,29/96_B,,29/96] z19/120 [D,5/48E,,25/168] z31/144 [z37/126E11/36E,,11/36=B,11/36E,11/36=B,,11/36] [z/84D,19/224] [E,,7/96C29/48^C,,29/48G,29/48C,29/48G,,29/48] z19/288 E,,23/180 z7/180 =C,,23/288 z47/224 [z/112D,25/252] [E,,11/112E49/80E,,49/80B,49/80E,49/80B,,49/80] z3/14 E,,/9 z/6 [z/72A,7/72] [z/120D,7/72] [C,,7/60G,43/140G,,,43/140D,43/140G,,43/140D,,43/140] z4/21 [z67/224A,13/42A,,,13/42E,13/42A,,13/42E,,13/42] [z/96D,3/32] E,,5/42 z47/252 [B,89/288B,,,89/288F,89/288B,,89/288F,,89/288] [D,17/224C,,23/288A,29/96A,,,29/96E,29/96A,,29/96E,,29/96] z19/84 [z/96G,11/24G,,,11/24D,11/24G,,11/24D,,11/24] C,,29/288 z25/126 [D,3/28E,,25/168] z/5 
[C,,9/80B,3/10B,,,3/10F,3/10B,,3/10F,,3/10] z3/16 [z/36C9/28^C,,9/28G,9/28C,9/28G,,9/28] D,5/63 z3/14 [=C,,13/112D17/56D,,17/56_B,17/56D,17/56_B,,17/56] z3/16 [z/56E,,5/32] D,3/28 z5/28 [C,,17/140E9/28E,,9/28=B,9/28E,9/28=B,,9/28] z/5 [D,/10E,,/7C19/32^C,,19/32G,19/32C,19/32G,,19/32] z23/120 =C,,19/120 z23/160 [z3/224E,,37/288E139/224E,,139/224B,139/224E,139/224B,,139/224] D,17/168 z19/96 C,,3/32 z3/16 [z/80C,5/48] [z/70D,/10] [C9/56^C,,9/56G,9/56C,9/56G,,9/56] z5/32 [=C,,19/160C29/96^C,,29/96G,29/96C,29/96G,,29/96] z6/35 [z/84D,2/21] [E,,11/84D13/42D,,13/42_B,13/42D,13/42_B,,13/42] z5/28 [=C,,5/63E33/112E,,33/112=B,33/112E,33/112=B,,33/112] z13/63 [z/112D,19/168] [C,,5/48D5/32D,,5/32_B,5/32D,5/32_B,,5/32] z5/24 
[C,,3/28D11/36D,,11/36B,11/36D,11/36B,,11/36] z25/126 [D,29/288E,,10/63C19/63^C,,19/63G,19/63C,19/63G,,19/63] z45/224 [=C,,/7=B,9/28B,,,9/28F,9/28=B,,9/28F,,9/28] z3/20 [z/35D,/10] [G,/7G,,,/7D,/7G,,/7D,,/7] z33/224 [C,,21/160G,5/16G,,,5/16D,5/16G,,5/16D,,5/16] z3/20 [z/32D,3/28] [E,,13/96A,29/96A,,,29/96E,29/96A,,29/96E,,29/96] z/6 [B,19/60B,,,19/60F,19/60B,,19/60F,,19/60] [E,,/10D,/10A,3/5A,,,3/5E,3/5A,,3/5E,,3/5] z/18 E,,/9 z/30 C,,3/20 z3/20 [D,3/32E,,3/28G,5/8G,,,5/8D,5/8G,,5/8D,,5/8] z51/224 E,,31/252 z/6 [z/72A,13/126] [C,,7/72F,,7/72=G,7/72C5/32^C,,5/32^G,5/32C,5/32G,,5/32] z13/63 [=C,,17/140C9/28^C,,9/28G,9/28C,9/28G,,9/28] z31/180 [z/36C,13/144] 
[F,,3/28E,,3/28=G,/8D7/24D,,7/24_B,7/24D,7/24_B,,7/24] z31/168 [=C,,17/168E37/120E,,37/120=B,37/120E,37/120=B,,37/120] z29/140 [z/140C,,3/20^F19/60F,,19/60C19/60F,19/60C,19/60] [F,,25/224G,/7] z19/96 [E,,2/15E25/84E,,25/84B,25/84E,25/84B,,25/84] z23/140 [z/28C,,5/42D79/252D,,79/252_B,79/252D,79/252_B,,79/252] [F,,/10G,/10] z8/45 [C,,29/252C11/36^C,,11/36^G,11/36C,11/36G,,11/36] z4/21 [z/96G,5/36G,,,5/36D,5/36G,,5/36D,,5/36] [z3/224=G,3/32] F,,25/224 z49/288 [=C,,41/288^G,43/144G,,,43/144D,43/144G,,43/144D,,43/144] z5/32 [z5/144E,,7/48A,5/16A,,,5/16E,5/16A,,5/16E,,5/16] [=G,13/144F,,25/252] z3/16 [C,,/8=B,5/16B,,,5/16F,5/16=B,,5/16F,,5/16] z3/16 [z/32F,,3/32E,,7/48A,29/48A,,,29/48E,29/48A,,29/48E,,29/48] G,7/96 z7/36 C,,5/36 z/6 [z/84^G,13/21G,,,13/21D,13/21G,,13/21D,,13/21] [z/112E,,/7] [z/80=G,3/32] F,,11/120 z13/72 C,,35/288 z5/32 
[z/28C,3/32] [z/168F,,5/56C,,3/28C25/84^C,,25/84C,25/84G,,25/84] G,/12 z5/24 [z/60G19/60G,,19/60^G,19/60D,19/60] =C,,/10 z/5 [=G,/10F,,/10E,,23/180=G37/120=G,,37/120G,37/120=D,37/120] z5/24 [C,,7/72^G7/24^G,,7/24^G,7/24^D,7/24] z7/36 [z/36C,,3/28A9/28A,,9/28A,9/28E,9/28] [z/288F,,5/63] =G,3/32 z11/56 [E,,5/28G17/56G,,17/56^G,17/56D,17/56] z/8 [z/72=G,3/32C,,/8E17/56E,,17/56E,17/56B,,17/56] F,,23/288 z47/224 [E,,11/56G9/28G,,9/28^G,9/28D,9/28] z/8 [=G,3/32F,,3/28C,,/7^G,3/10G,,,3/10G,,3/10D,,3/10] z33/160 [E,,/5D3/10D,,3/10D,3/10_B,,3/10] z/10 [z/90C,,23/120=D19/60=D,,19/60=D,19/60A,,19/60] [z/72=G,13/126] F,,5/56 z17/84 [E,,/4^D29/96^D,,29/96^D,29/96B,,29/96] z5/96 [z/288C,,5/32E59/96E,,59/96E,59/96=B,,59/96] [F,,25/252G,25/252] z47/224 
E,,41/224 z5/42 [F,,5/48G,5/48C,,19/96A,11/18A,,,11/18A,,11/18E,,11/18] z23/112 E,,45/224 z29/288 [A,8/63C,,25/126C11/36^C,,11/36C,11/36G,,11/36] z5/28 [z3/10G5/16G,,5/16^G,5/16D,5/16] [z/80F,,/10] [=G,13/112E,,/8=G33/112=G,,33/112G,33/112=D,33/112] z5/28 [z67/224^G13/42^G,,13/42^G,13/42^D,13/42] [z/96F,,3/32] [z/84E29/96E,,29/96E,29/96B,,29/96] [=C,,23/224=G,19/168] z3/16 [C,,41/288G71/224G,,71/224^G,71/224D,71/224] z/6 [z/126F,,7/72] [E,,4/35=G,27/224D69/224D,,69/224D,69/224_B,,69/224] z31/160 [G5/16G,,5/16^G,5/16D,5/16] [z/96=G,13/96C,,23/160^G,29/96G,,,29/96G,,29/96D,,29/96] F,,11/96 z17/96 [D7/24D,,7/24D,7/24B,,7/24] [z/28E,,/7=D9/28=D,,9/28=D,9/28A,,9/28] 
[z/168F,,3/28] =G,/8 z13/84 [^D17/56^D,,17/56^D,17/56B,,17/56] [z/40C,,/8E5/8E,,5/8E,5/8=B,,5/8] [F,,/10G,23/180] z5/28 C,,8/63 z7/36 [E,,/10F,,/10G,5/36A,17/28A,,,17/28A,,17/28E,,17/28] z/5 C,,7/60 z/6 [z/42C,13/96] [F,,17/168G,/7C,,/7D13/42D,,13/42_B,,13/42D13/42_B13/42] z5/24 [C29/96^C,,29/96G,,29/96C29/96G29/96] [F,,11/96E,,/8G,31/224] z7/36 [C91/288C,,91/288G,,91/288C91/288G91/288] [=C,,17/160F,,17/160G,37/288B,67/224B,,,67/224F,,67/224B,67/224F67/224] z27/140 [C,,31/224C43/140^C,,43/140G,,43/140C43/140G43/140] z27/160 [z/120E,,17/140] [F,,5/48G,19/168] z3/16 [=C,,5/32C5/16^C,,5/16G,,5/16C5/16G5/16] z23/160 
[z/80F,,7/60] [G,/8D43/144D,,43/144B,,43/144D43/144B43/144] z25/144 [=C,,5/36C11/36^C,,11/36G,,11/36C11/36G11/36] z/6 [z/84F,,11/96] [E,,19/168G,19/168] z13/72 [=C,,17/126D23/72D,,23/72B,,23/72D23/72B23/72] z39/224 [z/96F,,3/32] [E,,13/120G,/8E29/96E,,29/96=B,,29/96E29/96=B29/96] z31/160 [C,,/8D5/16D,,5/16_B,,5/16D5/16_B5/16] z39/224 [z3/224F,,3/28] [=G,,3/32G,3/32E,,/8C29/96^C,,29/96^G,,29/96C29/96G29/96] z/20 =F,,4/45 z5/72 [=C,,19/168B,23/72B,,,23/72^F,,23/72B,23/72F23/72] z5/28 [z/36C,/8] [C,,5/36D11/36D,,11/36B,,11/36D11/36B11/36] z/6 [C11/36^C,,11/36G,,11/36C11/36G11/36] [z/252E,,/9] [F,,3/28G,31/224] z3/16 [C5/16C,,5/16G,,5/16C5/16G5/16] [F,,3/32=C,,/9G,/9B,3/10B,,,3/10F,,3/10B,3/10F3/10] z33/160 
[C,,9/70C43/140^C,,43/140G,,43/140C43/140G43/140] z37/224 [z3/224F,,11/96G,37/288] E,,25/224 z19/96 [C11/36C,,11/36G,,11/36C11/36G11/36] [F,,25/252G,/9=C,,17/126D89/288D,,89/288B,,89/288D89/288B89/288] z47/224 [C5/16^C,,5/16G,,5/16C5/16G5/16] [z3/224F,,29/288E,,11/96] G,25/224 z39/224 [D43/140D,,43/140B,,43/140D43/140B43/140] [=C,,9/80F,,9/80G,2/15E87/140E,,87/140=B,,87/140E87/140=B87/140] z31/144 C,,7/72 z11/56 [z/84E,,19/224F,,2/21B,17/28B,,,17/28F,,17/28B,17/28F17/28] G,11/84 z9/56 C,,3/32 z47/224 [z/112F,,3/28C,,15/112D9/28D,,9/28_B,,9/28D9/28_B9/28] [G,/80A,9/80] G,7/90 z2/9 [C7/24^C,,7/24G,,7/24C7/24G7/24] [z/120E,,/8] 
[F,,17/160G,9/70] z3/16 [z49/160C5/16C,,5/16G,,5/16C5/16G5/16] [z/160G,19/140] [=C,,3/32F,,/8B,69/224B,,,69/224F,,69/224B,69/224F69/224] z3/14 [C,,5/42C71/224^C,,71/224G,,71/224C71/224G71/224] z19/96 [E,,3/32F,,3/32G,13/96] z5/24 [C13/42C,,13/42G,,13/42C13/42G13/42] [E,,5/63F,,3/28G,17/126D33/112D,,33/112B,,33/112D33/112B33/112] z31/144 [E,,9/80C5/16C,,5/16G,,5/16C5/16G5/16] z/5 [F,,3/32=C,,3/28G,/8] z61/288 [E,,29/288D19/63D,,19/63B,,19/63D19/63B19/63] z31/160 [z/140F,,/10] [E,,25/224G,25/224E9/28E,,9/28=B,,9/28E9/28=B9/28] z47/224 [C,,25/252D65/224D,,65/224_B,,65/224D65/224_B65/224] z55/288 [=F,,7/96=G,,7/96^F,,11/96E,,/8G,21/160C5/16^C,,5/16^G,,5/16C5/16G5/16] z23/96 [=C,,25/224B,29/96B,,,29/96F,,29/96B,29/96F29/96] z5/28 
[z/84C,9/70] [z/96D19/60D,,19/60B,,19/60D19/60B19/60] C,,3/32 z17/80 [C,,19/140C3/10^C,,3/10G,,3/10C3/10G3/10] z23/140 [z/45F,,11/70E,,8/35] G,7/36 z/12 [z/32C9/28C,,9/28G,,9/28C9/28G9/28] =C,,17/224 z3/14 [z/84C,,23/168G,5/28B,17/56B,,,17/56F,,17/56B,17/56F17/56] F,,11/84 z9/56 [E,,/8C17/56^C,,17/56G,,17/56C17/56G17/56] z5/28 [z/112=C,,23/224G,11/56] F,,7/48 z/6 [C,,3/28C7/24^C,,7/24G,,7/24C7/24G7/24] z31/168 [z/72G,5/24D37/120D,,37/120B,,37/120D37/120B37/120] F,,/6 z23/180 [=C,,19/160C19/60^C,,19/60G,,19/60C19/60G19/60] z19/96 [z/84E,,5/42] [F,,37/224G,11/56] z27/224 [=C,,3/28D79/252D,,79/252B,,79/252D79/252B79/252] z13/63 [z/288C,,7/72E11/18E,,11/18=B,,11/18E11/18=B11/18] [z/96G,3/16] F,,19/120 z2/15 
C,,/8 z13/72 [z/90E,,37/252B,83/180B,,,83/180B,83/180F83/180F,,11/18] [F,,7/45G,31/160] z19/144 C,,5/48 z5/24 [C,,3/28C,/8F,,/6G,3/16G5/16G,,5/16D,5/16G5/16^d5/16c5/16] z23/112 [C,,19/144F43/144F,,43/144C,43/144F43/144^c43/144_B43/144] z/6 [z/72E,,5/36] [F,,11/72G,5/24] z19/126 [C,,23/224F37/126F,,37/126C,37/126F37/126c37/126B37/126] z55/288 [z/36C,,17/126G,53/288E79/252E,,79/252B,,79/252E79/252=B79/252G79/252] F,,5/32 z29/224 [E,,11/84F25/84F,,25/84C,25/84F25/84c25/84_B25/84] z11/60 [z/140C,,/10] [F,,/7G,27/140] z3/20 [A,/10C,,23/180F37/120F,,37/120C,37/120F37/120c37/120B37/120] z5/24 [F,,17/120G,31/168G7/24G,,7/24D,7/24G7/24d7/24=c7/24] z3/20 [C,,5/32F9/28F,,9/28C,9/28F9/28^c9/28B9/28] z37/224 [E,,9/70F,,33/224G,5/28] z7/40 
[C,,5/32G17/56G,,17/56D,17/56G17/56d17/56=c17/56] z33/224 [z/112E,,6/35A9/28A,,9/28E,9/28A9/28e9/28^c9/28] [F,,15/112G,19/112] z5/28 [C,,/8G3/10G,,3/10D,3/10G3/10d3/10=c3/10] z7/40 [z/30=F,,3/40=G,,4/45E,,23/140F3/10^F,,3/10C,3/10F3/10^c3/10B3/10] [F,,/9G,/6] z7/45 [C,,4/35E19/60E,,19/60B,,19/60E19/60=B19/60G19/60] z17/84 [z/30C,,11/96G29/96^G,,29/96D,29/96G29/96d29/96=c29/96] C,11/120 z17/96 [C,,/8F5/16F,,5/16C,5/16F5/16^c5/16_B5/16] z3/16 [z/224E,,33/224] =F,11/84 z/6 [C,,2/21F13/42F,,13/42C,13/42F13/42c13/42B13/42] z3/14 [C,,/7F,11/70E19/63E,,19/63B,,19/63E19/63=B19/63G19/63] z10/63 [E,,43/288F11/36F,,11/36C,11/36F11/36c11/36_B11/36] z5/32 [z/36C,,/10] F,73/288 z/32 [C,,7/48F33/112F,,33/112C,33/112F33/112c33/112B33/112] z25/168 [z/56G13/42G,,13/42D,13/42G13/42d13/42=c13/42] 
F,7/24 [z/84F29/96F,,29/96C,29/96F29/96^c29/96B29/96] C,,/7 z33/224 [E,,5/32F,89/288] z9/56 [C,,13/126G69/224G,,69/224D,69/224G69/224d69/224=c69/224] z23/288 F,7/96 z5/96 [z/160F,27/224A59/96A,,59/96E,59/96A59/96e59/96^c59/96] C,,7/80 z7/32 C,,/8 z17/96 [z/96E,,13/96E103/168E,,103/168B,,103/168E103/168=B103/168G103/168] F,31/224 z/7 C,,/9 z53/252 [C,,3/28F,27/112G17/56G,,17/56D,17/56G17/56d17/56=c17/56] z11/56 [C,,11/72F17/56F,,17/56C,17/56F17/56^c17/56_B17/56] z19/126 [z/63E,,37/224] F,59/252 z/14 [C,,/10F3/10F,,3/10C,3/10F3/10c3/10B3/10] z/5 [z/80C,,27/160E43/140E,,43/140B,,43/140E43/140=B43/140G43/140] F,13/112 z5/28 [F,3/28E,,/7F13/42F,,13/42C,13/42F13/42c13/42_B13/42] z17/84 
[C,,/9F,/4] z55/288 [C,,31/224F89/288F,,89/288C,89/288F89/288c89/288B89/288] z43/252 [F,2/9G91/288G,,91/288D,91/288G91/288d91/288=c91/288] z3/32 [C,,27/224F67/224F,,67/224C,67/224F67/224^c67/224B67/224] z5/28 [z3/224E,,19/112] F,59/288 z4/45 [C,,2/15G3/10G,,3/10D,3/10G3/10d3/10=c3/10] z/6 [E,,/10F,/5A5/16A,,5/16E,5/16A5/16e5/16^c5/16] z9/160 E,,13/96 z/48 [C,,13/112G43/144G,,43/144D,43/144G43/144d43/144=c43/144] z23/126 [E,,/6F,17/90F11/36F,,11/36C,11/36F11/36^c11/36B11/36] z5/36 [E11/36E,,11/36B,,11/36E11/36=B11/36G11/36] [A,23/180C,,7/36G23/72G,,23/72D,23/72G23/72d23/72=c23/72] z23/120 [F29/96F,,29/96C,29/96F29/96^c29/96_B29/96] [F,,29/288G,27/224E,,/8] z61/288 [z47/160F29/96F,,29/96C,29/96F29/96c29/96B29/96] 
[z/120F,,/10] [C,,19/168G,/8E23/72E,,23/72B,,23/72E23/72=B23/72G23/72] z13/63 [C,,11/90F11/36F,,11/36C,11/36F11/36c11/36_B11/36] z7/45 [z/63F,,29/288] [z/84G,9/70] E,,2/21 z53/252 [F43/144F,,43/144C,43/144F43/144c43/144B43/144] [z/80C,,5/32G9/32G9/32=c9/32G,,5/16D,5/16d5/16] [z/120G,2/15] F,,5/48 z3/16 [F3/10F,,3/10C,3/10F3/10^c3/10B3/10] [z3/140E,,11/80] [F,,3/28G,9/70] z5/28 [G13/42G,,13/42D,13/42G13/42d13/42=c13/42] [z/84C,,5/42G37/84G37/84c37/84A,,59/96E,59/96e59/96] [z/63F,,3/28] G,/9 z/6 C,,23/180 z/140 [z39/224A27/140A27/140^c27/140] [z3/160=F23/288F23/288A23/288E,,3/32F,,25/224E,,137/224B,,137/224=B137/224] [z11/180G,9/70] [z67/288E4/9E4/9G4/9] C,,11/96 z11/72 [z2/63C,/6] [F,,3/28G,31/224C,,11/70D43/140D,,43/140_B,,43/140D43/140_B43/140=G43/140] z/5 
[C3/10^C,,3/10G,,3/10C3/10^G3/10F3/10] z/36 [F,,5/63E,,/9G,11/90] z3/14 [C17/56C,,17/56G,,17/56C17/56G17/56F17/56] [z/72=C,,3/32B,17/56B,,,17/56F,,17/56B,17/56^F17/56D17/56] [F,,23/288G,/9] z47/224 [z/112C9/28^C,,9/28G,,9/28C9/28G9/28=F9/28] =C,,/8 z3/16 [F,,3/32E,,/9G,/9] z19/96 [C,,19/120C29/96^C,,29/96G,,29/96C29/96G29/96F29/96] z23/160 [F,,17/160G,/8D5/16D,,5/16B,,5/16D5/16B5/16=G5/16] z33/160 [=C,,29/224C69/224^C,,69/224G,,69/224C69/224^G69/224F69/224] z5/28 [F,,11/112E,,5/42G,5/42] z7/32 [=C,,25/224D29/96D,,29/96B,,29/96D29/96B29/96=G29/96] z5/28 [z/84F,,2/21] [E,,/9G,/8E13/42E,,13/42=B,,13/42E13/42=B13/42^G13/42] z25/126 [C,,3/28D33/112D,,33/112_B,,33/112D33/112_B33/112=G33/112] z3/16 [z/80F,,3/32E,,15/112C5/16^C,,5/16G,,5/16C5/16^G5/16F5/16] 
G,/10 z/5 [=C,,3/28B,11/36B,,,11/36F,,11/36B,11/36^F11/36D11/36] z5/28 [z5/252C,27/224] [C,,10/63D19/63D,,19/63B,,19/63D19/63B19/63=G19/63] z/7 [C9/28^C,,9/28G,,9/28C9/28^G9/28=F9/28] [z/112E,,3/28G,17/140] F,,11/112 z41/224 [C5/16C,,5/16G,,5/16C5/16G5/16F5/16] [z/96F,,3/32=C,,/8B,5/16B,,,5/16F,,5/16B,5/16^F5/16D5/16] G,11/96 z3/16 [C,,11/96C49/160^C,,49/160G,,49/160C49/160G49/160=F49/160] z13/72 [z/90F,,/9G,/9] E,,/10 z/5 [C3/10C,,3/10G,,3/10C3/10G3/10F3/10] [z/32D9/28D,,9/28B,,9/28D9/28B9/28=G9/28] [F,,23/288G,3/32=C,,25/224] z53/252 [C17/56^C,,17/56G,,17/56C17/56^G17/56F17/56] [z/56E,,/8] [F,,5/63G,3/28] z13/63 [D9/28D,,9/28B,,9/28D9/28B9/28=G9/28] 
[=C,,3/28F,,3/28G,3/28E3/5E,,3/5=B,,3/5E3/5=B3/5^G3/5] z31/168 C,,/8 z11/60 [z/140E,,/10B,43/70B,,,43/70F,,43/70B,43/70^F43/70D43/70] [z/56F,,17/168] G,/8 z/6 C,,/9 z47/252 [z/224F,,3/28C,,19/140D79/252D,,79/252_B,,79/252D79/252_B79/252=G79/252] [G,23/224A,/8] z13/63 [C11/36^C,,11/36G,,11/36C11/36^G11/36=F11/36] [F,,5/48E,,/8G,13/96] z29/144 [C43/144C,,43/144G,,43/144C43/144G43/144F43/144] [z/80=C,,9/80G,15/112B,5/16B,,,5/16F,,5/16B,5/16^F5/16D5/16] F,,/10 z/5 [C,,/8C5/16^C,,5/16G,,5/16C5/16G5/16=F5/16] z3/16 [z/112E,,5/48F,,5/48] G,31/252 z/6 [C20/63C,,20/63G,,20/63C20/63G20/63F20/63] [E,,23/224F,,23/224G,15/112D37/126D,,37/126B,,37/126D37/126B37/126=G37/126] z55/288 [E,,35/288C79/252C,,79/252G,,79/252C79/252^G79/252F79/252] z43/224 
[z/168=C,,3/28] [F,,17/168G,/8] z4/21 [z/60D19/60D,,19/60B,,19/60D19/60B19/60=G19/60] E,,/10 z27/140 [z/140F,,3/28G,17/126] [E,,23/180E37/120E,,37/120=B,,37/120E37/120=B37/120^G37/120] z13/72 [C,,19/168D7/24D,,7/24_B,,7/24D7/24_B7/24=G7/24] z5/28 [z/36C9/28^C,,9/28G,,9/28C9/28^G9/28F9/28] [F,,5/63E,,7/72G,/9] z3/14 [=C,,13/112B,17/56B,,,17/56F,,17/56B,17/56^F17/56D17/56] z3/16 [z/72C,,3/32D17/56D,,17/56B,,17/56D17/56B17/56=G17/56] D,/9 z5/28 [C,,19/168C9/28^C,,9/28G,,9/28C9/28^G9/28=F9/28] z5/24 [D,3/32E,,/7] z33/160 [=C,,4/45C3/10^C,,3/10G,,3/10C3/10G3/10F3/10] z59/288 [z/160D,3/32] [=C,,/10B,19/60B,,,19/60F,,19/60B,19/60^F19/60D19/60] z13/60 [C,,/8C29/96^C,,29/96G,,29/96C29/96G29/96=F29/96] z17/96 [D,11/96E,,31/224] z19/96 [=C,,25/224C29/96^C,,29/96G,,29/96C29/96G29/96F29/96] z4/21 
[z/60D13/42D,,13/42B,,13/42D13/42B13/42=G13/42] D,/10 z27/140 [=C,,17/126C19/63^C,,19/63G,,19/63C19/63^G19/63F19/63] z/6 [z5/252E,,5/36] D,5/42 z/6 [=C,,/10D5/16D,,5/16B,,5/16D5/16B5/16=G5/16] z17/80 [z/112C,,7/80E69/112E,,69/112=B,,69/112E69/112=B69/112^G69/112] D,3/28 z5/28 C,,25/224 z47/224 [D,19/168E,,15/112B,17/28B,,,17/28F,,17/28B,17/28^F17/28D17/28] z17/96 C,,23/224 z3/14 [z/70C,,13/126^G,69/224G,,,69/224D,,69/224G,69/224D69/224=C69/224] F,4/45 z59/288 [z/160A,5/16A,,,5/16E,,5/16A,5/16E5/16^C5/16] C,,4/35 z43/224 [z/32E,,/8] F,3/32 z17/96 [C,,/8B,7/24B,,,7/24F,,7/24B,7/24F7/24D7/24] z/6 [z/18A,9/28A,,,9/28E,,9/28A,9/28E9/28C9/28] F,11/126 z5/28 [C,,9/70G,17/56G,,,17/56D,,17/56G,17/56D17/56=C17/56] z7/40 
[z/40E,,/8] F,/10 z5/28 [E,,19/168B,9/28B,,,9/28F,,9/28B,9/28F9/28D9/28] z5/24 [F,/10E,,3/28^C3/10^C,,3/10G,,3/10C3/10G3/10=F3/10] z/5 [E,,3/20D43/140D,,43/140_B,,43/140D43/140_B43/140=G43/140] z11/70 [F,3/28=C,,/7] z17/84 [E,,11/96E29/96E,,29/96=B,,29/96E29/96=B29/96^G29/96] z17/96 [z/96F,5/48] [E,,39/224D5/8D,,5/8_B,,5/8D5/8_B5/8=G5/8] z17/126 C,,5/36 z17/96 [E,,5/32C97/160^C,,97/160G,,97/160C97/160^G97/160F97/160] z/7 =C,,31/224 z27/160 [z/120G,3/10G,,,3/10D,,3/10G,3/10D3/10=C3/10] [A,11/120D,5/48] z/5 [C,,/8A,5/16A,,,5/16E,,5/16A,5/16E5/16^C5/16] z3/16 [z/112C,9/112E,,/8] D,2/21 z7/36 [E,,/6B,11/36B,,,11/36F,,11/36B,11/36^F11/36D11/36] z5/36 
[z/84A,11/36A,,,11/36E,,11/36A,11/36E11/36C11/36] [C,,23/224D,3/28] z55/288 [C,,11/72G,23/72G,,,23/72D,,23/72G,23/72D23/72=C23/72] z/6 [D,17/168E,,7/48] z45/224 [z3/224B,5/16B,,,5/16F,,5/16B,5/16F5/16D5/16] C,,25/224 z39/224 [z3/224D,5/63] [^C29/96^C,,29/96G,,29/96C29/96G29/96=F29/96] [=C,,25/168D23/72D,,23/72B,,23/72D23/72B23/72=G23/72] z43/252 [z/126E,,/9] D,13/126 z7/36 [E,,5/36E11/36E,,11/36=B,,11/36E11/36=B11/36^G11/36] z/6 [z/252C,,/9C11/18^C,,11/18G,,11/18C11/18G11/18F11/18] D,3/28 z3/16 =C,,/8 z3/16 [D,/10E,,/8B,17/28B,,,17/28F,,17/28B,17/28^F17/28D17/28] z/5 E,,3/20 z11/70 [D,17/168C,,19/84G,13/42G,,,13/42D,,13/42G,13/42D13/42=C13/42] z5/24 
[A,11/36A,,,11/36E,,11/36A,11/36E11/36^C11/36] [D,25/252E,,17/126] z47/224 [B,5/16B,,,5/16F,,5/16B,5/16F5/16D5/16] [z3/224C,,19/224A,67/224A,,,67/224E,,67/224A,67/224E67/224C67/224] D,17/168 z31/168 [C,,3/28G,43/140G,,,43/140D,,43/140G,43/140D43/140=C43/140] z/5 [z/120E,,17/140] D,5/48 z31/144 [C,,7/72B,37/126B,,,37/126F,,37/126B,37/126F37/126D37/126] z13/72 [z/63D,29/288] [^C17/56^C,,17/56G,,17/56C17/56G17/56=F17/56] [=C,,5/32D17/56D,,17/56_B,,17/56D17/56_B17/56=G17/56] z5/32 [D,13/144E,,15/112] z2/9 [z9/32E7/24E,,7/24=B,,7/24E7/24=B7/24^G7/24] [z/96D,3/32] [E,,/12C59/96^C,,59/96G,,59/96C59/96G59/96F59/96] z3/40 E,,9/80 z/32 =C,,17/160 z17/90 [z5/288D,/9] [E,,3/32E5/8E,,5/8B,,5/8E5/8B5/8G5/8] z3/14 
E,,3/28 z33/224 [z/16A,11/96] [D,17/224C,,3/32G,29/96G,,,29/96D,,29/96G,29/96D29/96=C29/96] z19/84 [z7/24A,13/42A,,,13/42E,,13/42A,13/42E13/42^C13/42] [z/56D,7/72] E,,3/28 z3/16 [z41/144B,5/16B,,,5/16F,,5/16B,5/16^F5/16D5/16] [z/36D,25/252] [C,,3/32A,11/36A,,,11/36E,,11/36A,11/36E11/36C11/36] z61/288 [C,,/9G,137/288G,,,137/288D,,137/288G,137/288D137/288=C137/288] z4/21 [z/56E,,/7] D,/12 z37/168 [C,,25/252B,65/224B,,,65/224F,,65/224B,65/224F65/224D65/224] z55/288 [z/32^C5/16^C,,5/16G,,5/16C5/16G5/16=F5/16] D,/12 z19/96 [=C,,/8D5/16D,,5/16_B,,5/16D5/16_B5/16=G5/16] z3/16 [z3/224E,,37/288] D,17/168 z23/120 [C,,21/160E3/10E,,3/10=B,,3/10E3/10=B3/10^G3/10] z27/160 [z/70E,,11/70C87/140^C,,87/140G,,87/140C87/140G87/140F87/140] 
D,11/112 z7/32 =C,,33/224 z/7 [z/84E,,23/168E17/28E,,17/28B,,17/28E17/28B17/28G17/28] D,2/21 z11/56 C,,7/72 z7/36 [z/84C,/12D,11/96] [C13/84^C,,13/84G,,13/84C13/84G13/84] z/6 [=C,,3/28C7/24^C,,7/24G,,7/24C7/24G7/24] z31/168 [D,17/168E,,23/168D37/120D,,37/120_B,,37/120D37/120_B37/120] z29/140 [=C,,/10E19/60E,,19/60=B,,19/60E19/60=B19/60] z/5 [z/60D,/10] [C,,/12D7/48D,,7/48_B,,7/48D7/48_B7/48] z3/14 [C,,29/224D79/252D,,79/252B,,79/252D79/252B79/252] z53/288 [z/288E,,19/126C11/36^C,,11/36G,,11/36C11/36G11/36] D,3/32 z5/24 [=C,,13/96B,11/36B,,,11/36F,,11/36B,11/36^F11/36] z5/32 [z/72D,5/56] [G,11/72G,,,11/72D,,11/72G,11/72D11/72] z7/48 [C,,/8G,5/16G,,,5/16D,,5/16G,5/16D5/16] z5/32 
[z/32D,23/224] [E,,/8A,5/16A,,,5/16E,,5/16A,5/16E5/16] z3/16 [B,43/144B,,,43/144F,,43/144B,43/144F43/144] [z/72E,,4/45A,11/18A,,,11/18E,,11/18A,11/18E11/18] D,5/56 z4/63 E,,/9 z5/126 C,,15/112 z5/32 [z/288D,23/224] [E,,/9G,113/180G,,,113/180D,,113/180G,113/180D113/180] z17/84 E,,11/84 z13/84 [z/35A,3/28] [C,,/10F,,/10=G,13/120C3/20^C,,3/20G,,3/20C3/20G3/20] z/5 [=C,,23/180C37/120^C,,37/120G,,37/120C37/120G37/120] z13/72 [z/168C,7/96E,,13/96G,13/96D7/24D,,7/24B,,7/24D7/24B7/24] F,,5/42 z/6 [z/36E9/28E,,9/28=B,,9/28E9/28=B9/28] =C,,5/63 z3/14 [F,,9/70G,33/224C,,19/126F17/56F,,17/56C,17/56F17/56c17/56] z7/40 [E,,/8E17/56E,,17/56B,,17/56E17/56B17/56] z5/28 [z3/140C,,19/168D9/28D,,9/28_B,,9/28D9/28_B9/28] [z/70F,,9/80] G,11/112 z3/16 
[C,,3/28C3/10^C,,3/10G,,3/10C3/10G3/10] z27/140 [z3/140^G,19/120G,,,19/120D,,19/120G,19/120D19/120] [=G,19/224F,,3/28] z31/160 [=C,,11/90^G,19/60G,,,19/60D,,19/60G,19/60D19/60] z7/36 [z/30E,,2/15A,29/96A,,,29/96E,,29/96A,29/96E29/96] [=G,11/120F,,11/120] z17/96 [C,,31/224B,5/16B,,,5/16F,,5/16B,5/16F5/16] z39/224 [z/224E,,33/224A,137/224A,,,137/224E,,137/224A,137/224E137/224] [z5/252F,,5/56] G,11/126 z4/21 C,,/8 z31/168 [z/42E,,11/70^G,17/28G,,,17/28D,,17/28G,17/28D17/28] [=G,/12F,,/12] z7/36 C,,8/63 z19/126 [z/36C,13/144] [z/36F,,/10C,,3/28C5/16^C,,5/16C5/16G5/16] G,/18 z11/48 [=C,,13/112G33/112G,,33/112G33/112d33/112] z5/28 [z/56G,17/168E,,/7=G9/28=G,,9/28G9/28=d9/28] F,,5/56 z3/14 [C,,25/252^G65/224^G,,65/224G65/224^d65/224] z55/288 [z/32C,,23/224F,,11/96A71/224A,,71/224A71/224e71/224] 
G,/12 z17/84 [E,,41/224G69/224G,,69/224G69/224d69/224] z/8 [z/160E5/16E,,5/16E5/16=B5/16] [F,,/10G,/10C,,11/90] z33/160 [E,,3/16G29/96G,,29/96G29/96d29/96] z11/96 [z/96C,,25/168^G,7/24G,,,7/24G,7/24D7/24] [z/288=G,23/224] F,,25/252 z5/28 [z/32D9/28D,,9/28D9/28_B9/28] E,,41/224 z3/28 [z/84C,,47/224=D17/56=D,,17/56D17/56A17/56] [F,,2/21G,2/21] z11/56 [E,,19/72^D17/56^D,,17/56D17/56B17/56] z5/126 [z/63C,,37/224E87/140E,,87/140E87/140=B87/140] [z/72G,7/72] F,,/12 z5/24 E,,5/28 z17/140 [z/80G,/10C,,/5A,37/60A,,,37/60A,37/60E37/60] F,,7/80 z29/140 E,,3/14 z2/21 [C29/96^C,,29/96C29/96G29/96] [G89/288G,,89/288G89/288d89/288] 
[=G91/288=G,,91/288G91/288=d91/288] [^G67/224^G,,67/224G67/224^d67/224] [E43/140E,,43/140E43/140B43/140] [G3/10G,,3/10G3/10d3/10] [D5/16D,,5/16D5/16_B5/16] [G43/144G,,43/144G43/144d43/144] [^G,20/63G,,,20/63G,20/63D20/63] [D37/126D,,37/126D37/126B37/126] [=D23/72=D,,23/72D23/72A23/72] [^D29/96^D,,29/96D29/96B29/96] [E59/96E,,59/96E59/96=B59/96] [A,5/8A,,,5/8A,5/8E5/8] 
