X: 1
T: Doom E1M1 - At Doom Gate (Electric Bass Guitar)
Z: ABC Generated by Starbound Composer v0.8.7
L: 1/4
Q: 1/4=95
K: C
E,,/7 z23/7 E,,3/14 z45/14 
E,,/7 z79/24 E,,17/96 z13/4 
E,,29/160 z521/160 E,,7/32 z77/24 
E,,5/21 z719/224 E,,9/32 z251/80 
E,,11/70 z15/56 E,,/6 z13/48 E,,5/32 z9/32 E,,5/32 z25/96 E,,11/60 z39/160 E,,53/288 z73/288 E,,27/160 z/4 E,,27/140 z31/126 E,,23/126 z27/112 E,,3/16 z/4 
E,,5/32 z25/96 E,,4/21 z53/224 E,,53/288 z65/252 E,,5/28 z41/168 E,,31/168 z31/126 E,,7/36 z11/48 E,,7/32 z7/32 E,,/6 z/4 E,,4/21 z/4 E,,5/28 z/4 
E,,5/28 z41/168 E,,23/120 z43/180 E,,/6 z37/144 E,,7/32 z7/32 E,,5/28 z/4 E,,5/28 z/4 E,,27/140 z33/140 E,,5/28 z41/168 E,,23/120 z43/180 E,,23/126 z/4 
E,,5/28 z/4 E,,/6 z11/42 A,,,13/84 z23/84 A,,,43/252 z65/252 A,,,23/140 z43/160 A,,,39/224 z9/35 A,,,11/60 z5/21 A,,,5/28 z/4 A,,,5/28 z/4 A,,,11/56 z13/56 
A,,,27/140 z29/120 A,,,13/72 z71/288 A,,,39/224 z9/35 A,,,11/60 z5/21 A,,,5/28 z/4 A,,,7/36 z35/144 A,,,3/16 z17/72 A,,,29/144 z11/48 A,,,5/24 z7/32 A,,,29/160 z/4 
A,,,31/160 z51/224 A,,,47/224 z71/288 A,,,/6 z35/144 A,,,3/16 z17/72 A,,,11/63 z43/168 A,,,13/72 z71/288 A,,,19/96 z23/96 A,,,3/16 z23/96 A,,,19/96 z71/288 A,,,/6 z35/144 
A,,,3/16 z17/72 A,,,17/90 z29/120 A,,,13/72 z71/288 A,,,29/160 z41/160 E,,37/224 z11/42 E,,/6 z5/18 E,,19/126 z29/112 E,,3/16 z/4 E,,3/16 z35/144 E,,/6 z71/288 
E,,19/96 z23/96 E,,31/160 z7/30 E,,19/96 z71/288 E,,13/72 z29/120 E,,7/40 z/4 E,,3/16 z35/144 E,,/6 z71/288 E,,47/224 z51/224 E,,31/160 z/4 E,,29/160 z71/288 
E,,55/288 z37/160 E,,7/40 z/4 E,,11/56 z59/252 E,,/6 z71/288 E,,47/224 z5/21 E,,11/60 z/4 E,,29/160 z71/288 E,,47/252 z33/140 E,,27/140 z13/56 E,,3/16 z29/112 
E,,5/28 z/4 E,,5/28 z5/21 E,,7/36 z43/180 E,,29/160 z71/288 E,,13/72 z29/120 E,,17/90 z16/63 ^C,,3/14 z3/14 C,,11/42 z/6 C,,5/18 z5/36 C,,/4 z11/60 
C,,39/160 z43/224 C,,43/168 z29/168 C,,57/224 z39/224 C,,9/35 z6/35 B,,,39/140 z3/20 B,,,5/18 z5/36 B,,,11/42 z5/28 B,,,53/224 z43/224 A,,,43/168 z29/168 A,,,57/224 z39/224 
A,,,9/35 z6/35 A,,,11/42 z/6 E,,/4 z5/28 E,,2/7 z/7 E,,16/63 z11/63 E,,2/7 z/7 E,,57/224 z39/224 E,,9/35 z11/60 E,,4/15 z3/20 E,,5/18 z19/126 
E,,/4 z5/28 E,,/4 z5/28 E,,17/63 z/6 E,,89/288 z19/160 E,,,29/140 z3/ E,,31/168 z391/120 
E,,/5 z29/9 E,,17/72 z77/24 
E,,7/24 z301/96 E,,5/32 z9/32 E,,5/32 z13/48 
E,,/6 z19/72 E,,29/180 z21/80 E,,3/16 z2/9 E,,7/36 z/4 E,,17/96 z41/160 E,,29/160 z/4 E,,17/96 z/4 E,,31/168 z31/126 E,,25/144 z/4 E,,3/16 z2/9 
E,,7/36 z11/42 E,,5/28 z17/70 E,,29/160 z/4 E,,3/16 z23/96 E,,19/96 z67/288 E,,25/144 z29/112 E,,5/28 z/4 E,,5/28 z/4 E,,5/28 z17/70 E,,23/120 z23/96 
E,,17/96 z/4 E,,19/96 z53/224 E,,5/28 z/4 E,,5/28 z/4 E,,3/16 z27/112 E,,5/28 z17/70 E,,23/120 z/4 E,,/6 z43/168 E,,5/28 z/4 E,,5/28 z/4 
A,,,33/224 z9/32 A,,,/6 z11/42 A,,,5/28 z16/63 A,,,49/288 z25/96 A,,,17/96 z55/224 A,,,5/28 z/4 A,,,5/28 z/4 A,,,5/28 z/4 A,,,3/16 z/4 A,,,19/112 z16/63 
A,,,49/288 z25/96 A,,,13/72 z61/252 A,,,5/28 z/4 A,,,4/21 z/4 A,,,/6 z/4 A,,,/5 z19/80 A,,,29/144 z2/9 A,,,13/72 z/4 A,,,13/72 z71/288 A,,,3/16 z/4 
A,,,17/96 z/4 A,,,19/96 z7/32 A,,,5/28 z29/112 A,,,29/144 z2/9 A,,,17/90 z/4 A,,,31/180 z71/288 A,,,19/96 z23/96 A,,,17/96 z/4 A,,,19/96 z7/32 A,,,3/16 z21/80 
A,,,11/70 z15/56 A,,,/6 z31/120 E,,19/120 z25/96 E,,39/224 z59/224 E,,37/224 z11/42 E,,/6 z5/18 E,,31/180 z/4 E,,7/40 z/4 E,,7/40 z/4 E,,/5 z7/32 
E,,3/16 z25/96 E,,17/96 z/4 E,,5/32 z5/18 E,,31/180 z/4 E,,7/40 z/4 E,,3/16 z19/80 E,,/5 z/4 E,,/6 z/4 E,,5/24 z7/32 E,,5/32 z5/18 
E,,13/72 z29/120 E,,7/40 z15/56 E,,19/112 z/4 E,,3/16 z/4 E,,5/32 z25/96 E,,4/21 z53/224 E,,43/224 z61/252 E,,13/72 z/4 E,,23/120 z17/70 E,,19/112 z/4 
E,,3/16 z/4 E,,5/32 z25/96 E,,17/96 z59/224 E,,39/224 z/4 C,,7/32 z5/24 C,,25/96 z39/224 C,,59/224 z5/32 C,,/4 z3/16 C,,2/9 z13/63 C,,29/112 z19/112 
C,,15/56 z5/32 C,,25/96 z/6 B,,,7/24 z/7 B,,,59/224 z37/224 B,,,/4 z5/28 B,,,/4 z5/28 A,,,29/112 z19/112 A,,,16/63 z49/288 A,,,25/96 z/6 A,,,25/96 z39/224 
E,,/4 z5/28 E,,2/7 z/7 E,,/4 z5/28 E,,47/168 z25/168 E,,15/56 z/6 E,,/4 z17/96 E,,9/32 z/7 E,,23/84 z13/84 E,,/4 z5/28 E,,/4 z5/28 
E,,19/70 z11/70 E,,13/42 z/8 E,,,5/24 
