X: 1
T: Doom E1M1 - At Doom Gate (Drum Kit)
Z: ABC Generated by Starbound Composer v0.8.7
L: 1/4
Q: 1/4=95
K: C
[C,,3/16E,,2/9F,,2/9] z363/112 [C,,37/224F,,37/224E,,23/126] z731/224 
[C,,/7F,,5/28E,,31/168] z79/24 [C,,19/120F,,17/96E,,5/24] z523/160 
[C,,31/224A,31/224^C,31/224E,,31/224F,,5/32] z31/168 [C,5/72A,5/72] z877/288 [A,23/160C,,23/160C,23/160E,,23/160F,,5/32] z27/160 [C,13/160A,13/160] z91/30 
[A,/8C,13/96C,,/6F,,7/36E,,7/36] z19/96 [C,/16A,/16] z49/16 [A,25/224C,/8C,,13/96F,,5/32E,,27/160] z4/21 [C,/12A,/12] z47/36 
[F,,/9E,,/9C,,/9] z/8 [F,,13/168E,,13/168C,,/12] z11/84 [C,,/9F,,/9E,,11/96] z/9 [F,,23/288E,,23/288C,,/9] z/8 [C,,3/32F,,17/160E,,17/160] z/8 [F,,3/32C,,3/32E,,3/32] z/8 [C,,23/288F,,3/32E,,25/224] z/9 [E,,/9F,,/9C,,/9] z7/60 [z/120C,,7/40] _B,,25/168 z15/56 [z/40E,,5/32] B,,17/120 z13/48 [z/48C,,13/112] B,,/6 z/32 C,,13/96 z/12 [z/36E,,/8] B,,5/36 z/4 [z/84C,,/6] B,,6/35 z39/160 [z/32E,,5/32] B,,9/56 z55/224 
[z/96C,,25/224] B,,7/48 z5/144 C,,11/72 z3/40 [z3/160E,,2/15] B,,5/32 z19/72 [z/90C,,11/72] B,,17/120 z13/48 [z/48E,,11/80] B,,13/96 z9/32 [z/28C,,3/28] B,,/7 z5/168 C,,13/96 z7/96 [z/30E,,2/15] B,,2/15 z25/96 [B,,5/32C,,53/288] z2/7 [E,,11/84B,,11/84] z17/60 [z/120B,,23/160] C,,19/168 z3/28 C,,15/112 z11/144 [z/90E,,41/288] B,,17/120 z31/120 
[z/80B,,3/20] C,,5/32 z9/32 [B,,/8E,,5/36] z7/24 [C,,/8B,,7/48] z17/168 C,,31/224 z/16 [z3/224B,,5/32] E,,29/252 z79/252 [z/168C,,17/112] B,,7/48 z13/48 [z/96E,,25/168] B,,31/224 z71/252 [B,,37/252C,,/6] z31/112 [z/48E,,7/48] B,,13/96 z9/32 [B,,5/36C,,5/32] z5/18 [z/84B,,2/15] E,,/7 z61/224 
[z3/224B,,5/32] C,,25/224 z23/224 C,,23/168 z13/168 [z/168E,,11/84] B,,23/168 z47/168 [z/96C,,7/96] [D,7/96E,,13/160] z23/168 C,,/14 z5/36 [z5/288C,,5/72] [z/96E,,13/224] =B,,/12 z/9 C,,17/252 z/7 [z/28C,,/14] [z/56A,,/14] E,,3/56 z19/168 C,,11/168 z/7 [z/28C,,/14] [z/70E,,13/224] F,,2/35 z3/28 [z/28C,,/14] [E,,/24F,,/14] z23/168 [^D,15/112C,,5/28] z33/112 [D,25/224E,,/7] z71/224 [C,,3/28D,11/84] z3/28 C,,/7 z17/224 [D,11/96E,,/8] z19/60 
[D,19/140C,,7/45] z2/7 [D,23/168E,,23/168] z7/24 [C,,3/28D,3/20] z3/28 C,,19/140 z11/140 [E,,15/112D,/7] z33/112 [D,/7C,,43/252] z7/24 [D,/8E,,23/168] z29/96 [C,,11/96D,31/224] z5/48 C,,/8 z7/80 [E,,19/140D,17/120] z2/7 [D,23/168C,,5/28] z7/24 [D,5/36E,,3/20] z43/144 
[C,,9/80D,/8] z17/160 C,,13/96 z5/72 [E,,5/36D,5/36] z7/24 [D,23/168C,,29/168] z65/224 [D,31/224E,,31/224] z41/140 [C,,21/160D,17/120] z23/288 C,,5/36 z/14 [E,,9/70D,23/168] z59/180 [D,11/90C,,5/36] z23/80 [D,/8E,,7/48] z43/144 [D,5/36C,,/6] z7/24 [D,23/168E,,7/48] z65/224 
[D,31/224C,,39/224] z67/224 [D,29/224E,,43/288] z25/84 [C,,7/60D,13/96] z/10 C,,11/80 z13/144 [D,11/90E,,11/90] z23/80 [z3/112D,/8] E,,/28 z/20 E,,/30 z/12 C,,/30 z29/180 E,,/18 z17/96 C,,/32 z5/72 C,,/18 z/18 E,,2/45 z9/160 E,,13/224 z15/224 C,,/32 z11/144 C,,5/126 z/14 E,,/24 z11/168 E,,3/70 z7/120 C,,/24 z5/32 [_B,,37/224C,,17/96] z11/42 [z/60E,,13/96] B,,3/20 z5/18 
[z/126C,,7/72] B,,10/63 z7/288 C,,5/32 z/16 [z5/144E,,15/112] B,,11/72 z/4 [z/56C,,9/56] B,,11/70 z23/90 [z/36E,,19/144] B,,5/36 z71/288 [z/32C,,/8] B,,3/20 z/20 C,,17/140 z19/224 [z5/224E,,13/96] B,,13/84 z/4 [z/60C,,/6] B,,3/20 z5/18 [z/126E,,37/288] B,,/7 z19/70 [z/20C,,9/80] B,,/7 z/42 C,,/8 z/12 [z/24E,,11/72] B,,2/15 z23/90 
[B,,13/90C,,/6] z43/160 [z/32E,,5/32] B,,/8 z9/32 [C,,/8B,,43/288] z3/32 C,,11/72 z13/180 [z/140E,,19/160] B,,/7 z5/18 [B,,37/288C,,/6] z9/32 [z/80B,,7/48] E,,2/15 z7/24 [C,,/8B,,11/72] z3/32 C,,/8 z25/288 [E,,31/252B,,10/63] z65/224 [z/32C,,39/224] B,,3/20 z4/15 [z/84E,,13/84] B,,/7 z39/140 
[B,,19/160C,,3/20] z89/288 [z/45E,,5/36] B,,9/70 z19/70 [z/70C,,11/70] B,,19/140 z47/180 [z/72B,,5/36] E,,9/56 z17/63 [z/63B,,10/63] C,,3/28 z23/224 C,,13/96 z/12 [E,,/8B,,/7] z7/24 [D,,/36E,,/24] z/6 C,,2/63 z5/28 [z/84D,,/35] E,,/42 z27/140 C,,/30 z7/36 [D,,/45E,,5/144] z2/35 [z/56D,,2/63] E,,/32 z3/32 C,,/32 z5/32 [z/80D,,3/112] E,,/45 z53/288 
C,,5/224 z3/14 [A,17/126C,,19/112] z5/18 [z/63F,/18] E,,/7 z57/224 [z/32F,/16] C,,3/28 z17/168 C,,25/168 z11/224 [z/96F,5/96] E,,5/36 z53/180 [F,3/70C,,29/160] z11/28 [F,/21E,,11/84] z8/21 [F,/28C,,3/28] z5/28 C,,17/140 z3/40 [z/56F,3/56] E,,17/126 z37/126 [C,,19/126C,5/28] z71/288 
[z/32F,7/96] E,,/7 z59/224 [z/96F,13/224] C,,5/42 z3/28 C,,17/126 z/18 [z/42F,/18] E,,/7 z5/18 [z/126F,/18] C,,29/168 z43/168 [F,/28E,,19/140] z11/28 [F,5/112C,,3/28] z19/112 C,,/7 z/14 [F,3/56E,,9/70] z3/8 [A,/7C,,5/28] z23/84 [z/84F,/21] E,,/7 z2/7 [F,5/84C,,25/224] z13/84 
C,,23/168 z5/72 [z/126F,11/252] E,,27/224 z47/160 [z/70F,/20] C,,9/56 z/4 [z/56F,/16] E,,/7 z2/7 [z/84F,3/56] C,,5/36 z5/18 [F,/24E,,3/20] z65/168 [F,9/224C,,37/224] z87/224 [z/56E,,39/224] F,/24 z31/84 [z/70C,,27/224] F,7/160 z5/32 C,,/7 z/14 [z/126F,/28] E,,23/180 z3/10 
[C,,3/80D,,/20F,/20E,,7/120] z187/112 [C,,/7A,/7C,/7E,,/7F,,39/224] z3/16 [C,/16A,/16] z61/20 
[A,13/90C,,13/90C,13/90E,,19/120F,,19/120] z13/72 [C,/16A,/16] z437/144 [A,23/180C,17/126C,,43/252F,,53/288E,,7/36] z/5 [C,3/40A,3/40] z73/24 
[A,5/42C,2/15C,,7/48F,,/6E,,17/96] z41/224 [C,25/288A,25/288] z4/3 [F,,23/288E,,23/288] z/8 C,,17/160 z9/80 [F,,3/32E,,5/48] z/8 C,,3/32 z7/72 [C,,25/252F,,/9E,,/9] z9/70 [F,,/10C,,/10E,,/10] z7/60 [C,,/12F,,/9E,,/9] z/8 [E,,3/32F,,3/32C,,3/32] z/8 [z/160C,,53/288] B,,3/20 z9/32 [z/96E,,13/96] B,,19/120 z31/120 
[z/96C,,19/168] B,,39/224 z/42 C,,2/15 z4/45 [z/36E,,41/288] B,,7/48 z/4 [z/48C,,5/32] B,,/6 z2/9 [z/18E,,11/72] B,,19/126 z5/21 [z/48C,,/9] B,,7/48 z/24 C,,/8 z/10 [z/90E,,11/90] B,,/6 z73/288 [z/96C,,5/32] B,,7/48 z13/48 [z/96E,,13/96] B,,41/288 z5/18 [z5/126C,,/9] B,,/7 z5/224 C,,37/288 z13/144 [z/32E,,7/48] B,,5/32 z2/9 
[B,,11/72C,,7/36] z17/56 [E,,15/112B,,/7] z23/80 [C,,4/35B,,3/20] z11/112 C,,11/80 z13/160 [z/96E,,13/96] B,,7/48 z13/48 [B,,13/96C,,/6] z85/288 [B,,41/288E,,41/288] z9/32 [z/112B,,7/48] C,,3/28 z3/28 C,,11/84 z/18 [z/36B,,43/252] E,,/8 z17/56 [z/112C,,13/84] B,,7/48 z4/15 [z/90E,,3/20] B,,5/36 z9/32 
[B,,33/224C,,27/160] z47/168 [z/96E,,11/72] B,,41/288 z71/252 [B,,31/224C,,11/70] z9/32 [z/112B,,19/144] E,,/7 z2/7 [C,,3/28B,,/7] z17/168 C,,13/96 z19/224 [z/112E,,15/112] B,,15/112 z39/140 [z/90C,,9/160] [z/72=D,17/252] E,,/16 z/8 C,,11/144 z11/72 [z/120C,,5/96] [z/80E,,2/35] =B,,/16 z/8 C,,/14 z/7 [z/28C,,/14] [A,,/14E,,/14] z3/28 C,,/14 z/7 [z/28C,,11/168] [z/112E,,9/224] F,,/16 z3/28 
C,,9/112 z15/112 [^D,23/168C,,5/28] z7/24 [D,/8E,,/7] z17/56 [C,,17/140D,15/112] z/10 C,,19/140 z19/252 [D,/9E,,5/36] z23/72 [D,23/168C,,19/120] z2/7 [D,19/140E,,19/140] z41/140 [C,,3/28D,25/168] z3/28 C,,/7 z/14 [E,,23/168D,/7] z7/24 [D,5/36C,,/6] z43/144 
[D,/8E,,15/112] z43/144 [C,,/9D,5/36] z25/252 C,,9/70 z11/120 [E,,23/168D,7/48] z2/7 [D,19/140C,,5/28] z41/140 [D,31/224E,,25/168] z29/96 [C,,/9D,11/84] z7/72 C,,23/168 z/14 [E,,/7D,/7] z33/112 [D,15/112C,,19/112] z73/252 [D,5/36E,,5/36] z7/24 [C,,/8D,7/48] z/12 
C,,5/36 z23/288 [E,,/8D,21/160] z5/16 [D,13/96C,,5/32] z7/24 [D,/8E,,13/96] z7/24 [D,/7C,,5/28] z33/112 [D,15/112E,,7/48] z73/252 [D,5/36C,,49/288] z3/10 [D,11/80E,,3/20] z9/32 [C,,/8D,5/32] z3/32 C,,15/112 z19/224 [D,13/96E,,13/96] z7/24 
[z/42D,/8] E,,2/63 z/6 C,,11/288 z5/32 E,,/20 z27/160 C,,/16 z5/96 C,,/24 z3/40 E,,/20 z/20 E,,2/35 z5/84 C,,/24 z31/168 E,,/28 z6/35 C,,3/70 z5/112 C,,/32 z13/160 [_B,,19/120C,,31/180] z25/96 [z/32E,,5/32] B,,/7 z59/224 [z5/224C,,/8] B,,37/224 z5/288 C,,/6 z/18 [z/42E,,11/84] B,,/7 z5/18 [z/288C,,19/126] B,,5/32 z21/80 [z/45E,,2/15] B,,11/72 z/4 
[z/56C,,7/72] B,,25/168 z/24 C,,13/96 z13/160 [z3/140E,,11/80] B,,33/224 z/4 [z/32C,,39/224] B,,/7 z23/84 [z/84E,,2/15] B,,/7 z61/224 [z13/288C,,11/96] B,,37/252 z5/252 C,,31/252 z25/252 [z/45E,,37/288] B,,11/80 z21/80 [B,,23/160C,,11/70] z9/32 [z/56E,,11/72] B,,17/126 z49/180 [C,,9/70B,,3/20] z25/252 C,,37/288 z3/32 [E,,/9B,,/7] z85/288 
[z/96B,,23/160] C,,/6 z/4 [z/96B,,13/96] E,,/8 z89/288 [C,,29/252B,,37/288] z17/224 C,,41/288 z4/45 [E,,17/140B,,11/70] z9/28 [C,,31/224B,,25/168] z9/32 [z/112E,,7/48] B,,23/168 z7/24 [B,,/8C,,/7] z7/24 [z/48E,,7/48] B,,15/112 z61/224 [z3/224C,,5/32] B,,/7 z/4 [z/36B,,5/32] E,,19/126 z19/70 
[z/120B,,11/70] C,,19/168 z2/21 C,,5/36 z11/126 [E,,17/126B,,31/224] z41/144 [D,,/48E,,/32] z/6 C,,/28 z5/28 [z/224D,,/28] E,,/32 z3/16 C,,5/144 z7/36 [z/84D,,/48] E,,3/140 z/20 D,,/32 E,,3/160 z3/40 C,,/24 z/6 [z/96D,,/42] E,,3/224 z31/168 C,,/24 z19/96 [A,13/96C,,27/160] z17/60 [z/120F,/20] E,,25/168 z15/56 [z/56F,/24] C,,3/28 z/10 C,,3/20 z/20 [z/80F,7/160] E,,11/80 z3/10 
[F,/28C,,5/32] z11/28 [F,9/224E,,15/112] z87/224 [F,3/70C,,3/28] z6/35 C,,13/112 z13/144 [z/288F,5/144] E,,13/96 z7/24 [C,,25/168C,13/72] z2/7 [F,/28E,,31/224] z43/112 [z/112F,5/112] C,,3/28 z3/28 C,,27/224 z/16 [z/32F,/16] E,,/7 z23/84 [z/84F,5/96] C,,37/224 z59/224 [F,3/70E,,/7] z61/160 
[F,9/224C,,25/224] z5/28 C,,/7 z11/168 [F,5/72E,,13/96] z23/63 [A,31/224C,,19/112] z9/32 [z/112F,5/112] E,,23/168 z7/24 [F,/18C,,/9] z10/63 C,,19/140 z9/160 [z5/224F,5/96] E,,17/140 z47/160 [z3/224F,9/160] C,,/7 z9/32 [z/96F,9/224] E,,23/168 z47/168 [z/96F,5/72] C,,5/32 z15/56 [F,/28E,,25/168] z11/28 
[F,5/126C,,19/126] z7/18 [F,/18E,,5/32] z47/126 [z/112C,,17/140] F,/32 z29/160 C,,19/140 z/14 [F,3/70E,,/7] z47/120 [z/120C,,/24D,,/24F,/24] E,,/20 
