X: 1
T: Doom E1M9 - Hiding the Secrets (Electric Bass Guitar 1)
Z: ABC Generated by Starbound Composer v0.8.7
L: 1/4
Q: 1/4=95
K: C
^D,,3/10 ^C,,43/140 z67/224 C,,91/288 B,,,89/288 C,,29/96 z13/42 C,,43/140 D,,3/10 C,,9/28 z17/56 D,,17/56 E,,9/28 
D,,7/24 C,,29/96 B,,,5/16 D,,69/224 C,,71/224 z29/96 C,,13/42 B,,,33/112 C,,5/16 z11/36 C,,19/63 D,,13/42 C,,29/96 z5/16 
D,,29/96 E,,37/60 B,,,87/140 D,,17/56 C,,17/56 z9/28 C,,7/24 B,,,37/120 C,,19/60 z25/84 C,,79/252 D,,11/36 
C,,11/36 z43/144 D,,5/16 E,,5/16 D,,43/144 C,,11/36 B,,,11/36 D,,79/252 C,,25/84 z19/60 C,,37/120 B,,,7/24 C,,9/28 z17/56 
C,,17/56 D,,9/28 C,,3/10 z3/10 D,,19/60 E,,59/96 B,,,137/224 D,,19/63 C,,11/36 z5/16 C,,33/112 B,,,13/42 
C,,29/96 z71/224 C,,69/224 D,,5/16 C,,29/96 z7/24 D,,9/28 E,,17/56 D,,17/56 C,,9/28 B,,,3/10 D,,43/140 C,,13/42 z29/96 
C,,89/288 B,,,11/36 C,,13/42 z43/140 C,,3/10 D,,5/16 C,,43/144 z11/36 D,,11/36 E,,179/288 B,,,59/96 D,,23/72 
C,,11/36 z11/36 C,,43/144 B,,,5/16 C,,3/10 z43/140 C,,67/224 D,,91/288 C,,89/288 z29/96 D,,13/42 E,,43/140 D,,3/10 C,,9/28 
B,,,17/56 D,,17/56 C,,9/28 z7/24 C,,29/96 B,,,5/16 C,,69/224 z71/224 C,,29/96 D,,13/42 C,,33/112 z5/16 D,,11/36 E,,11/18 
B,,,11/24 z5/32 ^G,,29/96 ^F,,19/60 z3/10 F,,3/10 E,,9/28 F,,17/56 z17/56 F,,9/28 G,,7/24 F,,37/120 z19/60 
G,,25/84 A,,79/252 G,,11/36 F,,11/36 E,,43/144 G,,5/16 F,,5/16 z43/144 F,,11/36 E,,11/36 F,,79/252 z25/84 F,,19/60 G,,37/120 
F,,7/24 z9/28 G,,17/56 A,,5/8 E,,3/5 G,,19/60 F,,29/96 z5/16 F,,29/96 E,,13/42 F,,19/63 z11/36 
F,,5/16 G,,33/112 F,,13/42 z29/96 G,,71/224 A,,69/224 G,,5/16 F,,29/96 E,,7/24 G,,9/28 F,,17/56 z17/56 F,,9/28 
E,,3/10 F,,43/140 z13/42 F,,29/96 G,,89/288 F,,11/36 z13/42 G,,43/140 A,,49/80 E,,29/48 D,,11/36 C,,23/72 z29/96 
C,,5/16 B,,,29/96 C,,23/72 z11/36 C,,11/36 D,,43/144 C,,5/16 z3/10 D,,43/140 E,,13/42 D,,11/36 C,,89/288 B,,,29/96 D,,13/42 
C,,43/140 z3/10 C,,9/28 B,,,17/56 C,,17/56 z9/28 C,,7/24 D,,29/96 C,,5/16 z69/224 D,,71/224 E,,137/224 
B,,,17/28 D,,11/36 C,,19/63 z13/42 C,,29/96 B,,,5/16 C,,29/96 z19/60 C,,3/10 D,,3/10 C,,9/28 z17/56 D,,17/56 
E,,9/28 D,,7/24 C,,37/120 B,,,19/60 D,,25/84 C,,79/252 z11/36 C,,11/36 B,,,43/144 C,,5/16 z5/16 C,,43/144 D,,11/36 C,,11/36 z79/252 
D,,25/84 E,,5/8 B,,,103/168 ^G,,,17/56 A,,,17/56 z9/28 B,,,3/10 A,,,3/10 G,,,19/60 z29/96 B,,,5/16 C,,29/96 
D,,13/42 z19/63 E,,11/36 D,,17/28 C,,13/28 z33/224 G,,,71/224 A,,,69/224 z5/16 B,,,29/96 A,,,7/24 G,,,9/28 z17/56 
B,,,17/56 C,,9/28 D,,3/10 z43/140 E,,13/42 C,,11/18 B,,,155/252 G,,,43/140 A,,,3/10 z5/16 B,,,43/144 A,,,11/36 
G,,,11/36 z23/72 B,,,29/96 C,,5/16 D,,29/96 z23/72 E,,11/36 C,,29/48 E,,49/80 G,,,43/140 A,,,13/42 z11/36 
B,,,89/288 A,,,29/96 G,,,11/24 z19/120 B,,,3/10 C,,9/28 D,,17/56 z17/56 E,,9/28 C,,19/32 E,,139/224 C,,9/56 z5/32 
C,,29/96 D,,13/42 E,,33/112 D,,5/32 z5/32 D,,11/36 C,,19/63 B,,,9/28 G,,,/7 z33/224 G,,,5/16 A,,,29/96 B,,,19/60 A,,,3/5 G,,,5/8 
C,,5/32 z33/224 C,,9/28 D,,7/24 E,,37/120 F,,19/60 E,,25/84 D,,79/252 C,,11/36 G,,,5/36 z/6 G,,,43/144 A,,,5/16 B,,,5/16 A,,,29/48 
G,,,13/21 C,,25/84 G,,19/60 =G,,37/120 ^G,,7/24 A,,9/28 G,,17/56 E,,17/56 G,,9/28 G,,,3/10 D,,3/10 =D,,19/60 
^D,,29/96 E,,59/96 A,,,11/18 C,,11/36 G,,5/16 =G,,33/112 ^G,,13/42 E,,29/96 G,,71/224 D,,69/224 G,,5/16 G,,,29/96 
D,,7/24 =D,,9/28 ^D,,17/56 E,,5/8 A,,,17/28 
