X: 1
T: Doom E1M3 - Dark Halls (Space Synth)
Z: ABC Generated by Starbound Composer v0.8.7
L: 1/4
Q: 1/4=95
K: C
^D,,3/16 D,,23/112 D,,4/21 D,,17/84 D,,41/224 D,,47/224 D,,11/56 D,,11/56 D,,13/63 D,,47/252 D,,43/224 D,,45/224 D,,27/140 D,,/5 D,,7/36 D,,25/126 D,,4/21 D,,5/24 D,,13/72 D,,13/63 D,,11/56 
D,,11/56 D,,47/224 D,,3/16 D,,3/16 D,,59/288 D,,17/90 D,,/5 D,,/5 D,,/5 D,,31/160 D,,19/96 D,,17/96 D,,7/32 D,,3/16 D,,5/24 D,,7/36 D,,55/288 D,,19/96 D,,4/21 D,,25/126 D,,7/36 
D,,/5 D,,/5 D,,31/160 D,,19/96 D,,13/72 D,,31/144 D,,3/16 D,,5/24 D,,19/96 D,,55/288 D,,7/36 [z7/36D,,5/24] D,,29/144 D,,3/16 D,,/5 D,,33/160 D,,3/16 D,,33/160 D,,/5 D,,3/16 D,,3/16 z/72 
D,,7/36 D,,7/36 D,,55/288 D,,19/96 D,,5/24 D,,3/16 D,,31/144 D,,13/72 D,,19/96 D,,31/160 D,,/5 D,,/5 D,,7/36 D,,25/126 D,,4/21 D,,19/96 D,,55/288 D,,7/36 D,,5/24 D,,3/16 D,,7/32 
D,,17/96 D,,19/96 D,,31/160 D,,/5 D,,/5 D,,/5 D,,17/90 D,,59/288 D,,3/16 D,,3/16 D,,47/224 D,,11/56 D,,11/56 D,,13/63 D,,13/72 D,,5/24 D,,4/21 D,,25/126 D,,7/36 D,,/5 D,,27/140 
D,,45/224 D,,43/224 D,,47/252 D,,13/63 D,,11/56 D,,11/56 D,,47/224 D,,41/224 D,,17/84 D,,4/21 D,,23/112 D,,3/16 D,,/5 D,,27/140 D,,45/224 D,,43/224 D,,3/14 D,,5/28 D,,53/252 D,,23/126 D,,13/63 
D,,47/252 D,,17/84 D,,4/21 D,,23/112 D,,3/16 D,,5/24 D,,31/168 D,,29/140 D,,23/120 D,,5/24 D,,5/28 D,,3/14 D,,5/28 D,,47/224 D,,3/16 D,,19/96 D,,7/36 D,,29/144 D,,3/16 D,,5/24 D,,23/120 
D,,/5 D,,23/120 D,,5/24 D,,3/16 D,,29/144 D,,7/36 D,,19/96 D,,3/16 D,,47/224 D,,5/28 D,,3/14 D,,5/28 D,,5/24 D,,23/120 D,,29/140 D,,31/168 D,,5/24 D,,3/16 D,,23/112 D,,4/21 D,,17/84 
D,,47/252 D,,13/63 D,,23/126 D,,53/252 D,,5/28 D,,3/14 D,,43/224 D,,45/224 D,,27/140 D,,/5 D,,3/16 D,,23/112 D,,4/21 D,,17/84 D,,41/224 D,,47/224 D,,11/56 D,,11/56 D,,13/63 D,,47/252 D,,43/224 
D,,45/224 D,,27/140 D,,/5 D,,7/36 D,,25/126 D,,4/21 D,,5/24 D,,13/72 D,,13/63 D,,11/56 D,,11/56 D,,47/224 D,,3/16 D,,3/16 D,,59/288 D,,17/90 D,,/5 D,,/5 D,,/5 D,,31/160 D,,19/96 
D,,17/96 D,,7/32 D,,3/16 D,,5/24 D,,7/36 D,,55/288 D,,19/96 D,,4/21 D,,25/126 D,,7/36 D,,/5 D,,/5 D,,31/160 D,,19/96 D,,13/72 D,,31/144 D,,3/16 D,,5/24 D,,19/96 D,,55/288 D,,7/36 
[z7/36D,,5/24] D,,29/144 D,,3/16 D,,/5 D,,33/160 D,,3/16 D,,33/160 D,,/5 D,,3/16 D,,3/16 z/72 D,,7/36 D,,7/36 D,,55/288 D,,19/96 D,,5/24 D,,3/16 D,,31/144 D,,13/72 D,,19/96 D,,31/160 D,,/5 
D,,/5 D,,7/36 D,,25/126 D,,4/21 D,,19/96 D,,55/288 D,,7/36 D,,5/24 D,,3/16 D,,7/32 D,,17/96 D,,19/96 D,,31/160 D,,/5 D,,/5 D,,/5 D,,17/90 D,,59/288 D,,3/16 D,,3/16 D,,47/224 
D,,11/56 D,,11/56 D,,13/63 D,,13/72 D,,5/24 D,,4/21 D,,25/126 D,,7/36 D,,/5 D,,27/140 D,,45/224 D,,43/224 D,,47/252 D,,13/63 D,,11/56 D,,11/56 D,,47/224 D,,41/224 D,,17/84 D,,4/21 D,,23/112 
D,,3/16 D,,/5 D,,27/140 D,,45/224 D,,43/224 D,,3/14 D,,5/28 D,,53/252 D,,23/126 D,,13/63 D,,47/252 D,,17/84 D,,4/21 D,,23/112 D,,3/16 D,,5/24 D,,31/168 D,,29/140 D,,23/120 D,,5/24 D,,5/28 
D,,3/14 D,,5/28 D,,47/224 D,,3/16 D,,19/96 ^G,,,7/36 G,,,29/144 G,,,3/16 G,,,5/24 G,,,23/120 G,,,/5 G,,,23/120 G,,,5/24 G,,,3/16 G,,,29/144 G,,,7/36 G,,,19/96 G,,,3/16 G,,,47/224 G,,,5/28 G,,,3/14 
G,,,5/28 G,,,5/24 G,,,23/120 G,,,29/140 G,,,31/168 G,,,5/24 G,,,3/16 G,,,23/112 G,,,4/21 G,,,17/84 G,,,47/252 G,,,13/63 G,,,23/126 G,,,53/252 G,,,5/28 G,,,3/14 G,,,43/224 G,,,45/224 G,,,27/140 G,,,/5 G,,,3/16 
G,,,23/112 G,,,4/21 G,,,17/84 G,,,41/224 G,,,47/224 G,,,11/56 G,,,11/56 G,,,13/63 G,,,47/252 G,,,43/224 G,,,45/224 G,,,27/140 G,,,/5 G,,,7/36 G,,,25/126 G,,,4/21 G,,,5/24 G,,,13/72 G,,,13/63 G,,,11/56 G,,,11/56 
G,,,47/224 G,,,3/16 G,,,3/16 G,,,59/288 G,,,17/90 G,,,/5 G,,,/5 G,,,/5 G,,,31/160 G,,,19/96 G,,,17/96 G,,,7/32 G,,,3/16 G,,,5/24 G,,,7/36 G,,,55/288 G,,,19/96 G,,,4/21 G,,,25/126 G,,,7/36 G,,,/5 
G,,,/5 G,,,31/160 G,,,19/96 G,,,13/72 G,,,31/144 G,,,3/16 G,,,5/24 G,,,19/96 G,,,55/288 G,,,7/36 [z7/36G,,,5/24] G,,,29/144 G,,,3/16 G,,,/5 G,,,33/160 G,,,3/16 G,,,33/160 G,,,/5 G,,,3/16 G,,,3/16 z/72 G,,,7/36 
G,,,7/36 G,,,55/288 G,,,19/96 G,,,5/24 G,,,3/16 G,,,31/144 G,,,13/72 G,,,19/96 G,,,31/160 G,,,/5 G,,,/5 G,,,7/36 G,,,25/126 G,,,4/21 G,,,19/96 G,,,55/288 G,,,7/36 G,,,5/24 G,,,3/16 G,,,7/32 G,,,17/96 
G,,,19/96 G,,,31/160 G,,,/5 G,,,/5 G,,,/5 G,,,17/90 G,,,59/288 D,,3/16 D,,3/16 D,,47/224 D,,11/56 D,,11/56 D,,13/63 D,,13/72 D,,5/24 D,,4/21 D,,25/126 D,,7/36 D,,/5 D,,27/140 D,,45/224 
D,,43/224 D,,47/252 D,,13/63 D,,11/56 D,,11/56 D,,47/224 D,,41/224 D,,17/84 D,,4/21 D,,23/112 D,,3/16 D,,/5 D,,27/140 D,,45/224 D,,43/224 D,,3/14 D,,5/28 D,,53/252 D,,23/126 D,,13/63 D,,47/252 
D,,17/84 D,,4/21 D,,23/112 D,,3/16 D,,5/24 D,,31/168 D,,29/140 D,,23/120 D,,5/24 D,,5/28 D,,3/14 D,,5/28 D,,47/224 D,,3/16 D,,19/96 D,,7/36 D,,29/144 D,,3/16 D,,5/24 D,,23/120 D,,/5 
D,,23/120 D,,5/24 D,,3/16 D,,29/144 D,,7/36 D,,19/96 D,,3/16 D,,47/224 D,,5/28 D,,3/14 D,,5/28 D,,5/24 D,,23/120 D,,29/140 D,,31/168 D,,5/24 D,,3/16 D,,23/112 D,,4/21 D,,17/84 D,,47/252 
D,,13/63 D,,23/126 D,,53/252 D,,5/28 D,,3/14 D,,43/224 D,,45/224 D,,27/140 D,,/5 D,,3/16 D,,23/112 D,,4/21 D,,17/84 D,,41/224 D,,47/224 D,,11/56 D,,11/56 D,,13/63 D,,47/252 D,,43/224 D,,45/224 
D,,27/140 D,,/5 D,,7/36 D,,25/126 D,,4/21 D,,5/24 D,,13/72 D,,13/63 D,,11/56 D,,11/56 D,,47/224 D,,3/16 D,,3/16 D,,59/288 D,,17/90 D,,/5 D,,/5 D,,/5 D,,31/160 D,,19/96 D,,17/96 
D,,7/32 D,,3/16 D,,5/24 D,,7/36 D,,55/288 D,,19/96 D,,4/21 D,,25/126 D,,7/36 _B,,,/5 B,,,/5 B,,,31/160 B,,,19/96 B,,,13/72 B,,,31/144 B,,,3/16 B,,,5/24 B,,,19/96 B,,,55/288 B,,,7/36 [z7/36B,,,5/24] 
B,,,29/144 B,,,3/16 B,,,/5 B,,,33/160 B,,,3/16 B,,,33/160 B,,,/5 B,,,3/16 B,,,3/16 z/72 B,,,7/36 B,,,7/36 B,,,55/288 B,,,19/96 B,,,5/24 B,,,3/16 B,,,31/144 B,,,13/72 B,,,19/96 B,,,31/160 B,,,/5 ^C,,/5 
C,,7/36 C,,25/126 C,,4/21 C,,19/96 C,,55/288 C,,7/36 C,,5/24 C,,3/16 C,,7/32 C,,17/96 C,,19/96 C,,31/160 C,,/5 C,,/5 C,,/5 D,,17/90 D,,59/288 D,,3/16 D,,3/16 D,,47/224 D,,11/56 
D,,11/56 D,,13/63 D,,13/72 D,,5/24 D,,4/21 D,,25/126 D,,7/36 D,,/5 D,,27/140 D,,45/224 D,,43/224 D,,47/252 D,,13/63 D,,11/56 D,,11/56 D,,47/224 D,,41/224 D,,17/84 D,,4/21 D,,23/112 D,,3/16 
D,,/5 D,,27/140 D,,45/224 D,,43/224 D,,3/14 D,,5/28 D,,53/252 D,,23/126 D,,13/63 D,,47/252 D,,17/84 D,,4/21 D,,23/112 D,,3/16 D,,5/24 D,,31/168 D,,29/140 D,,23/120 D,,5/24 D,,5/28 D,,3/14 
D,,5/28 D,,47/224 D,,3/16 D,,19/96 D,,7/36 D,,29/144 D,,3/16 D,,5/24 D,,23/120 D,,/5 D,,23/120 D,,5/24 D,,3/16 D,,29/144 D,,7/36 D,,19/96 G,,,3/16 G,,,47/224 G,,,5/28 G,,,3/14 G,,,5/28 
G,,,5/24 G,,,23/120 G,,,29/140 G,,,31/168 G,,,5/24 G,,,3/16 G,,,23/112 G,,,4/21 G,,,17/84 G,,,47/252 G,,,13/63 D,,23/126 D,,53/252 D,,5/28 D,,3/14 D,,43/224 D,,45/224 D,,27/140 D,,/5 D,,3/16 D,,23/112 
D,,4/21 D,,17/84 D,,41/224 D,,47/224 D,,11/56 D,,11/56 D,,13/63 D,,47/252 D,,43/224 D,,45/224 D,,27/140 D,,/5 D,,7/36 D,,25/126 D,,4/21 D,,5/24 D,,13/72 D,,13/63 D,,11/56 D,,11/56 D,,47/224 
D,,3/16 D,,3/16 D,,59/288 D,,17/90 D,,/5 D,,/5 D,,/5 D,,31/160 D,,19/96 D,,17/96 D,,7/32 D,,3/16 D,,5/24 D,,7/36 D,,55/288 D,,19/96 D,,4/21 G,,,25/126 G,,,7/36 G,,,/5 G,,,/5 
G,,,31/160 G,,,19/96 G,,,13/72 G,,,31/144 G,,,3/16 G,,,5/24 G,,,19/96 G,,,55/288 G,,,7/36 [z7/36G,,,5/24] G,,,29/144 G,,,3/16 D,,/5 D,,33/160 D,,3/16 D,,33/160 D,,/5 D,,3/16 D,,3/16 z/72 D,,7/36 D,,7/36 
D,,55/288 D,,19/96 D,,5/24 D,,3/16 D,,31/144 D,,13/72 D,,19/96 D,,31/160 D,,/5 D,,/5 D,,7/36 D,,25/126 D,,4/21 D,,19/96 D,,55/288 D,,7/36 D,,5/24 D,,3/16 D,,7/32 D,,17/96 D,,19/96 
D,,31/160 D,,/5 D,,/5 D,,/5 D,,17/90 D,,59/288 D,,3/16 D,,3/16 D,,47/224 D,,11/56 D,,11/56 D,,13/63 D,,13/72 D,,5/24 D,,4/21 D,,25/126 D,,7/36 D,,/5 D,,27/140 D,,45/224 D,,43/224 
D,,47/252 D,,13/63 D,,11/56 D,,11/56 D,,47/224 D,,41/224 D,,17/84 D,,4/21 D,,23/112 D,,3/16 D,,/5 D,,27/140 D,,45/224 D,,43/224 D,,3/14 D,,5/28 D,,53/252 D,,23/126 D,,13/63 D,,47/252 D,,17/84 
D,,4/21 D,,23/112 D,,3/16 D,,5/24 D,,31/168 D,,29/140 D,,23/120 D,,5/24 D,,5/28 D,,3/14 D,,5/28 D,,47/224 D,,3/16 D,,19/96 D,,7/36 D,,29/144 D,,3/16 D,,5/24 D,,23/120 D,,/5 D,,23/120 
D,,5/24 D,,3/16 D,,29/144 D,,7/36 D,,19/96 D,,3/16 D,,47/224 D,,5/28 D,,3/14 D,,5/28 D,,5/24 D,,23/120 D,,29/140 D,,31/168 D,,5/24 D,,3/16 D,,23/112 D,,4/21 D,,17/84 D,,47/252 D,,13/63 
D,,23/126 D,,53/252 D,,5/28 D,,3/14 D,,43/224 D,,45/224 D,,27/140 D,,/5 D,,3/16 D,,23/112 D,,4/21 D,,17/84 D,,41/224 D,,47/224 D,,11/56 D,,11/56 D,,13/63 D,,47/252 D,,43/224 D,,45/224 D,,27/140 
D,,/5 D,,7/36 D,,25/126 D,,4/21 D,,5/24 D,,13/72 D,,13/63 D,,11/56 D,,11/56 D,,47/224 D,,3/16 D,,3/16 D,,59/288 D,,17/90 D,,/5 D,,/5 D,,/5 D,,31/160 D,,19/96 D,,17/96 D,,7/32 
D,,3/16 D,,5/24 D,,7/36 D,,55/288 D,,19/96 D,,4/21 D,,25/126 D,,7/36 D,,/5 D,,/5 D,,31/160 D,,19/96 D,,13/72 D,,31/144 D,,3/16 D,,5/24 D,,19/96 D,,55/288 D,,7/36 [z7/36D,,5/24] D,,29/144 
D,,3/16 D,,/5 D,,33/160 D,,3/16 D,,33/160 D,,/5 D,,3/16 D,,3/16 z/72 D,,7/36 D,,7/36 D,,55/288 D,,19/96 D,,5/24 D,,3/16 D,,31/144 D,,13/72 D,,19/96 D,,31/160 D,,/5 D,,/5 D,,7/36 
D,,25/126 D,,4/21 D,,19/96 D,,55/288 D,,7/36 D,,5/24 D,,3/16 D,,7/32 D,,17/96 D,,19/96 D,,31/160 D,,/5 D,,/5 D,,/5 D,,17/90 D,,59/288 D,,3/16 D,,3/16 D,,47/224 D,,11/56 D,,11/56 
D,,13/63 D,,13/72 D,,5/24 D,,4/21 D,,25/126 D,,7/36 D,,/5 D,,27/140 D,,45/224 D,,43/224 D,,47/252 D,,13/63 D,,11/56 D,,11/56 D,,47/224 D,,41/224 D,,17/84 D,,4/21 D,,23/112 D,,3/16 D,,/5 
D,,27/140 D,,45/224 D,,43/224 D,,3/14 D,,5/28 D,,53/252 D,,23/126 D,,13/63 D,,47/252 D,,17/84 D,,4/21 D,,23/112 D,,3/16 D,,5/24 D,,31/168 D,,29/140 G,,,23/120 G,,,5/24 G,,,5/28 G,,,3/14 G,,,5/28 
G,,,47/224 G,,,3/16 G,,,19/96 G,,,7/36 G,,,29/144 G,,,3/16 G,,,5/24 G,,,23/120 G,,,/5 G,,,23/120 G,,,5/24 G,,,3/16 G,,,29/144 G,,,7/36 G,,,19/96 G,,,3/16 G,,,47/224 G,,,5/28 G,,,3/14 G,,,5/28 G,,,5/24 
G,,,23/120 G,,,29/140 G,,,31/168 G,,,5/24 G,,,3/16 G,,,23/112 G,,,4/21 G,,,17/84 G,,,47/252 G,,,13/63 G,,,23/126 G,,,53/252 G,,,5/28 G,,,3/14 G,,,43/224 G,,,45/224 G,,,27/140 G,,,/5 G,,,3/16 G,,,23/112 G,,,4/21 
G,,,17/84 G,,,41/224 G,,,47/224 G,,,11/56 G,,,11/56 G,,,13/63 G,,,47/252 G,,,43/224 G,,,45/224 G,,,27/140 G,,,/5 G,,,7/36 G,,,25/126 G,,,4/21 G,,,5/24 G,,,13/72 G,,,13/63 G,,,11/56 G,,,11/56 G,,,47/224 G,,,3/16 
G,,,3/16 G,,,59/288 G,,,17/90 G,,,/5 G,,,/5 G,,,/5 G,,,31/160 G,,,19/96 G,,,17/96 G,,,7/32 G,,,3/16 G,,,5/24 G,,,7/36 G,,,55/288 G,,,19/96 G,,,4/21 G,,,25/126 G,,,7/36 G,,,/5 G,,,/5 G,,,31/160 
G,,,19/96 G,,,13/72 G,,,31/144 G,,,3/16 G,,,5/24 G,,,19/96 G,,,55/288 G,,,7/36 [z7/36G,,,5/24] G,,,29/144 G,,,3/16 G,,,/5 G,,,33/160 G,,,3/16 G,,,33/160 G,,,/5 G,,,3/16 G,,,3/16 z/72 G,,,7/36 G,,,7/36 G,,,55/288 
G,,,19/96 G,,,5/24 G,,,3/16 G,,,31/144 G,,,13/72 G,,,19/96 G,,,31/160 G,,,/5 G,,,/5 G,,,7/36 G,,,25/126 G,,,4/21 G,,,19/96 G,,,55/288 G,,,7/36 G,,,5/24 G,,,3/16 G,,,7/32 D,,17/96 D,,19/96 D,,31/160 
D,,/5 D,,/5 D,,/5 D,,17/90 D,,59/288 D,,3/16 D,,3/16 D,,47/224 D,,11/56 D,,11/56 D,,13/63 D,,13/72 D,,5/24 D,,4/21 D,,25/126 D,,7/36 D,,/5 D,,27/140 D,,45/224 D,,43/224 D,,47/252 
D,,13/63 D,,11/56 D,,11/56 D,,47/224 D,,41/224 D,,17/84 D,,4/21 D,,23/112 D,,3/16 D,,/5 D,,27/140 D,,45/224 D,,43/224 D,,3/14 D,,5/28 D,,53/252 D,,23/126 D,,13/63 D,,47/252 D,,17/84 D,,4/21 
D,,23/112 D,,3/16 D,,5/24 D,,31/168 D,,29/140 D,,23/120 D,,5/24 D,,5/28 D,,3/14 D,,5/28 D,,47/224 D,,3/16 D,,19/96 D,,7/36 D,,29/144 D,,3/16 D,,5/24 D,,23/120 D,,/5 D,,23/120 D,,5/24 
D,,3/16 D,,29/144 D,,7/36 D,,19/96 D,,3/16 D,,47/224 D,,5/28 D,,3/14 D,,5/28 D,,5/24 D,,23/120 D,,29/140 D,,31/168 D,,5/24 D,,3/16 D,,23/112 D,,4/21 D,,17/84 D,,47/252 D,,13/63 D,,23/126 
D,,53/252 D,,5/28 D,,3/14 D,,43/224 D,,45/224 D,,27/140 D,,/5 D,,3/16 D,,23/112 D,,4/21 D,,17/84 D,,41/224 D,,47/224 D,,11/56 D,,11/56 D,,13/63 D,,47/252 D,,43/224 D,,45/224 D,,27/140 D,,/5 
D,,7/36 D,,25/126 D,,4/21 D,,5/24 D,,13/72 D,,13/63 D,,11/56 D,,11/56 D,,47/224 D,,3/16 D,,3/16 D,,59/288 D,,17/90 D,,/5 D,,/5 D,,/5 D,,31/160 D,,19/96 D,,17/96 D,,7/32 B,,,3/16 
B,,,5/24 B,,,7/36 B,,,55/288 B,,,19/96 B,,,4/21 B,,,25/126 B,,,7/36 B,,,/5 B,,,/5 B,,,31/160 B,,,19/96 B,,,13/72 B,,,31/144 B,,,3/16 B,,,5/24 B,,,19/96 B,,,55/288 B,,,7/36 [z7/36B,,,5/24] B,,,29/144 B,,,3/16 
B,,,/5 B,,,33/160 B,,,3/16 B,,,33/160 B,,,/5 B,,,3/16 B,,,3/16 z/72 B,,,7/36 B,,,7/36 B,,,55/288 C,,19/96 C,,5/24 C,,3/16 C,,31/144 C,,13/72 C,,19/96 C,,31/160 C,,/5 C,,/5 C,,7/36 C,,25/126 
C,,4/21 C,,19/96 C,,55/288 C,,7/36 C,,5/24 D,,3/16 D,,7/32 D,,17/96 D,,19/96 D,,31/160 D,,/5 D,,/5 D,,/5 D,,17/90 D,,59/288 D,,3/16 D,,3/16 D,,47/224 D,,11/56 D,,11/56 D,,13/63 
D,,13/72 D,,5/24 D,,4/21 D,,25/126 D,,7/36 D,,/5 D,,27/140 D,,45/224 D,,43/224 D,,47/252 D,,13/63 D,,11/56 D,,11/56 D,,47/224 D,,41/224 D,,17/84 D,,4/21 D,,23/112 D,,3/16 D,,/5 D,,27/140 
D,,45/224 D,,43/224 D,,3/14 D,,5/28 D,,53/252 D,,23/126 D,,13/63 D,,47/252 D,,17/84 D,,4/21 D,,23/112 D,,3/16 D,,5/24 D,,31/168 D,,29/140 D,,23/120 D,,5/24 D,,5/28 D,,3/14 D,,5/28 D,,47/224 
D,,3/16 D,,19/96 D,,7/36 D,,29/144 D,,3/16 D,,5/24 G,,,23/120 G,,,/5 G,,,23/120 G,,,5/24 G,,,3/16 G,,,29/144 G,,,7/36 G,,,19/96 G,,,3/16 G,,,47/224 G,,,5/28 G,,,3/14 G,,,5/28 G,,,5/24 G,,,23/120 
G,,,29/140 D,,31/168 D,,5/24 D,,3/16 D,,23/112 D,,4/21 D,,17/84 D,,47/252 D,,13/63 D,,23/126 D,,53/252 D,,5/28 D,,3/14 D,,43/224 D,,45/224 D,,27/140 D,,/5 D,,3/16 D,,23/112 D,,4/21 D,,17/84 
D,,41/224 D,,47/224 D,,11/56 D,,11/56 D,,13/63 D,,47/252 D,,43/224 D,,45/224 D,,27/140 D,,/5 D,,7/36 D,,25/126 D,,4/21 D,,5/24 D,,13/72 D,,13/63 D,,11/56 D,,11/56 D,,47/224 D,,3/16 D,,3/16 
D,,59/288 D,,17/90 D,,/5 D,,/5 D,,/5 D,,31/160 D,,19/96 G,,,17/96 G,,,7/32 G,,,3/16 G,,,5/24 G,,,7/36 G,,,55/288 G,,,19/96 G,,,4/21 G,,,25/126 G,,,7/36 G,,,/5 G,,,/5 G,,,31/160 G,,,19/96 
G,,,13/72 G,,,31/144 D,,3/16 D,,5/24 D,,19/96 D,,55/288 D,,7/36 [z7/36D,,5/24] D,,29/144 D,,3/16 D,,/5 D,,33/160 D,,3/16 D,,33/160 D,,/5 D,,3/16 D,,3/16 z/72 D,,7/36 D,,7/36 D,,55/288 D,,19/96 
D,,5/24 D,,3/16 D,,31/144 D,,13/72 D,,19/96 D,,31/160 D,,/5 D,,/5 D,,7/36 D,,25/126 D,,4/21 D,,19/96 D,,55/288 D,,7/36 D,,5/24 D,,3/16 D,,7/32 D,,17/96 D,,19/96 D,,31/160 D,,/5 
D,,/5 D,,/5 D,,17/90 D,,59/288 D,,3/16 D,,3/16 D,,47/224 D,,11/56 D,,11/56 D,,13/63 D,,13/72 D,,5/24 D,,4/21 D,,25/126 D,,7/36 D,,/5 D,,27/140 D,,45/224 D,,43/224 D,,47/252 D,,13/63 
D,,11/56 D,,11/56 D,,47/224 D,,41/224 D,,17/84 D,,4/21 D,,23/112 D,,3/16 D,,/5 D,,27/140 D,,45/224 D,,43/224 D,,3/14 D,,5/28 D,,53/252 D,,23/126 D,,13/63 D,,47/252 D,,17/84 D,,4/21 D,,23/112 
D,,3/16 D,,5/24 D,,31/168 D,,29/140 D,,23/120 D,,5/24 D,,5/28 D,,3/14 D,,5/28 D,,47/224 D,,3/16 D,,19/96 D,,7/36 D,,29/144 D,,3/16 D,,5/24 D,,23/120 D,,/5 D,,23/120 D,,5/24 D,,3/16 
D,,29/144 D,,7/36 D,,19/96 D,,3/16 D,,47/224 D,,5/28 D,,3/14 D,,5/28 D,,5/24 D,,23/120 D,,29/140 D,,31/168 D,,5/24 D,,3/16 D,,23/112 D,,4/21 D,,17/84 D,,47/252 D,,13/63 D,,23/126 D,,53/252 
D,,5/28 D,,3/14 D,,43/224 D,,45/224 D,,27/140 D,,/5 D,,3/16 D,,23/112 D,,4/21 D,,17/84 D,,41/224 D,,47/224 D,,11/56 D,,11/56 D,,13/63 D,,47/252 D,,43/224 D,,45/224 D,,27/140 D,,/5 D,,7/36 
D,,25/126 D,,4/21 D,,5/24 D,,13/72 D,,13/63 D,,11/56 D,,11/56 D,,47/224 D,,3/16 D,,3/16 D,,59/288 D,,17/90 D,,/5 D,,/5 D,,/5 D,,31/160 D,,19/96 D,,17/96 D,,7/32 D,,3/16 D,,5/24 
D,,7/36 D,,55/288 D,,19/96 D,,4/21 D,,25/126 D,,7/36 D,,/5 D,,/5 D,,31/160 D,,19/96 D,,13/72 D,,31/144 D,,3/16 D,,5/24 D,,19/96 D,,55/288 D,,7/36 [z7/36D,,5/24] D,,29/144 D,,3/16 D,,/5 
D,,33/160 D,,3/16 D,,33/160 D,,/5 D,,3/16 D,,3/16 z/72 D,,7/36 D,,7/36 D,,55/288 D,,19/96 D,,5/24 D,,3/16 D,,31/144 D,,13/72 D,,19/96 D,,31/160 D,,/5 D,,/5 D,,7/36 D,,25/126 D,,4/21 
D,,19/96 D,,55/288 D,,7/36 D,,5/24 D,,3/16 D,,7/32 D,,17/96 D,,19/96 D,,31/160 D,,/5 D,,/5 D,,/5 D,,17/90 D,,59/288 D,,3/16 D,,3/16 D,,47/224 D,,11/56 D,,11/56 D,,13/63 D,,13/72 
D,,5/24 D,,4/21 D,,25/126 D,,7/36 D,,/5 D,,27/140 D,,45/224 D,,43/224 D,,47/252 D,,13/63 D,,11/56 D,,11/56 D,,47/224 D,,41/224 D,,17/84 D,,4/21 D,,23/112 D,,3/16 D,,/5 D,,27/140 D,,45/224 
D,,43/224 D,,3/14 D,,5/28 D,,53/252 D,,23/126 D,,13/63 G,,,47/252 G,,,17/84 G,,,4/21 G,,,23/112 G,,,3/16 G,,,5/24 G,,,31/168 G,,,29/140 G,,,23/120 G,,,5/24 G,,,5/28 G,,,3/14 G,,,5/28 G,,,47/224 G,,,3/16 
G,,,19/96 G,,,7/36 G,,,29/144 G,,,3/16 G,,,5/24 G,,,23/120 G,,,/5 G,,,23/120 G,,,5/24 G,,,3/16 G,,,29/144 G,,,7/36 G,,,19/96 G,,,3/16 G,,,47/224 G,,,5/28 G,,,3/14 G,,,5/28 G,,,5/24 G,,,23/120 G,,,29/140 
G,,,31/168 G,,,5/24 G,,,3/16 G,,,23/112 G,,,4/21 G,,,17/84 G,,,47/252 G,,,13/63 G,,,23/126 G,,,53/252 G,,,5/28 G,,,3/14 G,,,43/224 G,,,45/224 G,,,27/140 G,,,/5 G,,,3/16 G,,,23/112 G,,,4/21 G,,,17/84 G,,,41/224 
G,,,47/224 G,,,11/56 G,,,11/56 G,,,13/63 G,,,47/252 G,,,43/224 G,,,45/224 G,,,27/140 G,,,/5 G,,,7/36 G,,,25/126 G,,,4/21 G,,,5/24 G,,,13/72 G,,,13/63 G,,,11/56 G,,,11/56 G,,,47/224 G,,,3/16 G,,,3/16 G,,,59/288 
G,,,17/90 G,,,/5 G,,,/5 G,,,/5 G,,,31/160 G,,,19/96 G,,,17/96 G,,,7/32 G,,,3/16 G,,,5/24 G,,,7/36 G,,,55/288 G,,,19/96 G,,,4/21 G,,,25/126 G,,,7/36 G,,,/5 G,,,/5 G,,,31/160 G,,,19/96 G,,,13/72 
G,,,31/144 G,,,3/16 G,,,5/24 G,,,19/96 G,,,55/288 G,,,7/36 [z7/36G,,,5/24] G,,,29/144 G,,,3/16 G,,,/5 G,,,33/160 G,,,3/16 G,,,33/160 G,,,/5 G,,,3/16 G,,,3/16 z/72 G,,,7/36 G,,,7/36 G,,,55/288 G,,,19/96 G,,,5/24 
G,,,3/16 G,,,31/144 G,,,13/72 G,,,19/96 G,,,31/160 G,,,/5 G,,,/5 G,,,7/36 D,,25/126 D,,4/21 D,,19/96 D,,55/288 D,,7/36 D,,5/24 D,,3/16 D,,7/32 D,,17/96 D,,19/96 D,,31/160 D,,/5 D,,/5 
D,,/5 D,,17/90 D,,59/288 D,,3/16 D,,3/16 D,,47/224 D,,11/56 D,,11/56 D,,13/63 D,,13/72 D,,5/24 D,,4/21 D,,25/126 D,,7/36 D,,/5 D,,27/140 D,,45/224 D,,43/224 D,,47/252 D,,13/63 D,,11/56 
D,,11/56 D,,47/224 D,,41/224 D,,17/84 D,,4/21 D,,23/112 D,,3/16 D,,/5 D,,27/140 D,,45/224 D,,43/224 D,,3/14 D,,5/28 D,,53/252 D,,23/126 D,,13/63 D,,47/252 D,,17/84 D,,4/21 D,,23/112 D,,3/16 
D,,5/24 D,,31/168 D,,29/140 D,,23/120 D,,5/24 D,,5/28 D,,3/14 D,,5/28 D,,47/224 D,,3/16 D,,19/96 D,,7/36 D,,29/144 D,,3/16 D,,5/24 D,,23/120 D,,/5 D,,23/120 D,,5/24 D,,3/16 D,,29/144 
D,,7/36 D,,19/96 D,,3/16 D,,47/224 D,,5/28 D,,3/14 D,,5/28 D,,5/24 D,,23/120 D,,29/140 D,,31/168 D,,5/24 D,,3/16 D,,23/112 D,,4/21 D,,17/84 D,,47/252 D,,13/63 D,,23/126 D,,53/252 D,,5/28 
D,,3/14 D,,43/224 D,,45/224 D,,27/140 D,,/5 D,,3/16 D,,23/112 D,,4/21 D,,17/84 D,,41/224 D,,47/224 D,,11/56 D,,11/56 D,,13/63 D,,47/252 D,,43/224 D,,45/224 D,,27/140 D,,/5 D,,7/36 D,,25/126 
D,,4/21 D,,5/24 D,,13/72 D,,13/63 D,,11/56 D,,11/56 D,,47/224 D,,3/16 D,,3/16 D,,59/288 B,,,17/90 B,,,/5 B,,,/5 B,,,/5 B,,,31/160 B,,,19/96 B,,,17/96 B,,,7/32 B,,,3/16 B,,,5/24 B,,,7/36 
B,,,55/288 B,,,19/96 B,,,4/21 B,,,25/126 B,,,7/36 B,,,/5 B,,,/5 B,,,31/160 B,,,19/96 B,,,13/72 B,,,31/144 B,,,3/16 B,,,5/24 B,,,19/96 B,,,55/288 B,,,7/36 [z7/36B,,,5/24] B,,,29/144 B,,,3/16 B,,,/5 B,,,33/160 
C,,3/16 C,,33/160 C,,/5 C,,3/16 C,,3/16 z/72 C,,7/36 C,,7/36 C,,55/288 C,,19/96 C,,5/24 C,,3/16 C,,31/144 C,,13/72 C,,19/96 C,,31/160 C,,/5 D,,/5 D,,7/36 D,,25/126 D,,4/21 D,,19/96 
D,,55/288 D,,7/36 D,,5/24 D,,3/16 D,,7/32 D,,17/96 D,,19/96 D,,31/160 D,,/5 D,,/5 D,,/5 D,,17/90 D,,59/288 D,,3/16 D,,3/16 D,,47/224 D,,11/56 D,,11/56 D,,13/63 D,,13/72 D,,5/24 
D,,4/21 D,,25/126 D,,7/36 D,,/5 D,,27/140 D,,45/224 D,,43/224 D,,47/252 D,,13/63 D,,11/56 D,,11/56 D,,47/224 D,,41/224 D,,17/84 D,,4/21 D,,23/112 D,,3/16 D,,/5 D,,27/140 D,,45/224 D,,43/224 
D,,3/14 D,,5/28 D,,53/252 D,,23/126 D,,13/63 D,,47/252 D,,17/84 D,,4/21 D,,23/112 D,,3/16 D,,5/24 D,,31/168 D,,29/140 D,,23/120 D,,5/24 D,,5/28 D,,3/14 G,,,5/28 G,,,47/224 G,,,3/16 G,,,19/96 
G,,,7/36 G,,,29/144 G,,,3/16 G,,,5/24 G,,,23/120 G,,,/5 G,,,23/120 G,,,5/24 G,,,3/16 G,,,29/144 G,,,7/36 G,,,19/96 D,,3/16 D,,47/224 D,,5/28 D,,3/14 D,,5/28 D,,5/24 D,,23/120 D,,29/140 D,,31/168 
D,,5/24 D,,3/16 D,,23/112 D,,4/21 D,,17/84 D,,47/252 D,,13/63 D,,23/126 D,,53/252 D,,5/28 D,,3/14 D,,43/224 D,,45/224 D,,27/140 D,,/5 D,,3/16 D,,23/112 D,,4/21 D,,17/84 D,,41/224 D,,47/224 
D,,11/56 D,,11/56 D,,13/63 D,,47/252 D,,43/224 D,,45/224 D,,27/140 D,,/5 D,,7/36 D,,25/126 D,,4/21 D,,5/24 D,,13/72 D,,13/63 D,,11/56 D,,11/56 D,,47/224 D,,3/16 G,,,3/16 G,,,59/288 G,,,17/90 
G,,,/5 G,,,/5 G,,,/5 G,,,31/160 G,,,19/96 G,,,17/96 G,,,7/32 G,,,3/16 G,,,5/24 G,,,7/36 G,,,55/288 G,,,19/96 G,,,4/21 
