X: 1
T: Doom E1M9 - Hiding the Secrets (Drum Kit)
Z: ABC Generated by Starbound Composer v0.8.7
L: 1/4
Q: 1/4=95
K: C
[F,,3/32C,,3/32B,,3/32] z33/160 [C,,4/45F,,4/45B,,17/160] z55/252 [F,,13/140B,,17/168C,,25/224] z13/60 [F,,/12B,,/12C,,/12] z2/9 [B,,13/144F,,13/144C,,13/144] z7/32 [F,,23/288C,,3/32B,,3/32] z2/9 [F,,/12C,,/12B,,/9] z19/84 [F,,5/63C,,5/63B,,5/63] z41/180 [F,,11/120C,,11/120B,,/10] z5/24 [C,,3/32F,,3/32B,,3/28] z51/224 [F,,/14C,,/14B,,2/21] z13/56 [C,,3/40F,,/12B,,3/32] z8/35 [F,,25/252C,,25/252B,,3/28] z37/72 
[z/48F,,11/168E,,7/72B,,7/72] A,11/144 z149/288 [^C,/8C,,13/96] z/ [z/96E,,25/224] [^F,,17/168G,/8] z/ [F,,3/28C,,25/168G,11/70] z17/36 [z/36F,,17/126] [E,,3/28G,3/20] z/ [z/56C,,/7] [F,,/8G,/6] z15/32 [z/32E,,41/288F,,5/32] G,/7 z37/84 
[C,,7/60F,,13/96G,/6] z/5 C,,21/160 z27/160 [z/70E,,/10G,11/70] F,,5/42 z/6 C,,/8 z9/56 [z/28C,/7] [z/84C,,23/168F,,/7] G,13/96 z103/224 [z3/140E,,17/140F,,15/112] G,23/160 z43/96 [F,,7/48C,,7/48G,19/120] z37/80 [z/60F,,19/140] [E,,/9G,7/48] z17/36 [z/36F,,/8] [C,,29/252G,37/288] z4/21 
C,,13/96 z31/224 [z/56F,,25/224] [z/72G,/8] E,,/9 z3/16 C,,9/80 z27/160 [z/32F,,/8] [C,,/8G,/7] z3/16 C,,13/112 z23/126 [z/72F,,/9E,,/9] G,/8 z/6 C,,2/15 z27/160 [z/288A,/8] C,,53/288 z41/96 [F,,5/48G,/8E,,13/96] z73/144 [z/72F,,7/72] [C,,19/168G,/8] z5/28 C,,/7 z11/70 [z/80F,,/10] [z/112G,11/80] E,,3/28 z/ 
[z/112C,,13/84] [F,,9/80G,15/112] z/ [z3/140E,,9/70] [F,,19/224G,31/252] z49/96 [z/84C,,11/96] [z/112F,,23/224] G,9/80 z27/160 C,,/8 z3/16 [z/96E,,3/32F,,25/224] G,11/96 z17/96 C,,7/60 z11/70 [z/28C,43/252] [F,,3/28G,17/126C,,11/70] z/ [F,,3/28E,,5/36G,/7] z/ [z/56C,,25/224] [F,,3/32G,/8] z19/96 C,,2/15 z27/160 
[F,,11/96E,,31/224G,31/224] z17/84 C,,10/63 z43/288 [F,,3/32G,27/224] z7/32 C,,/8 z17/96 [F,,5/48E,,/8G,/8] z3/16 C,,/7 z19/112 [z/112F,,5/48] [E,,13/112G,13/112] z3/16 C,,/8 z5/28 [z/63F,,23/224G,,23/224E,,/7] G,7/72 z5/96 =F,,/16 z3/32 C,,3/28 z39/224 [z3/160C,19/160] C,,19/120 z11/24 [z/84E,,11/96G,/8] ^F,,23/224 z143/288 
[F,,5/63C,,/9G,11/90] z53/224 C,,17/160 z17/90 [z/252F,,23/288G,/9] E,,3/28 z/ [F,,/9G,/8C,,/7] z/ [z/72E,,5/36] [F,,3/32G,/8] z145/288 [C,,23/180F,,23/180G,17/126] z23/120 C,,/8 z17/96 [z3/224E,,29/288] [F,,17/168G,/7] z19/96 C,,3/32 z5/24 [z/96F,,5/48C,,13/96] [G,3/32A,11/96] z25/48 
[F,,2/21E,,5/48G,11/84] z57/112 [z/80C,,9/80G,15/112] F,,/10 z/5 C,,/8 z7/40 [z/80E,,7/60F,,7/60] G,/8 z23/48 [E,,/12F,,11/96G,5/36] z2/9 E,,/9 z19/96 [F,,3/32C,,25/224G,13/96] z7/32 E,,29/288 z25/126 [F,,5/63G,3/28E,,3/28] z41/180 C,,9/80 z3/16 [z/36=F,,/12G,,/12E,,3/28] [^F,,5/63G,7/72] z3/14 C,,3/28 z5/28 
[z/56C,25/224] C,,/12 z37/168 C,,15/112 z5/32 [z/32F,,39/224] [G,/5E,,3/14] z11/120 C,,7/72 z59/288 [z3/224C,,37/288] [F,,/7G,43/252] z5/32 E,,13/96 z29/168 [C,,11/112F,,/7G,17/84] z7/32 C,,25/224 z4/21 [F,,19/96G,17/84] z25/224 C,,3/28 z3/16 [z/80E,,/8] [z/120F,,29/180] G,5/24 z/12 C,,3/28 z25/126 [z/63C,,29/288] [z/84G,5/28] F,,5/36 z17/126 
C,,/7 z5/28 [z/112E,,15/112G,11/56] F,,7/48 z13/96 C,,11/96 z19/96 [z/96C,,25/224C,25/224G,3/16] F,,19/120 z2/15 C,,5/36 z8/45 [z/160E,,21/160] [F,,43/288G,59/288] z13/90 C,,/10 z/5 [z/32C,,/7G,3/16] F,,5/32 z15/112 E,,31/252 z13/72 [z/56C,,7/72] [F,,25/168G,5/28] z23/168 [A,23/224C,,17/140] z55/288 [F,,11/72G,53/288] z/6 C,,7/48 z13/80 [z/140E,,19/160] 
[F,,/7G,31/168] z/6 C,,2/15 z23/140 [z/224E,,9/56] [F,,21/160G,39/224] z8/45 C,,37/288 z17/96 [z/42=F,,/12G,,/12E,,/6] [z/252G,43/252] ^F,,/9 z/6 C,,/9 z3/16 [z5/144C,,9/80] C,25/252 z5/28 C,,/8 z3/16 [F,19/144E,,7/48] z/6 C,,13/126 z17/84 [z/84F,/6] C,,/7 z19/126 E,,11/72 z9/56 [z5/252C,,3/28] F,17/72 z/24 C,,/6 z/6 
F,5/18 z/72 C,,17/120 z3/20 [z/36E,,/6] F,49/180 z3/140 C,,3/28 z25/252 F,/18 z/24 [C,,3/32F,/8] z47/224 C,,15/112 z3/16 [E,,/8F,/7] z7/40 C,,/10 z/5 [z/90C,,4/35] F,2/9 z/12 C,,2/15 z27/160 [E,,5/32F,55/224] z5/32 C,,25/224 z4/21 [F,/8C,,/6] z31/168 [F,3/28E,,11/70] z7/36 
[C,,7/72F,35/144] z5/24 C,,/7 z11/70 F,41/180 z5/63 C,,/7 z/6 [z/84E,,/6] F,51/224 z/16 C,,41/288 z11/63 [E,,5/56F,41/224] z5/72 E,,8/63 z5/224 C,,17/160 z33/160 [E,,23/160F,17/96] z9/20 [A,/7C,,/5] z59/126 [z/72F,,31/288] [G,/8E,,/8] z17/36 
[z/36F,,/9] [C,,3/28G,3/28] z27/140 C,,11/80 z5/32 [z3/224F,,29/288] [E,,3/28G,25/224] z113/224 [F,,11/96G,31/224C,,41/288] z49/96 [z5/288E,,37/288] [F,,4/45G,/9] z/ [z3/160C,,17/140] [F,,23/224G,/8] z5/28 C,,/7 z19/112 [z/112E,,5/48F,,5/48] G,9/70 z29/180 C,,/9 z8/45 [z/60C,17/120] [F,,5/42G,5/36C,,/6] z85/168 
[z/120F,,13/120E,,/8] G,9/70 z107/224 [C,,35/288F,,35/288G,13/96] z13/72 C,,/8 z7/36 [F,,7/72E,,/9G,/9] z5/24 C,,5/36 z11/72 [z/72F,,3/32] G,/9 z3/16 C,,15/112 z5/28 [F,,3/32E,,/9G,/9] z33/160 C,,9/70 z37/224 [z3/224F,,17/160] [E,,29/252G,29/252] z7/36 C,,/8 z13/72 [F,,13/144G,/9E,,23/180] z7/32 C,,25/224 z5/28 
[z5/224C,31/252] C,,5/32 z9/20 [z/120E,,17/140] [z/96G,/8] F,,3/32 z71/144 [z/63F,,29/288] [C,,3/28G,13/112] z11/56 C,,/8 z/6 [z/84F,,/9G,2/15] E,,3/28 z85/168 [F,,17/168G,/8C,,23/168] z115/224 [z/96F,,3/32E,,/8] G,/8 z47/96 [C,,3/32F,,3/32G,19/160] z5/24 
C,,/9 z25/126 [E,,5/63F,,5/63G,31/224] z31/144 C,,9/80 z/5 [G,/36F,,3/28A,3/28C,,/8] G,19/288 z115/224 [z/56E,,25/224] [F,,3/32G,/8] z111/224 [z/224G,19/140] [C,,/8F,,/8] z3/16 C,,/8 z3/16 [E,,17/160F,,17/160G,37/288] z/ [z/70E,,/10] [F,,11/112G,5/42] z3/16 E,,/8 z11/56 [F,,19/224C,,2/21G,31/252] z7/32 
E,,7/72 z13/63 [F,,23/224E,,19/168G,17/140] z7/32 C,,3/32 z19/96 [z/72E,,11/96] [F,,11/126G,/9] z29/140 C,,13/120 z5/24 [z/84C,,/12] ^D,25/252 z47/252 C,,5/42 z7/36 [z/288E,,19/126] D,3/32 z5/24 C,,2/21 z11/56 [z/72D,3/32] C,,/9 z3/16 C,,/8 z3/16 [D,/8E,,/7] z3/16 C,,13/112 z3/14 
D,5/63 z13/63 C,,19/168 z13/72 [z/36E,,17/126] D,3/28 z5/28 C,,3/28 z4/21 [z/60C,,5/48] D,/10 z/5 C,,/10 z5/24 [D,19/168E,,17/120] z5/28 C,,3/28 z3/14 [C,,2/21F,3/28] z5/24 C,,/8 z5/28 [z11/252E,,17/140] F,7/90 z/5 C,,/9 z2/9 F,2/21 z6/35 C,,11/90 z7/36 
[z/84E,,11/96] F,23/224 z3/16 E,,23/224 z47/224 [F,3/32E,,25/224] z5/24 E,,13/96 z39/224 [z/140C,,17/126] F,/10 z7/36 E,,/9 z/6 [z/36F,23/180] E,,/6 z7/48 C,,7/48 z25/168 E,,31/168 z23/168 C,,15/112 z5/32 [z/32A,11/96] D,/12 z17/84 C,,4/35 z31/160 [z5/288C,19/224E,,27/224] D,4/45 z33/160 E,,23/160 z19/120 
[C,,5/48D,5/48] z3/16 C,,/7 z19/112 [z/112D,13/112] E,,23/168 z/6 C,,/8 z/6 D,11/96 z7/32 C,,5/36 z29/180 [z/80E,,9/70] D,13/112 z5/28 E,,39/224 z13/96 [D,/9C,,11/96] z55/288 C,,11/96 z7/36 [z/126E,,11/90] D,5/56 z7/32 E,,37/288 z/6 [z/252D,/9] C,,3/14 z11/28 
[D,/9E,,/7] z/ [z/72C,,7/72] D,7/72 z7/36 C,,5/42 z47/252 [z/36E,,17/126] D,/12 z5/24 C,,/8 z17/96 D,29/288 z61/288 C,,23/160 z19/120 [D,5/48E,,25/168] z57/112 [z/84D,19/224] E,,7/96 z19/288 E,,23/180 z7/180 C,,23/288 z47/224 [z/112D,25/252] E,,11/112 z3/14 
E,,/9 z/6 [z/72A,7/72] [z/120D,7/72] C,,7/60 z47/96 [z/96D,3/32] E,,5/42 z111/224 [D,17/224C,,23/288] z53/224 C,,29/288 z25/126 [D,3/28E,,25/168] z/5 C,,9/80 z31/144 D,5/63 z3/14 C,,13/112 z3/16 [z/56E,,5/32] D,3/28 z5/28 C,,17/140 z/5 
[D,/10E,,/7] z23/120 C,,19/120 z23/160 [z3/224E,,37/288] D,17/168 z19/96 C,,3/32 z3/16 [z/80C,5/48] D,/10 z37/160 C,,19/160 z6/35 [z/84D,2/21] E,,11/84 z5/28 C,,5/63 z13/63 [z/112D,19/168] C,,5/48 z5/24 C,,3/28 z25/126 [D,29/288E,,10/63] z45/224 C,,/7 z3/20 D,/10 z7/32 C,,21/160 z3/20 
[z/32D,3/28] E,,13/96 z29/60 [E,,/10D,/10] z/18 E,,/9 z/30 C,,3/20 z3/20 [D,3/32E,,3/28] z51/224 E,,31/252 z/6 [z/72A,13/126] [C,,7/72F,,7/72G,7/72] z13/63 C,,17/140 z31/180 [z/36C,13/144] [F,,3/28E,,3/28G,/8] z31/168 C,,17/168 z29/140 [z/140C,,3/20] [F,,25/224G,/7] z19/96 E,,2/15 z23/140 [z/28C,,5/42] [F,,/10G,/10] z8/45 
C,,29/252 z45/224 [z3/224G,3/32] F,,25/224 z49/288 C,,41/288 z5/32 [z5/144E,,7/48] [G,13/144F,,25/252] z3/16 C,,/8 z3/16 [z/32F,,3/32E,,7/48] G,7/96 z7/36 C,,5/36 z5/28 [z/112E,,/7] [z/80G,3/32] F,,11/120 z13/72 C,,35/288 z5/32 [z/28C,3/32] [z/168F,,5/56C,,3/28] G,/12 z9/40 C,,/10 z/5 [G,/10F,,/10E,,23/180] z5/24 C,,7/72 z7/36 [z/36C,,3/28] 
[z/288F,,5/63] G,3/32 z11/56 E,,5/28 z/8 [z/72G,3/32C,,/8] F,,23/288 z47/224 E,,11/56 z/8 [G,3/32F,,3/28C,,/7] z33/160 E,,/5 z/10 [z/90C,,23/120] [z/72G,13/126] F,,5/56 z17/84 E,,/4 z5/96 [z/288C,,5/32] [F,,25/252G,25/252] z47/224 E,,41/224 z5/42 [F,,5/48G,5/48C,,19/96] z23/112 E,,45/224 z29/288 [A,8/63C,,25/126] z67/140 
[z/80F,,/10] [G,13/112E,,/8] z107/224 [z5/224F,,3/32] [C,,23/224G,19/168] z3/16 C,,41/288 z/6 [z/126F,,7/72] [E,,4/35G,27/224] z81/160 [z/96G,13/96C,,23/160] F,,11/96 z15/32 [z/28E,,/7] [z/168F,,3/28] G,/8 z11/24 [z/40C,,/8] [F,,/10G,23/180] z5/28 C,,8/63 z7/36 [E,,/10F,,/10G,5/36] z/5 
C,,7/60 z/6 [z/42C,13/96] [F,,17/168G,/7C,,/7] z49/96 [F,,11/96E,,/8G,31/224] z49/96 [C,,17/160F,,17/160G,37/288] z27/140 C,,31/224 z27/160 [z/120E,,17/140] [F,,5/48G,19/168] z3/16 C,,5/32 z23/160 [z/80F,,7/60] G,/8 z25/144 C,,5/36 z/6 [z/84F,,11/96] [E,,19/168G,19/168] z13/72 C,,17/126 z39/224 [z/96F,,3/32] [E,,13/120G,/8] z31/160 
C,,/8 z39/224 [z3/224F,,3/28] [G,,3/32G,3/32E,,/8] z/20 =F,,4/45 z5/72 C,,19/168 z5/28 [z/36C,/8] C,,5/36 z17/36 [z/252E,,/9] [^F,,3/28G,31/224] z/ [F,,3/32C,,/9G,/9] z33/160 C,,9/70 z37/224 [z3/224F,,11/96G,37/288] E,,25/224 z145/288 [F,,25/252G,/9C,,17/126] z117/224 
[z3/224F,,29/288E,,11/96] G,25/224 z77/160 [C,,9/80F,,9/80G,2/15] z31/144 C,,7/72 z11/56 [z/84E,,19/224F,,2/21] G,11/84 z9/56 C,,3/32 z47/224 [z/112F,,3/28C,,15/112] [G,/80A,9/80] G,7/90 z37/72 [z/120E,,/8] [F,,17/160G,9/70] z79/160 [z/160G,19/140] [C,,3/32F,,/8] z3/14 C,,5/42 z19/96 [E,,3/32F,,3/32G,13/96] z29/56 
[E,,5/63F,,3/28G,17/126] z31/144 E,,9/80 z/5 [F,,3/32C,,3/28G,/8] z61/288 E,,29/288 z31/160 [z/140F,,/10] [E,,25/224G,25/224] z47/224 C,,25/252 z55/288 [=F,,7/96G,,7/96^F,,11/96E,,/8G,21/160] z23/96 C,,25/224 z5/28 [z5/224C,9/70] C,,3/32 z17/80 C,,19/140 z23/140 [z/45F,,11/70E,,8/35] G,7/36 z11/96 C,,17/224 z3/14 [z/84C,,23/168G,5/28] F,,11/84 z9/56 E,,/8 z5/28 
[z/112C,,23/224G,11/56] F,,7/48 z/6 C,,3/28 z31/168 [z/72G,5/24] F,,/6 z23/180 C,,19/160 z19/96 [z/84E,,5/42] [F,,37/224G,11/56] z27/224 C,,3/28 z13/63 [z/288C,,7/72] [z/96G,3/16] F,,19/120 z2/15 C,,/8 z13/72 [z/90E,,37/252] [F,,7/45G,31/160] z19/144 C,,5/48 z5/24 [C,,3/28C,/8F,,/6G,3/16] z23/112 C,,19/144 z/6 [z/72E,,5/36] [F,,11/72G,5/24] z19/126 
C,,23/224 z55/288 [z/36C,,17/126G,53/288] F,,5/32 z29/224 E,,11/84 z11/60 [z/140C,,/10] [F,,/7G,27/140] z3/20 [A,/10C,,23/180] z5/24 [F,,17/120G,31/168] z3/20 C,,5/32 z37/224 [E,,9/70F,,33/224G,5/28] z7/40 C,,5/32 z33/224 [z/112E,,6/35] [F,,15/112G,19/112] z5/28 C,,/8 z7/40 [z/30=F,,3/40G,,4/45E,,23/140] [^F,,/9G,/6] z7/45 C,,4/35 z17/84 [z/30C,,11/96] 
C,11/120 z17/96 C,,/8 z3/16 [z/224E,,33/224] F,11/84 z/6 C,,2/21 z3/14 [C,,/7F,11/70] z10/63 E,,43/288 z5/32 [z/36C,,/10] F,73/288 z/32 C,,7/48 z/6 F,7/24 z/84 C,,/7 z33/224 [E,,5/32F,89/288] z9/56 C,,13/126 z23/288 F,7/96 z5/96 [z/160F,27/224] C,,7/80 z7/32 C,,/8 z17/96 
[z/96E,,13/96] F,31/224 z/7 C,,/9 z53/252 [C,,3/28F,27/112] z11/56 C,,11/72 z19/126 [z/63E,,37/224] F,59/252 z/14 C,,/10 z/5 [z/80C,,27/160] F,13/112 z5/28 [F,3/28E,,/7] z17/84 [C,,/9F,/4] z55/288 C,,31/224 z43/252 F,2/9 z3/32 C,,27/224 z5/28 [z3/224E,,19/112] F,59/288 z4/45 C,,2/15 z/6 
[E,,/10F,/5] z9/160 E,,13/96 z/48 C,,13/112 z23/126 [E,,/6F,17/90] z4/9 [A,23/180C,,7/36] z79/160 [F,,29/288G,27/224E,,/8] z91/180 [z/120F,,/10] [C,,19/168G,/8] z13/63 C,,11/90 z7/45 [z/63F,,29/288] [z/84G,9/70] E,,2/21 z57/112 [z/80C,,5/32] [z/120G,2/15] F,,5/48 z39/80 
[z3/140E,,11/80] [F,,3/28G,9/70] z41/84 [z/84C,,5/42] [z/63F,,3/28] G,/9 z/6 C,,23/180 z29/160 [z3/160E,,3/32F,,25/224] G,9/70 z37/224 C,,11/96 z11/72 [z2/63C,/6] [F,,3/28G,31/224C,,11/70] z19/36 [F,,5/63E,,/9G,11/90] z29/56 [z/72C,,3/32] [F,,23/288G,/9] z7/32 C,,/8 z3/16 [F,,3/32E,,/9G,/9] z19/96 C,,19/120 z23/160 
[F,,17/160G,/8] z33/160 C,,29/224 z5/28 [F,,11/112E,,5/42G,5/42] z7/32 C,,25/224 z5/28 [z/84F,,2/21] [E,,/9G,/8] z25/126 C,,3/28 z3/16 [z/80F,,3/32E,,15/112] G,/10 z/5 C,,3/28 z5/28 [z5/252C,27/224] C,,10/63 z13/28 [z/112E,,3/28G,17/140] F,,11/112 z111/224 [z/96F,,3/32C,,/8] G,11/96 z3/16 
C,,11/96 z13/72 [z/90F,,/9G,/9] E,,/10 z17/32 [F,,23/288G,3/32C,,25/224] z37/72 [z/56E,,/8] [F,,5/63G,3/28] z19/36 [C,,3/28F,,3/28G,3/28] z31/168 C,,/8 z11/60 [z/140E,,/10] [z/56F,,17/168] G,/8 z/6 C,,/9 z47/252 [z/224F,,3/28C,,19/140] [G,23/224A,/8] z43/84 [F,,5/48E,,/8G,13/96] z/ 
[z/80C,,9/80G,15/112] F,,/10 z/5 C,,/8 z3/16 [z/112E,,5/48F,,5/48] G,31/252 z61/126 [E,,23/224F,,23/224G,15/112] z55/288 E,,35/288 z43/224 [z/168C,,3/28] [F,,17/168G,/8] z29/140 E,,/10 z27/140 [z/140F,,3/28G,17/126] E,,23/180 z13/72 C,,19/168 z13/63 [F,,5/63E,,7/72G,/9] z3/14 C,,13/112 z3/16 [z/72C,,3/32] D,/9 z5/28 C,,19/168 z5/24 
[D,3/32E,,/7] z33/160 C,,4/45 z59/288 [z/160D,3/32] C,,/10 z13/60 C,,/8 z17/96 [D,11/96E,,31/224] z19/96 C,,25/224 z29/140 D,/10 z27/140 C,,17/126 z/6 [z5/252E,,5/36] D,5/42 z/6 C,,/10 z17/80 [z/112C,,7/80] D,3/28 z5/28 C,,25/224 z47/224 [D,19/168E,,15/112] z17/96 C,,23/224 z3/14 
[z/70C,,13/126] F,4/45 z19/90 C,,4/35 z43/224 [z/32E,,/8] F,3/32 z17/96 C,,/8 z2/9 F,11/126 z5/28 C,,9/70 z7/40 [z/40E,,/8] F,/10 z5/28 E,,19/168 z5/24 [F,/10E,,3/28] z/5 E,,3/20 z11/70 [F,3/28C,,/7] z17/84 E,,11/96 z17/96 [z/96F,5/48] E,,39/224 z17/126 C,,5/36 z17/96 
E,,5/32 z/7 C,,31/224 z17/96 [A,11/120D,5/48] z/5 C,,/8 z3/16 [z/112C,9/112E,,/8] D,2/21 z7/36 E,,/6 z19/126 [C,,23/224D,3/28] z55/288 C,,11/72 z/6 [D,17/168E,,7/48] z3/14 C,,25/224 z39/224 D,5/63 z17/72 C,,25/168 z43/252 [z/126E,,/9] D,13/126 z7/36 E,,5/36 z/6 
[z/252C,,/9] D,3/28 z3/16 C,,/8 z3/16 [D,/10E,,/8] z/5 E,,3/20 z11/70 [D,17/168C,,19/84] z37/72 [D,25/252E,,17/126] z117/224 [z3/224C,,19/224] D,17/168 z31/168 C,,3/28 z/5 [z/120E,,17/140] D,5/48 z31/144 C,,7/72 z13/72 D,29/288 z7/32 C,,5/32 z5/32 
[D,13/144E,,15/112] z145/288 [z/96D,3/32] E,,/12 z3/40 E,,9/80 z/32 C,,17/160 z17/90 [z5/288D,/9] E,,3/32 z3/14 E,,3/28 z33/224 [z/16A,11/96] [D,17/224C,,3/32] z29/56 [z/56D,7/72] E,,3/28 z17/36 [z/36D,25/252] C,,3/32 z61/288 C,,/9 z4/21 [z/56E,,/7] D,/12 z37/168 C,,25/252 z2/9 
D,/12 z19/96 C,,/8 z3/16 [z3/224E,,37/288] D,17/168 z23/120 C,,21/160 z27/160 [z/70E,,11/70] D,11/112 z7/32 C,,33/224 z/7 [z/84E,,23/168] D,2/21 z11/56 C,,7/72 z7/36 [C,/12D,11/96] z/4 C,,3/28 z31/168 [D,17/168E,,23/168] z29/140 C,,/10 z/5 [z/60D,/10] C,,/12 z3/14 C,,29/224 z53/288 
[z/288E,,19/126] D,3/32 z5/24 C,,13/96 z5/32 D,5/56 z25/112 C,,/8 z5/32 [z/32D,23/224] E,,/8 z35/72 [z/72E,,4/45] D,5/56 z4/63 E,,/9 z5/126 C,,15/112 z5/32 [z/288D,23/224] E,,/9 z17/84 E,,11/84 z13/84 [z/35A,3/28] [C,,/10F,,/10G,13/120] z/5 C,,23/180 z13/72 [z/168C,7/96E,,13/96G,13/96] F,,5/42 z7/36 
C,,5/63 z3/14 [F,,9/70G,33/224C,,19/126] z7/40 E,,/8 z5/28 [z3/140C,,19/168] [z/70F,,9/80] G,11/112 z3/16 C,,3/28 z3/14 [G,19/224F,,3/28] z31/160 C,,11/90 z7/36 [z/30E,,2/15] [G,11/120F,,11/120] z17/96 C,,31/224 z39/224 [z/224E,,33/224] [z5/252F,,5/56] G,11/126 z4/21 C,,/8 z31/168 [z/42E,,11/70] [G,/12F,,/12] z7/36 C,,8/63 z19/126 [z/36C,13/144] [z/36F,,/10C,,3/28] 
G,/18 z11/48 C,,13/112 z5/28 [z/56G,17/168E,,/7] F,,5/56 z3/14 C,,25/252 z55/288 [z/32C,,23/224F,,11/96] G,/12 z17/84 E,,41/224 z21/160 [F,,/10G,/10C,,11/90] z33/160 E,,3/16 z11/96 [z/96C,,25/168] [z/288G,23/224] F,,25/252 z47/224 E,,41/224 z3/28 [z/84C,,47/224] [F,,2/21G,2/21] z11/56 E,,19/72 z5/126 [z/63C,,37/224] [z/72G,7/72] F,,/12 z5/24 E,,5/28 z17/140 
[z/80G,/10C,,/5] F,,7/80 z29/140 E,,3/14 
