X: 1
T: Doom E1M9 - Hiding the Secrets (Harp)
Z: ABC Generated by Starbound Composer v0.8.7
L: 1/4
Q: 1/4=95
K: C
z825/7 
_B,,13/42 ^G,,29/96 z89/288 G,,91/288 ^F,,67/224 G,,43/140 z3/10 G,,5/16 B,,43/144 G,,11/36 z11/36 B,,23/72 =B,,29/96 _B,,5/16 
G,,29/96 F,,23/72 B,,11/36 G,,11/36 z43/144 G,,5/16 F,,3/10 G,,43/140 z13/42 G,,11/36 B,,89/288 G,,5/16 z67/224 B,,43/140 
=B,,87/140 F,,17/28 _B,,9/28 G,,7/24 z29/96 G,,5/16 F,,69/224 G,,71/224 z29/96 G,,13/42 B,,33/112 G,,5/16 z11/36 
B,,19/63 =B,,9/28 _B,,65/224 G,,5/16 F,,29/96 B,,19/60 G,,3/10 z3/10 G,,9/28 F,,17/56 G,,17/56 z9/28 G,,7/24 B,,37/120 
G,,19/60 z25/84 B,,79/252 =B,,11/18 F,,11/18 ^D,5/16 ^C,43/144 z20/63 C,37/126 B,,79/252 C,25/84 z19/60 
C,37/120 D,7/24 C,9/28 z17/56 D,17/56 E,9/28 D,3/10 C,3/10 B,,19/60 D,29/96 C,5/16 z29/96 C,13/42 B,,19/63 
C,11/36 z5/16 C,33/112 D,13/42 C,29/96 z71/224 D,69/224 E,59/96 B,,103/168 D,17/56 C,17/56 z9/28 
C,3/10 B,,43/140 C,13/42 z29/96 C,89/288 D,91/288 C,67/224 z43/140 D,3/10 E,5/16 D,43/144 C,11/36 B,,11/36 D,23/72 
C,29/96 z5/16 C,29/96 B,,23/72 C,11/36 z11/36 C,43/144 D,5/16 C,3/10 z43/140 D,13/42 E,59/96 B,,137/224 
_B,,43/140 G,,3/10 z9/28 G,,17/56 F,,17/56 G,,9/28 z7/24 G,,29/96 B,,5/16 G,,69/224 z71/224 B,,29/96 =B,,13/42 
_B,,33/112 G,,5/16 F,,11/36 B,,19/63 G,,9/28 z65/224 G,,5/16 F,,5/16 G,,49/160 z3/10 G,,3/10 B,,9/28 G,,17/56 z17/56 
B,,9/28 =B,,3/5 F,,43/70 _B,,79/252 G,,11/36 z11/36 G,,43/144 F,,5/16 G,,5/16 z43/144 G,,20/63 
B,,37/126 G,,79/252 z25/84 B,,19/60 =B,,37/120 _B,,7/24 G,,9/28 F,,17/56 B,,17/56 G,,9/28 z3/10 G,,3/10 F,,19/60 G,,29/96 z5/16 
G,,29/96 B,,13/42 G,,19/63 z11/36 B,,5/16 =B,,69/112 F,,17/28 ^D,,69/224 E,,5/16 z29/96 F,,7/24 E,,9/28 
D,,17/56 z17/56 F,,9/28 G,,3/10 _B,,43/140 z13/42 =B,,29/96 _B,,5/8 G,,97/160 D,,3/10 E,,5/16 z43/144 
F,,11/36 E,,11/36 D,,23/72 z29/96 F,,5/16 G,,29/96 B,,23/72 z11/36 =B,,11/36 G,,11/18 F,,17/28 D,,13/42 
E,,11/36 z89/288 F,,5/16 E,,67/224 D,,43/140 z59/180 F,,37/126 G,,17/56 _B,,17/56 z9/28 =B,,7/24 G,,59/96 B,,5/8 
D,,29/96 E,,13/42 z33/112 F,,5/16 E,,11/36 D,,137/288 z33/224 F,,65/224 G,,5/16 _B,,5/16 z49/160 =B,,3/10 G,,87/140 
B,,17/28 G,,13/84 z/6 G,,7/24 _B,,37/120 =B,,19/60 _B,,7/48 z17/112 B,,79/252 G,,11/36 F,,11/36 D,,11/72 z7/48 D,,5/16 E,,5/16 F,,43/144 
E,,11/18 D,,113/180 G,,3/20 z3/20 G,,37/120 B,,7/24 =B,,9/28 C,17/56 B,,17/56 _B,,9/28 G,,3/10 D,,19/120 z17/120 D,,19/60 
E,,29/96 F,,5/16 E,,137/224 D,,17/28 
