X: 1
T: Drifters OP - Gospel of the Throttle (Intrustment)
Z: ABC Generated by Starbound Composer v0.8.7
L: 1/4
M: 4/4
Q: 1/4=96
K: C
E,,/ z/4 E,,/8 A,,/8 _B,,/ E,,/4 E,,/4 B,,/4 E,,/4 E,,/4 E,,/4 G,,/4 E,,/4 G,,/4 E,,/4 
E,,/ z/4 E,,/8 A,,/8 B,,/ E,,/4 E,,/4 B,,/4 E,,/4 E,,/4 E,,/4 G,,/4 E,,/4 G,,/4 E,,/4 
[E,/=B,,/E,,/] z [E,,/4B,,/4E,/4] [E,/B,,/E,,/] z3/4 B,,/4 B,,/4 [^F,,/B,,/D,/] 
[E,,/B,,/E,/] z [E,,/4B,,/4E,/4] [E,,/B,,/E,/] z3/4 B,,/4 B,,/4 [B,,/E,/E,,/] 
[B,,/E,,/E,/] z [E,,/4B,,/4E,/4] [E,,/B,,/E,/] z3/4 B,,/4 B,,/4 [B,,/F,,/D,/] 
[E,,/B,,/E,/] z [E,/4B,,/4E,,/4] [E,/B,,/E,,/] z3/4 [E,,/B,,/E,/] [E,/B,,/E,,/] 
[E,/B,,/E,,/] z/ [E,,/B,,/E,/] [E,/4B,,/4E,,/4] [E,,/B,,/E,/] [E,,/B,,/E,/] [E,,/4B,,/4E,/4] [E,,/B,,/E,/] z/ 
[E,,/B,,/E,/] z/ [E,,/4B,,/4E,/4] [E,/B,,/E,,/] [E,3/4B,,3/4E,,3/4] z/ [D,,/D,/] [^D,,/^D,/] 
[E,,/B,,/E,/] z/ [E,,/B,,/E,/] [E,/4B,,/4E,,/4] [E,,/B,,/E,/] [E,,/B,,/E,/] [E,,/4B,,/4E,/4] [E,,/B,,/E,/] z/ 
[E,,/B,,/E,/] z/ [E,,/4B,,/4E,/4] [E,/B,,/E,,/] [E,3/4B,,3/4E,,3/4] z3/ 
E,,/ E,/ E,,/ E,/ E,,/ E,/ E,,/ E,/ 
=D,,/ =D,/ D,,/ D,/ D,,/ D,/ D,,/ D,/ 
A,,,/ A,,/ A,,,/ A,,/ A,,,/ A,,/ A,,,/ A,,/ 
[G,,C,,C,] [G,,C,C,,] [D,/D,,/A,,/] [A,,/D,,/D,/] [A,,/D,,/D,/] [D,/D,,/A,,/] 
[E,,,/E,,/] E,,/ [E,/B,,/] E,,/4 [B,,/E,/] E,,/4 [B,,/E,/] E,,/4 [B,,/E,/] E,,/4 
[D,,/D,,,/] D,,/ [D,/A,,/] D,,/4 [D,/A,,/] D,,/4 [A,,/D,/] D,,/4 [A,,/D,/] D,,/4 
[A,,/A,,,/] A,,/ [E,/A,/] A,,/4 [E,/A,/] A,,/4 [E,/A,/] A,,/4 [E,/A,/] A,,/4 
[C,C,,G,,] [C,G,,C,,] [D,,A,,D,] [D,A,,D,,] 
[E,,/B,,/E,/] z [E,,/4B,,/4E,/4] [E,/B,,/E,,/] z3/4 B,,/4 B,,/4 [F,,/B,,/D,/] 
[E,,/B,,/E,/] z [E,,/4B,,/4E,/4] [E,,/B,,/E,/] z3/4 B,,/4 B,,/4 [B,,/E,/E,,/] 
[B,,/E,,/E,/] z [E,,/4B,,/4E,/4] [E,,/B,,/E,/] z3/4 B,,/4 B,,/4 [B,,/F,,/D,/] 
[E,,/B,,/E,/] z [E,/4B,,/4E,,/4] [E,/B,,/E,,/] z3/4 [E,,/B,,/E,/] [E,/B,,/E,,/] 
[E,/B,,/E,,/] z/ [E,,/B,,/E,/] [E,/4B,,/4E,,/4] [E,,/B,,/E,/] [E,,/B,,/E,/] [E,,/4B,,/4E,/4] [E,,/B,,/E,/] z/ 
[E,,/B,,/E,/] z/ [E,,/4B,,/4E,/4] [E,/B,,/E,,/] [E,3/4B,,3/4E,,3/4] z/ [D,/D,,/] [^D,/^D,,/] 
[E,,/B,,/E,/] z/ [E,/B,,/E,,/] [E,/4B,,/4E,,/4] [E,/B,,/E,,/] [E,/B,,/E,,/] [E,/4B,,/4E,,/4] [E,,/B,,/E,/] z/ 
[E,,/B,,/E,/] z7/ 
E,,/ E,/ E,,/ E,/ E,,/ E,/ E,,/ E,/ 
=D,,/ =D,/ D,,/ D,/ D,,/ D,/ D,,/ D,/ 
A,,,/ A,,/ A,,,/ A,,/ A,,,/ A,,/ A,,,/ A,,/ 
[C,,/G,,/C,/] [C,/G,,/C,,/] [C,,/G,,/C,/] [C,,/G,,/C,/] [A,,/D,,/D,/] [A,,/D,,/D,/] [D,/D,,/A,,/] [A,,/D,,/D,/] 
[E,,/E,,,/] E,,/ [B,,/E,/] E,,/4 [E,/B,,/] E,,/4 [E,/B,,/] E,,/4 [E,/B,,/] E,,/4 
[D,,,/D,,/] D,,/ [A,,/D,/] D,,/4 [A,,/D,/] D,,/4 [D,/A,,/] D,,/4 [D,/A,,/] D,,/4 
[A,,/A,,,/] A,,/ [A,/E,/] A,,/4 [E,/A,/] A,,/4 [E,/A,/] A,,/4 [E,/A,/] A,,/4 
[C,,C,G,,] [C,,G,,C,] [D,A,,D,,] [D,A,,D,,] 
[E,,3/4B,,3/4E,3/4] z3/4 [E,,3/4B,,3/4E,3/4] z3/4 [E,/B,,/E,,/] [E,/E,,/B,,/] 
[E,/B,,/E,,/] 
