X: 1
T: Fear and Loating in Las Vegas - Let Me Hear
Z: ABC Generated by Starbound Composer v0.8.7
L: 1/4
M: 4/4
Q: 1/4=183
K: C
^F/ F/ ^G/ [z/A3/] ^F,,/4 z/4 ^F,/4 z/4 [F,,/4G] z/4 [F,/4^C/] z/4 
[F,,/4F/] z/4 [F,/4A,/E] z/4 F,,/4 z/4 [F,/4B,/F2] z/4 F,,/4 z/4 [F,/4A,/] z/4 F,,/4 z/4 [F,/4^G,/] z/4 
[F,,/4F/] z/4 [F,/4G] z/4 F,,/4 z/4 [F,/4A3/] z/4 F,,/4 z/4 F,/4 z/4 [F,,/4G] z/4 [F,/4C/] z/4 
[F,,/4F/] z/4 [F,/4A,/E] z/4 F,,/4 z/4 [F,/4B,/F3/] z/4 E,,/4 z/4 [E,/4A,/] z/4 [E,,/4E] z/4 [E,/4G,/] z/4 
[E,,/4C/] z/4 [E,/4A,/E] z/4 E,,/4 z/4 [E,/4E2] z/4 D,,/4 z/4 D,/4 z/4 D,,/4 z/4 [D,/4C/] z/4 
[D,,/4C/] z/4 [D,/4A,/E] z/4 D,,/4 z/4 [D,/4B,/E2] z/4 D,,/4 z/4 [D,/4A,/] z/4 D,,/4 z/4 [D,/4G,/] z/4 
[D,,/4C/] z/4 [D,/4A,/E] z/4 D,,/4 z/4 [D,/4E3/] z/4 D,,/4 z/4 D,/4 z/4 [D,,/4C/] z/4 [D,/4C/] z/4 
[D,,/4F/] z/4 [D,/4A,/E] z/4 D,,/4 z/4 [D,/4B,/E3/] z/4 E,,/4 z/4 [E,/4A,/] z/4 [E,,/4C] z/4 [E,/4G,/] z/4 
[E,,/4F/] z/4 [E,/4GE] z/4 E,,/4 z/4 [E,/4A3/F3/] z/4 F,,/4 z/4 F,/4 z/4 [F,,/4A,C] z/4 F,/4 z/4 
[F,,/4F/] z/4 [F,/4^cA] z/4 F,,/4 z/4 [F,/4F3/A3/] z/4 F,,/4 z/4 F,/4 z/4 [F,,/4A,C] z/4 F,/4 z/4 
[F,,/4F/] z/4 [F,/4GE] z/4 F,,/4 z/4 [F,/4F3/A3/] z/4 F,,/4 z/4 F,/4 z/4 [F,,/4CA,F] z/4 F,/4 z/4 
[F,,/4A/] z/4 [F,/4BF] z/4 F,,/4 z/4 [F,/4A3/F3/] z/4 E,,/4 z/4 E,/4 z/4 [E,,/4A,CF] z/4 E,/4 z/4 
[E,,/4E,/4B,,/4F/] z/4 [E,/4E,,/4B,,/4EB,] z/4 E,,/4 z/4 [E,/4F3/C3/] z/4 D,,/4 z/4 D,/4 z/4 [D,,/4F,A,] z/4 D,/4 z/4 
[D,,/4F/] z/4 [D,/4EB,] z/4 D,,/4 z/4 [D,/4C3/F3/] z/4 D,,/4 z/4 D,/4 z/4 [D,,/4F,A,] z/4 D,/4 z/4 
[D,,/4F/] z/4 [D,/4B,E] z/4 D,,/4 z/4 [D,/4C5/F5/] z/4 D,,/4 z/4 D,/4 z/4 [D,,/4F,A,] z/4 D,/4 z/4 
[D,,/4E2A2] z/4 D,/4 z/4 D,,/4 z/4 D,/4 z/4 [E,,/E,/B,,/A2E2] z/ [E,,/E,/B,,/] z/ 
[E,,/4BF] E,/4 E,,/4 E,/4 [E,,/4Fc] z3/4 [cF,F,,C2F2] [e/F,,/] [c/^C,/] 
[e/F,C,] ^f/ [a/F,F,,] ^g/ [c/F,,/] [b/C,/] [a/C,F,] g/ 
[F,,/4a/] F,/4 [g/F,,/] [F,,/4e/] F,/4 [f/F,,/] [a/F,,F,] g/ [e/F,,/] [c/C,/] 
[e/F,C,] f/ [a/F,,F,] g/ [c/F,,/] [b/C,/] [a/C,F,] g/ 
[F,,/4a/] F,/4 [F,,/4g/] F,/4 [F,,/4b/] F,/4 [F,,/4^c'/] F,/4 [a/D,,D,] g/ [e/D,,/] [c/A,,/] 
[e/A,,D,] f/ [a/D,,D,] g/ [c/D,,/] [b/A,,/] [a/A,,D,] g/ 
[D,,/4a/] D,/4 [g/D,,/] [D,,/4e/] D,/4 [f/D,,/] [a/E,,E,] g/ [e/E,,/] [c/B,,/] 
[e/E,B,,] f/ [a/E,E,,] g/ [E,,/4c/] E,/4 [E,,/4b/] E,/4 [E,,/4F] E,/4 E,,/4 E,/4 
[E,,/4F/] E,/4 [E,,/4F/] E,/4 [E,,/4G/] z/4 [z/A3/] F,,/ C,/ [F,/G] [C/C,/] 
[B,/F/F,,/] [D/C,/E] F,/ [C,/F2] [C/F,,/] C,/ F,/ [B,/C,/] 
[F/F,,/] [C/C,/G] [B,/F,/] [D/C,/A3/] F,,/ C,/ [F,/G] [C/C,/] 
[F/B,/F,,/] [D/C,/E] F,/ [C,/F3/] E,,/ B,,/ [B,/E,/E] B,,/ 
[C/E,,/] [B,,/E] [B,/E,/] [A,/B,,/E7/4] D,,/ A,,/ D,/ [A,/A,,/] 
[G,/C/D,,/] [B,/A,,/E] D,/ [A,,/E7/4] [A,/D,,/] A,,/ D,/ [G,/A,,/] 
[C/D,,/] [A,/A,,/E] [G,/D,/] [B,/A,,/E3/] D,,/ A,,/ [D,/C] [A,/A,,/] 
[G,/F/D,,/] [B,/A,,/E] D,/ [A,,/E3/] E,,/ B,,/ [E,/C] B,,/ 
[F/E,,/] [B,,/GE] E,/ [B,,/FA] F,,/ [A,/C/C,/] [A,/C/F,/] [A,/C/C,/] 
[F/F,/] [C,/Ac] F,/ [C,/AF] F,,/ [A,/C/C,/] [A,/C/F,/] [A,/C/C,/] 
[F/F,/] [C,/EG] F,,/ [C,/A3/F3/] D,,/ A,,/ [D,/FC] A,,/ 
[A/D,/] [A,,/BF] D,/ [A,,/c7/A7/] D,,/ A,,/ D,/ A,,/ 
D,/ A,,/ [D,,/E3/A3/] D,/ A,,/ E,/ [A,/EA] E,/ 
[A,/eA] E,/ [A,/fA] E,/ [A,,/eA] E,/ [A/E/A,/] [E,/E3/A3/] 
A,/ E,/ [A,,/Ac] E,/ [^C,,/F3B3] ^G,,/ C,/ G,,/ 
C,/ G,,/ [C,/G] G,,/ [C,,/F2B2] [C,/C,,/] [C,C,,] 
[C,,/F2c2] [C,,/C,/] [C,,/C,/] [C,/C,,/] [D,D,,] [D,,/CF] A,,/ 
[D,/FC] A,,/ [D,/EB,] A,,/ [D,,/F3/C3/] A,,/ D,/ [D,,/C3/F3/] 
D,/ D,,/ [D,/4AE] D,,/4 D,/4 D,,/4 [E,,/E,/G3/E3/] E,,/ B,,/ [E,/C3/F3/] 
E,,/ B,,/ [E,/EC] B,,/ [E,,/B3/G3/] B,,/ E,/ [G/c/F,/] 
[G,/e5/4G5/4] E,/ E,,/ E,/ [D,,/4F3/C3/] D,/4 D,,/ D,,/4 D,/4 [D,,/B,3/E3/] 
D,,/4 D,/4 D,,/4 D,/4 [D,,/4A] D,/4 D,,/4 [z/4E,,/] G2 z2 
[D,,D,a4e4e'4] D,,/ A,,/ D,/ [D,,3/D,3/] 
[E,,/e'3/e3/a3/] B,,/ E,/ [B,,/d'3/a3/d3/] E,,/ E,/ [E,,/4c'ca] E,/4 E,,/ 
[F,F,,B3/g3/b3/] F,,/ [C,/f3/A3/a3/] F,/ [z/F,,F,] B/ [F,,/a5/c'5/c5/] 
A,,/ [A,,/A,/] A,,/ E,/ A,/ A,,/ [A,,/4F/f/] A,/4 [g/G/A,,/] 
[D,,D,f3/A3/a3/] D,,/ [A,,/b3/B3/] D,/ [z/D,D,,] [z/c'c] D,,/ 
[E,,/g2B2b2] B,,/ E,/ B,,/ [E,,/e'e] E,/ [E,,/4d'd] E,/4 E,,/4 E,/4 
[dd'aF,3/F,,3/] [z/cc'] F,,/ [F,/ac'c] [z/F,,F,] [z/Bb] F,,/ 
[C,/B2b2g2] [C,3/C,,3/] [C,,/cc'] C,/ [C,,/4faA] C,/4 C,,/4 C,/4 
[zD,,3/D,3/] [c'/c/] [d'/d/D,,/] [D,/e2e'2] [A,,D,] D,,/ 
[E,,/g3/G3/] [E,/E,,/] B,,/ [E,/f3/A3/a3/] E,,/ B,,/ [E,/f^f'] B,,/ 
[e'3/e3/b3/F,3/F,,3/] [F,,/d3/d'3/] F,/ [z/F,C,] [z/cc'] F,,/ 
[A,,/e3/B3/b3/] [A,,/A,/] A,,/ [E,/c3/c'3/] A,/ A,,/4 E,/4 [A,/dd'] A,,/ 
[D,3/D,,3/c2c'2e2] D,,/ D,/ [z/D,A,,] [z/ge'e] D,,/ 
[E,,/e3/e'3/g3/] [E,,/E,/] E,,/ [B,,/g3/G3/] E,/ E,,/ [E,,/4aA] E,/4 E,,/ 
[D,,/f'3/b3/f3/] [A,,/D,/] D,,/ [D,/A,,/e2e'2b2] D,,/ [B,/A,,/D,/] [C/D,,/] [E/D,/A,,/] 
E,,/ [E,/B,,/] E,,/ [F,/B,,/E,/] [A,/E,,/] [B,/E,/B,,/] [E,,/4A,/C/] E,/4 [E,,/4B,/E/] E,/4 
F,,/ [F,/C,/] F,,/ [C,/F,/] [A,/F,,/] [B,/F,/C,/] [A,/C/F,,/] [F,,/4B,/E/] F,/4 
A,,/ [E,/A,/] [F/D/A,,/] [B,/E/E,/A,/] [D/A,,/] [C/E,/A,/] [B,/A,,/] [A,,/4C/] E,/4 
[D/D,,/] [A,,/D,/] D,,/ [F,/A,,/D,/] [A,/D,,/] [B,/A,,/D,/] [A,/C/D,,/] [D,,/4B,/E/] D,/4 
E,,/ [B,,/E,/] E,,/ [F,/E,/B,,/] [A,/E,,/E,/B,,/] [B,/B,,/E,/E,,/] [E/E,,/E,/B,,/] z/ 
[c7f7C,7F,,7F,7] 
