X: 1
T: Jubyphonic - Ikainaide
Z: ABC Generated by Starbound Composer v0.8.7
L: 1/4
M: 4/4
Q: 1/4=191
K: C
[c/g/C,/G,/C/] z/ [c/g/C,/G,/C/] z/ [c15/32g15/32C,15/32G,15/32C15/32] z/32 [c15/32g15/32C,15/32G,15/32C15/32] z/32 [c/g/C,/G,/C/] z/ 
[c15/32g15/32C,15/32G,15/32C15/32] z/32 [c15/32g15/32C,15/32G,15/32C15/32] z/32 [c15/32g15/32C,15/32G,15/32C15/32] z/32 [c15/32g15/32C,15/32G,15/32C15/32] z/32 [C,15/32G,15/32C15/32cg] z/32 G,,15/32 z/32 C,19/20 z/20 
[c19/20^G,,19/20] z/20 [G,,/C,/c'19/20] [^D,,/C,/] [G,,/g19/10] ^D,/ [G,,/=D,/g'19/20] =G,,/ 
[_B,,/_b19/10] B,,/ [G,,/D,/_b'19/20] [B,,/D,/] [F,/g19/10] ^D,/ [B,,/C,/g'19/20] B,,15/32 z/32 
[C,19/20f19/10] z/20 [C,/D,/f'19/20] [G,,/D,/] [C,/g19/10] D,/ [C,/=D,/g'19/20] B,,15/32 z/32 
[G,,19/20^d19/10] z/20 [G,,/B,,/^d'19/20] [D,,/B,,/] [G,,/_B19/10] ^D,/ [G,,/=D,/b19/20] B,,15/32 z/32 
[c19/20^G,,19/20] z/20 [G,,/C,/c'19/20] [D,,/C,/] [G,,/g19/10] ^D,/ [G,,/=D,/g'19/20] =G,,/ 
[B,,/b19/10] B,,/ [G,,/C,/b'19/20] [B,,/C,/] [F,/g19/10] ^D,/ [B,,/C,/g'19/20] B,,15/32 z/32 
[C,19/20D,19/20b19/10] z/20 [D,/b'19/20] [B,,/D,/] [D,/c'19/10] F,/ [C,/D,/c''19/20] C,15/32 z/32 
[G,,19/20D,19/20g19/10] z/20 [B,,/D,/g'19/20] [B,,/C,/] [D,/f19/10] F,/ [G,,/D,/f'19/20] C,15/32 z/32 
[c19/20f19/20^G,,19/20] z/20 [G,,/C,/g19/20c'19/20] [D,,/C,/] [G,,/g19/10c'19/10] D,/ [G,,/=D,/g'19/20] =G,,/ 
[B,,/b19/10d'19/10] B,,/ [G,,/D,/b'19/20] [B,,/D,/] [F,/g19/10c'19/10] ^D,/ [B,,/C,/g'19/20] B,,15/32 z/32 
[C,19/20f19/10b19/10] z/20 [C,/D,/f'19/20] [G,,/D,/] [C,/g19/10c'19/10] D,/ [C,/=D,/g'19/20] B,,15/32 z/32 
[G,,19/20d19/10b19/10] z/20 [G,,/B,,/d'19/20] [D,,/B,,/] [G,,/B19/10f19/10] ^D,/ [G,,/=D,/b19/20] B,,15/32 z/32 
[c19/20f19/20^G,,19/20] z/20 [G,,/C,/g19/20c'19/20] [D,,/C,/] [G,,/g19/10c'19/10] ^D,/ [G,,/=D,/g'19/20] =G,,/ 
[B,,/b19/10d'19/10] B,,/ [G,,/C,/b'19/20] [B,,/C,/] [F,/g19/10c'19/10] ^D,/ [B,,/C,/g'19/20] B,,15/32 z/32 
[C,19/20D,19/20b19/10d'19/10] z/20 [D,/b'19/20] [B,,/D,/] [D,/c'19/10f'19/10] F,/ [C,/D,/c''19/20] C,15/32 z/32 
[g15/32c'15/32C,15/32C15/32] z/32 [g15/32c'15/32C,15/32C15/32] z/32 [g15/32c'15/32C,15/32C15/32] z/32 [g15/32c'15/32C,15/32C15/32] z/32 [C,/C/gc'] z/ B,,19/20 z/20 
[C/^G,,19/20^G,19/5] z/ [C15/32G,,15/32] z/32 [_B,/4G,,15/32] z/4 [G,,15/32C/] z/32 G,,15/32 z/32 [C15/32G,,15/32] z/32 [B,/4G,,15/32] z/4 
[B,15/32C19/20B,,19/20] z/32 [z/B,57/20] [C15/32B,,15/32] z/32 [B,/4B,,15/32] z/4 [C15/32B,,15/32] z/32 [D/4B,,15/32] z/4 [B,,15/32^D19/20] z/32 B,,15/32 z/32 
[C,19/20=G,19/5] z/20 C,15/32 z/32 C,15/32 z/32 C,15/32 z/32 C,15/32 z/32 C,15/32 z/32 C,15/32 z/32 
[G,15/32C,19/20] z/32 [z/G,57/20] C,15/32 z/32 C,15/32 z/32 C,15/32 z/32 C,15/32 z/32 C,15/32 z/32 C,15/32 z/32 
[C19/20G,,19/20^G,19/5] z/20 [C15/32G,,15/32] z/32 [B,/4G,,15/32] z/4 [G,,15/32C19/20] z/32 G,,15/32 z/32 [C15/32G,,15/32] z/32 [B,/4G,,15/32] z/4 
[B,15/32C19/20B,,19/20] z/32 B,15/32 z/32 [C15/32B,,15/32] z/32 [B,/4B,,15/32] z/4 [C15/32B,,15/32] z/32 [=D/4B,,15/32] z/4 [B,,15/32^D19/20] z/32 B,,15/32 z/32 
[C,19/20=G,19/5] z/20 C,15/32 z/32 C,15/32 z/32 C,15/32 z/32 C,15/32 z/32 C,15/32 z/32 C,15/32 z/32 
[G,15/32C,19/20] z/32 [z/G,57/20] C,15/32 z/32 C,15/32 z/32 C,15/32 z/32 C,15/32 z/32 C,15/32 z/32 C,15/32 z/32 
Q: 1/4=192
[C15/32G,,19/20D,19/5^G,19/5] z/32 C15/32 z/32 [C15/32G,,15/32] z/32 [B,/4G,,15/32] z/4 [C15/32G,,15/32] z/32 [C15/32G,,15/32] z/32 [C15/32G,,15/32] z/32 [B,/4G,,15/32] z/4 
[F,15/32B,15/32C19/20B,,19/20] z/32 [z/F,57/20B,57/20] [C15/32B,,15/32] z/32 [B,/4B,,15/32] z/4 [B,,15/32C19/20] z/32 B,,15/32 z/32 [F15/32B,,15/32] z/32 [D/4B,,15/32] z/4 
[F19/20C,19/20=G,19/5C19/5] z/20 [F15/32C,15/32] z/32 [D/4C,15/32] z/4 [C,15/32F] z/32 C,15/32 z/32 [C,15/32B] z/32 C,15/32 z/32 
[G,15/32C15/32C,19/20G10/7] z/32 [z/G,57/20C57/20] C,15/32 z/32 C,15/32 z/32 C,15/32 z/32 C,15/32 z/32 [G15/32C,15/32] z/32 [B15/32C,15/32] z/32 
[c19/20G,,19/20D,19/5^G,19/5] z/20 [G,,15/32D19/20] z/32 G,,15/32 z/32 [G,,15/32D19/20] z/32 G,,15/32 z/32 [G,,15/32C19/20] z/32 G,,15/32 z/32 
[F,15/32B,15/32B,19/20B,,19/20] z/32 [z/F,57/20B,57/20] [B,,15/32D19/20] z/32 B,,15/32 z/32 [B,,15/32D19/20] z/32 B,,15/32 z/32 [B,,15/32F19/20] z/32 B,,15/32 z/32 
[C19/20C,19/20=G,19/5C19/5] z/20 C,15/32 z/32 C,15/32 z/32 C,15/32 z/32 C,15/32 z/32 C,15/32 z/32 C,15/32 z/32 
[c/C,/G,/] z/ [c/C,/G,/] z/ [c/C,/G,/] z3/ 
Q: 1/4=191
[F19/20G,,19/20^G,19/5] z/20 [F15/32C,15/32] z/32 [D15/32C,15/32] z/32 [G,,15/32F10/7] z/32 G,,15/32 z/32 D,15/32 z/32 [D15/32G,,15/32] z/32 
[F,15/32B,15/32F19/20B,,19/20] z/32 [z/B,57/20] [F15/32=D,15/32] z/32 [D15/32D,15/32] z/32 [B,,15/32F3/4] z/32 B,,15/32 z/32 F,7/20 z3/20 [D15/32B,,15/32] z/32 
[F/C,19/20=G,57/20C57/20] z/ [^D,15/32F/] z/32 D,15/32 z/32 [C,15/32F/] z/32 C,15/32 z/32 [G,15/32G19/20] z/32 C,15/32 z/32 
[=D,15/32G,15/32=G,,19/20B,2] z/32 [z/G,57/20] B,,15/32 z/32 B,,15/32 z/32 G,,15/32 z/32 G,,15/32 z/32 D,7/20 z3/20 G,,15/32 z/32 
[F15/32^G,,19/20^G,19/5] z/32 F15/32 z/32 [F15/32C,15/32] z/32 [D/4C,15/32] z/4 [G,,15/32F10/7] z/32 G,,15/32 z/32 ^D,15/32 z/32 [D15/32G,,15/32] z/32 
[F,15/32B,15/32F19/20B,,19/20] z/32 [z/B,57/20] [F15/32=D,15/32] z/32 [D/4D,15/32] z/4 [B,,15/32F10/7] z/32 B,,15/32 z/32 F,7/20 z3/20 [D15/32B,,15/32] z/32 
[F19/20C,19/20=G,57/20C57/20] z/20 [F15/32^D,15/32] z/32 [D/4D,15/32] z/4 [C,15/32F19/20] z/32 C,15/32 z/32 [G,15/32B19/20] z/32 C,15/32 z/32 
[=D,15/32G,15/32=G,,19/20G] z/32 [z/G,57/20] [B,,15/32F19/20] z/32 B,,15/32 z/32 [F15/32G,,15/32] z/32 [G,,15/32D3/4] z/32 D,7/20 z3/20 G,,15/32 z/32 
[F19/20^G,,19/20^G,19/5] z/20 [F15/32C,15/32] z/32 [D/4C,15/32] z/4 [G,,15/32F19/20] z/32 G,,15/32 z/32 ^D,15/32 z/32 G,,15/32 z/32 
[F,15/32B,15/32F19/20B,,19/20] z/32 [z/B,57/20] [F15/32=D,15/32] z/32 [D/4D,15/32] z/4 [B,,15/32F19/20] z/32 B,,15/32 z/32 F,7/20 z3/20 [D15/32B,,15/32] z/32 
[F/C,19/20=G,57/20C57/20] z/ [F15/32^D,15/32] z/32 [D/4D,15/32] z/4 [C,15/32F19/20] z/32 C,15/32 z/32 [G,15/32G19/20] z/32 C,15/32 z/32 
[=D,15/32G,15/32=G,,19/20B,] z/32 [z/G,57/20] B,,15/32 z/32 B,,15/32 z/32 [G,,15/32B,19/10] z/32 G,,15/32 z/32 D,7/20 z3/20 G,,15/32 z/32 
[^G,,19/20C19/10^G,19/5] z/20 C,15/32 z/32 C,15/32 z/32 [G,,15/32D19/10] z/32 G,,15/32 z/32 ^D,15/32 z/32 G,,15/32 z/32 
[B,,19/20BB,19/5] z/20 [=D,15/32G19/20] z/32 D,15/32 z/32 [B,,15/32G] z/32 B,,15/32 z/32 F,15/32 z/32 B,,15/32 z/32 
[F19/20G,,19/10] z/20 [F15/32^D,19/20] z/32 D/4 z/4 [F3/4D,,19/10] z/4 [z/D,19/20] D/4 z/4 
[F19/20C,19/10] z/20 [F15/32F,19/20] z/32 D/4 z/4 [F3/4D,19/10] z/4 [z/B,,19/20] D15/32 z/32 
[F/C,19/10] z/ [F15/32D,19/20] z/32 D/4 z/4 [F/F,19/10] z/ [G19/20D,19/20] z/20 
[zG,,19/10B,2] D,19/20 z/20 [zB,,19/10] =G,,19/20 z/20 
[F/^G,,19/10] z/ [F15/32D,19/20] z/32 D/4 z/4 [zF10/7G,,19/10] [z/D,19/20] D15/32 z/32 
[F19/20B,,19/10] z/20 [F15/32F,19/20] z/32 D/4 z/4 [F3/4D,19/10] z/4 [z/B,,19/20] D15/32 z/32 
[F19/20C,19/10] z/20 [F19/20D,19/20] z/20 [F19/20F,19/10] z/20 [B19/20=G,19/20] z/20 
[GB,,19/10] [F19/20D,19/20] z/20 [F15/32F,19/10] z/32 [z/D3/4] B,,19/20 z/20 
[F19/20A,,19/10] z/20 [F15/32F,19/20] z/32 D/4 z/4 [F19/20F,19/10] z/20 A,,19/20 z/20 
[F19/20G,,19/10] z/20 [F15/32F,19/20] z/32 D/4 z/4 [F19/20F,19/10] z/20 [F15/32D,19/20] z/32 D15/32 z/32 
[F/=G,,19/10] z/ [F15/32D,19/20] z/32 D/4 z/4 [F19/20B,,19/10] z/20 G19/20 z/20 
[B,C,19/10] =D,19/20 z/20 [zB,19/10^D,19/10] B,,19/20 z/20 
[zC19/10^G,,19/10] D,,19/20 z/20 [zD19/10D,,19/10] G,,19/20 z/20 
[BB,,19/10] [G19/20F,,19/20] z/20 [GF,,19/10] B,,19/20 z/20 
[c19/20C,19/20C19/20] z/20 [c19/20C,19/20C19/20] z/20 [c15/32C,15/32C15/32] z/32 [c15/32C,15/32C15/32] z/32 [c/C,19/20C19/20] z/ 
[c15/32C,15/32] z/32 [c15/32C,15/32C15/32] z/32 [c15/32C,15/32C15/32] z/32 [c15/32C,15/32C15/32] z/32 [C,15/32G,15/32C15/32cg] z/32 =G,,15/32 z/32 C,19/20 z/20 
[c19/20^G,,19/20] z/20 [G,,/C,/c'19/20] [D,,/C,/] [G,,/g19/10] D,/ [G,,/=D,/g'19/20] =G,,/ 
[B,,/b19/10] B,,/ [G,,/D,/b'19/20] [B,,/D,/] [F,/g19/10] ^D,/ [B,,/C,/g'19/20] B,,15/32 z/32 
[C,19/20f19/10] z/20 [C,/D,/f'19/20] [G,,/D,/] [C,/g19/10] D,/ [C,/=D,/g'19/20] B,,15/32 z/32 
[G,,19/20d19/10] z/20 [G,,/B,,/d'19/20] [D,,/B,,/] [G,,/B19/10] ^D,/ [G,,/=D,/b19/20] B,,15/32 z/32 
[c19/20^G,,19/20] z/20 [G,,/C,/c'19/20] [D,,/C,/] [G,,/g19/10] ^D,/ [G,,/=D,/g'19/20] =G,,/ 
[B,,/b19/10] B,,/ [G,,/C,/b'19/20] [B,,/C,/] [F,/g19/10] ^D,/ [B,,/C,/g'19/20] B,,15/32 z/32 
[C,19/20D,19/20b19/10] z/20 [D,/b'19/20] [B,,/D,/] [D,/c'19/10] F,/ [C,/D,/c''19/20] C,15/32 z/32 
[G,,19/20D,19/20g19/10] z/20 [B,,/D,/g'19/20] [B,,/C,/] [D,/f19/10] F,/ [G,,/D,/f'19/20] C,15/32 z/32 
[c19/20f19/20^G,,19/20] z/20 [G,,/C,/g19/20c'19/20] [D,,/C,/] [G,,/g19/10c'19/10] D,/ [G,,/=D,/g'19/20] =G,,/ 
[B,,/b19/10d'19/10] B,,/ [G,,/D,/b'19/20] [B,,/D,/] [F,/g19/10c'19/10] ^D,/ [B,,/C,/g'19/20] B,,15/32 z/32 
[C,19/20f19/10b19/10] z/20 [C,/D,/f'19/20] [G,,/D,/] [C,/g19/10c'19/10] D,/ [C,/=D,/g'19/20] B,,15/32 z/32 
[G,,19/20d19/10b19/10] z/20 [G,,/B,,/d'19/20] [D,,/B,,/] [G,,/B19/10f19/10] ^D,/ [G,,/=D,/b19/20] B,,15/32 z/32 
[c19/20f19/20^G,,19/20] z/20 [G,,/C,/g19/20c'19/20] [D,,/C,/] [G,,/g19/10c'19/10] ^D,/ [G,,/=D,/g'19/20] =G,,/ 
[B,,/b19/10d'19/10] B,,/ [G,,/C,/b'19/20] [B,,/C,/] [F,/g19/10c'19/10] ^D,/ [B,,/C,/g'19/20] B,,15/32 z/32 
[C,19/20D,19/20b19/10d'19/10] z/20 [D,/b'19/20] [B,,/D,/] [D,/c'19/10f'19/10] F,/ [C,/D,/c''19/20] C,15/32 z/32 
[g15/32c'15/32C,15/32C15/32] z/32 [g15/32c'15/32C,15/32C15/32] z/32 [g15/32c'15/32C,15/32C15/32] z/32 [g15/32c'15/32C,15/32C15/32] z/32 [C,/C/gc'] z/ B,,19/20 z/20 
[C/^G,,19/20^G,19/5] z/ [C15/32G,,15/32] z/32 [B,/4G,,15/32] z/4 [G,,15/32C/] z/32 G,,15/32 z/32 [C15/32G,,15/32] z/32 [B,/4G,,15/32] z/4 
[B,15/32C19/20B,,19/20] z/32 [z/B,57/20] [C15/32B,,15/32] z/32 [B,/4B,,15/32] z/4 [C15/32B,,15/32] z/32 [=D/4B,,15/32] z/4 [B,,15/32^D19/20] z/32 B,,15/32 z/32 
[C,19/20=G,19/5] z/20 C,15/32 z/32 C,15/32 z/32 C,15/32 z/32 C,15/32 z/32 C,15/32 z/32 C,15/32 z/32 
[G,15/32C,19/20] z/32 [z/G,57/20] C,15/32 z/32 C,15/32 z/32 C,15/32 z/32 C,15/32 z/32 C,15/32 z/32 C,15/32 z/32 
[C19/20G,,19/20^G,19/5] z/20 [C15/32G,,15/32] z/32 [B,/4G,,15/32] z/4 [G,,15/32C19/20] z/32 G,,15/32 z/32 [C15/32G,,15/32] z/32 [B,/4G,,15/32] z/4 
[B,15/32C19/20B,,19/20] z/32 B,15/32 z/32 [C15/32B,,15/32] z/32 [B,/4B,,15/32] z/4 [C15/32B,,15/32] z/32 [=D/4B,,15/32] z/4 [B,,15/32^D19/20] z/32 B,,15/32 z/32 
[C,19/20=G,19/5] z/20 C,15/32 z/32 C,15/32 z/32 C,15/32 z/32 C,15/32 z/32 C,15/32 z/32 C,15/32 z/32 
[G,15/32C,19/20] z/32 [z/G,57/20] C,15/32 z/32 C,15/32 z/32 C,15/32 z/32 C,15/32 z/32 C,15/32 z/32 C,15/32 z/32 
Q: 1/4=192
[C15/32G,,19/20D,19/5^G,19/5] z/32 C15/32 z/32 [C15/32G,,15/32] z/32 [B,/4G,,15/32] z/4 [C15/32G,,15/32] z/32 [C15/32G,,15/32] z/32 [C15/32G,,15/32] z/32 [B,/4G,,15/32] z/4 
[F,15/32B,15/32C19/20B,,19/20] z/32 [z/F,57/20B,57/20] [C15/32B,,15/32] z/32 [B,/4B,,15/32] z/4 [B,,15/32C19/20] z/32 B,,15/32 z/32 [F15/32B,,15/32] z/32 [D/4B,,15/32] z/4 
[F19/20C,19/20=G,19/5C19/5] z/20 [F15/32C,15/32] z/32 [D/4C,15/32] z/4 [C,15/32F] z/32 C,15/32 z/32 [C,15/32B] z/32 C,15/32 z/32 
[G,15/32C15/32C,19/20G10/7] z/32 [z/G,57/20C57/20] C,15/32 z/32 C,15/32 z/32 C,15/32 z/32 C,15/32 z/32 [G15/32C,15/32] z/32 [B15/32C,15/32] z/32 
[c19/20G,,19/20D,19/5^G,19/5] z/20 [G,,15/32D19/20] z/32 G,,15/32 z/32 [G,,15/32D19/20] z/32 G,,15/32 z/32 [G,,15/32C19/20] z/32 G,,15/32 z/32 
[F,15/32B,15/32B,19/20B,,19/20] z/32 [z/F,57/20B,57/20] [B,,15/32D19/20] z/32 B,,15/32 z/32 [B,,15/32D19/20] z/32 B,,15/32 z/32 [B,,15/32F19/20] z/32 B,,15/32 z/32 
[C19/20C,19/20=G,19/5C19/5] z/20 C,15/32 z/32 C,15/32 z/32 C,15/32 z/32 C,15/32 z/32 C,15/32 z/32 C,15/32 z/32 
[c/C,/G,/] z/ [c/C,/G,/] z/ [c/C,/G,/] z3/ 
Q: 1/4=191
[F19/20G,,19/20^G,19/5] z/20 [F15/32C,15/32] z/32 [D15/32C,15/32] z/32 [G,,15/32F10/7] z/32 G,,15/32 z/32 D,15/32 z/32 [D15/32G,,15/32] z/32 
[F,15/32B,15/32F19/20B,,19/20] z/32 [z/B,57/20] [F15/32=D,15/32] z/32 [D15/32D,15/32] z/32 [B,,15/32F3/4] z/32 B,,15/32 z/32 F,7/20 z3/20 [D15/32B,,15/32] z/32 
[F/C,19/20=G,57/20C57/20] z/ [^D,15/32F/] z/32 D,15/32 z/32 [C,15/32F/] z/32 C,15/32 z/32 [G,15/32G19/20] z/32 C,15/32 z/32 
[=D,15/32G,15/32=G,,19/20B,2] z/32 [z/G,57/20] B,,15/32 z/32 B,,15/32 z/32 G,,15/32 z/32 G,,15/32 z/32 D,7/20 z3/20 G,,15/32 z/32 
[F15/32^G,,19/20^G,19/5] z/32 F15/32 z/32 [F15/32C,15/32] z/32 [D/4C,15/32] z/4 [G,,15/32F10/7] z/32 G,,15/32 z/32 ^D,15/32 z/32 [D15/32G,,15/32] z/32 
[F,15/32B,15/32F19/20B,,19/20] z/32 [z/B,57/20] [F15/32=D,15/32] z/32 [D/4D,15/32] z/4 [B,,15/32F10/7] z/32 B,,15/32 z/32 F,7/20 z3/20 [D15/32B,,15/32] z/32 
[F19/20C,19/20=G,57/20C57/20] z/20 [F15/32^D,15/32] z/32 [D/4D,15/32] z/4 [C,15/32F19/20] z/32 C,15/32 z/32 [G,15/32B19/20] z/32 C,15/32 z/32 
[=D,15/32G,15/32=G,,19/20G] z/32 [z/G,57/20] [B,,15/32F19/20] z/32 B,,15/32 z/32 [F15/32G,,15/32] z/32 [G,,15/32D3/4] z/32 D,7/20 z3/20 G,,15/32 z/32 
[F19/20^G,,19/20^G,19/5] z/20 [F15/32C,15/32] z/32 [D/4C,15/32] z/4 [G,,15/32F19/20] z/32 G,,15/32 z/32 ^D,15/32 z/32 G,,15/32 z/32 
[F,15/32B,15/32F19/20B,,19/20] z/32 [z/B,57/20] [F15/32=D,15/32] z/32 [D/4D,15/32] z/4 [B,,15/32F19/20] z/32 B,,15/32 z/32 F,7/20 z3/20 [D15/32B,,15/32] z/32 
[F/C,19/20=G,57/20C57/20] z/ [F15/32^D,15/32] z/32 [D/4D,15/32] z/4 [C,15/32F19/20] z/32 C,15/32 z/32 [G,15/32G19/20] z/32 C,15/32 z/32 
[=D,15/32G,15/32=G,,19/20B,] z/32 [z/G,57/20] B,,15/32 z/32 B,,15/32 z/32 [G,,15/32B,19/10] z/32 G,,15/32 z/32 D,7/20 z3/20 G,,15/32 z/32 
[^G,,19/20C19/10^G,19/5] z/20 C,15/32 z/32 C,15/32 z/32 [G,,15/32D19/10] z/32 G,,15/32 z/32 ^D,15/32 z/32 G,,15/32 z/32 
[B,,19/20BB,19/5] z/20 [=D,15/32G19/20] z/32 D,15/32 z/32 [B,,15/32G] z/32 B,,15/32 z/32 F,15/32 z/32 B,,15/32 z/32 
[F19/20G,,19/10] z/20 [F15/32^D,19/20] z/32 D/4 z/4 [F3/4D,,19/10] z/4 [z/D,19/20] D/4 z/4 
[F19/20C,19/10] z/20 [F15/32F,19/20] z/32 D/4 z/4 [F3/4D,19/10] z/4 [z/B,,19/20] D15/32 z/32 
[F/C,19/10] z/ [F15/32D,19/20] z/32 D/4 z/4 [F/F,19/10] z/ [G19/20D,19/20] z/20 
[zG,,19/10B,2] D,19/20 z/20 [zB,,19/10] =G,,19/20 z/20 
[F/^G,,19/10] z/ [F15/32D,19/20] z/32 D/4 z/4 [zF10/7G,,19/10] [z/D,19/20] D15/32 z/32 
[F19/20B,,19/10] z/20 [F15/32F,19/20] z/32 D/4 z/4 [F3/4D,19/10] z/4 [z/B,,19/20] D15/32 z/32 
[F19/20C,19/10] z/20 [F19/20D,19/20] z/20 [F19/20F,19/10] z/20 [B19/20=G,19/20] z/20 
[GB,,19/10] [F19/20D,19/20] z/20 [F15/32F,19/10] z/32 [z/D3/4] B,,19/20 z/20 
[F19/20A,,19/10] z/20 [F15/32F,19/20] z/32 D/4 z/4 [F19/20F,19/10] z/20 A,,19/20 z/20 
[F19/20G,,19/10] z/20 [F15/32F,19/20] z/32 D/4 z/4 [F19/20F,19/10] z/20 [F15/32D,19/20] z/32 D15/32 z/32 
[F/=G,,19/10] z/ [F15/32D,19/20] z/32 D/4 z/4 [F19/20B,,19/10] z/20 G19/20 z/20 
[B,C,19/10] =D,19/20 z/20 [zB,19/10^D,19/10] B,,19/20 z/20 
[zC19/10^G,,19/10] D,,19/20 z/20 [zD19/10D,,19/10] G,,19/20 z/20 
[BB,,19/10] [G19/20F,,19/20] z/20 [GF,,19/10] B,,19/20 z/20 
[F19/20A,,19/10] z/20 [F15/32F,19/20] z/32 D/4 z/4 [F19/20F,19/10] z/20 A,,19/20 z/20 
[F19/20G,,19/10] z/20 [F15/32F,19/20] z/32 D/4 z/4 [F19/20F,19/10] z/20 [F15/32D,19/20] z/32 D15/32 z/32 
[F/=G,,19/10] z/ [F15/32D,19/20] z/32 D/4 z/4 [F19/20B,,19/10] z/20 G19/20 z/20 
[B,C,19/10] =D,19/20 z/20 [zB,19/10^D,19/10] B,,19/20 z/20 
[zC19/10^G,,19/10] D,,19/20 z/20 [zD19/10D,,19/10] G,,19/20 z/20 
[BB,,19/10] [G19/20F,,19/20] z/20 [GF,,19/10] B,,19/20 z/20 
[c19/20C,19/20C19/20] z/20 [c15/32C,15/32C15/32] z/32 [c15/32C,15/32C15/32] z/32 [c15/32C,15/32C15/32] z/32 [c15/32C,15/32C15/32] z/32 [c15/32C,15/32C15/32] z/32 [c15/32C,15/32C15/32] z/32 
[c15/32C,15/32C15/32] z/32 [c15/32C,15/32C15/32] z/32 [c15/32C,15/32C15/32] z/32 [c15/32C,15/32C15/32] z/32 [C,15/32G,15/32C15/32cg] z/32 =G,,15/32 z/32 B,,19/20 z/20 
[^G,,19/20c19/10] z/20 [G,,/C,/c'19/20] [D,,/C,/] [G,,/d19/20g19/10] D,/ [c15/32G,,/=D,/] z/32 [d15/32=G,,/] z/32 
[f15/32B,,/b19/10] z/32 [d15/32B,,/] z/32 [f15/32G,,/D,/] z/32 [g15/32B,,/D,/] z/32 [b15/32g15/32F,/] z/32 [g15/32^D,/] z/32 [f15/32B,,/C,/] z/32 [d15/32B,,15/32] z/32 
C,19/20 z/20 [f15/32C,/D,/] z/32 [g15/32G,,/D,/] z/32 [C,/d19/20g19/10] D,/ [C,/=D,/B19/20] B,,15/32 z/32 
[c19/20G,,19/20d19/10] z/20 [G,,/B,,/B19/20] [D,,/B,,/] [G,,/g19/20b19/20B19/10] ^D,/ [G,,/=D,/d19/20] B,,15/32 z/32 
[g19/20^G,,19/20c19/10] z/20 [G,,/C,/c'19/20] [D,,/C,/] [b15/32g15/32G,,/] z/32 [g15/32^D,/] z/32 [f15/32G,,/=D,/] z/32 [d15/32=G,,/] z/32 
[f15/32B,,/b19/10] z/32 [d15/32B,,/] z/32 [f15/32G,,/C,/] z/32 [g15/32B,,/C,/] z/32 [F,/d19/20g19/10] ^D,/ [B,,/C,/B19/20] B,,15/32 z/32 
[c19/20C,19/20D,19/20b19/10] z/20 [D,/d19/20] [B,,/D,/] [D,/f19/20c'19/10] F,/ [C,/D,/g19/20] C,15/32 z/32 
[b15/32G,,19/20D,19/20] z/32 g15/32 z/32 [f15/32B,,/D,/] z/32 [g2/5B,,/C,/] z/10 [D,/c19/20f19/10] F,/ [G,,/D,/B19/20] C,15/32 z/32 
[^G,,19/20c19/10] z/20 [G,,/C,/g19/20c'19/20] [D,,/C,/] [G,,/c'19/10g19/10] D,/ [G,,/=D,/] =G,,/ 
[B,,/b19/10d'19/10] B,,/ [G,,/D,/] [B,,/D,/] [F,/=d'19/10g19/10] ^D,/ [B,,/C,/] B,,15/32 z/32 
[C,19/20g19/10c19/10] z/20 [C,/D,/] [G,,/D,/] [C,/b19/20] D,/ [C,/=D,/g9/10] B,,15/32 z/32 
[b19/20G,,19/20d19/10] z/20 [g15/32G,,/B,,/] z/32 [b15/32D,,/B,,/] z/32 [G,,/c'19/20B19/10f19/10] ^D,/ [G,,/=D,/b19/20] B,,15/32 z/32 
[^G,,19/20c19/10] z/20 [G,,/C,/g19/20] [D,,/C,/] [G,,/g19/10c'19/10] ^D,/ [G,,/=D,/] =G,,/ 
[B,,/b19/10^d'19/10] B,,/ [G,,/C,/] [B,,/C,/] [F,/g19/10c'19/10] ^D,/ [B,,/C,/] B,,15/32 z/32 
[c15/32C,19/20D,19/20] z/32 B15/32 z/32 [c15/32D,/b19/20] z/32 [d15/32B,,/D,/] z/32 [f15/32D,/c'19/10] z/32 [d15/32F,/] z/32 [f15/32C,/D,/] z/32 [g15/32C,15/32] z/32 
[g15/32c'15/32C,15/32C15/32] z/32 [g15/32b15/32C,15/32C15/32] z/32 [g15/32c'15/32C,15/32C15/32] z/32 [g15/32d'15/32C,15/32C15/32] z/32 [g/c'/C,/C/] z/ [g/b/B,,/] z/ 
[z/16f38/5g38/5^G,,39/5] [z/16C,371/48] F,23/3 
