X: 1
T: Jubyphonic - Children Record (Background 1)
Z: ABC Generated by Starbound Composer v0.8.7
L: 1/4
M: 4/4
Q: 1/4=200
K: G
[E,19/10B,19/10E19/10] z/10 [E,10/7B,10/7E10/7] z/14 [E,19/20B,19/20E19/20] z/20 
[E,15/32B,15/32E15/32] z/32 [E,19/20B,19/20E19/20] z/20 [E,19/20B,19/20E19/20] z/20 [E,2/9B,2/9E2/9] z5/18 [E,2/9B,2/9E2/9] z5/18 [C,19/10G,19/10C19/10] z/10 
[C,10/7G,10/7C10/7] z/14 [C,19/20G,19/20C19/20] z/20 [C,15/32G,15/32C15/32] z/32 [C,19/20G,19/20C19/20] z/20 
[C,19/20G,19/20C19/20] z/20 [C,2/9G,2/9C2/9] z5/18 [C,2/9G,2/9C2/9] z5/18 [E,19/10B,19/10E19/10] z/10 
[E,10/7B,10/7E10/7] z/14 [E,19/20B,19/20E19/20] z/20 [E,15/32B,15/32E15/32] z/32 [E,19/20B,19/20E19/20] z/20 
[E,19/20B,19/20E19/20] z/20 [E,2/9B,2/9E2/9] z5/18 [E,2/9B,2/9E2/9] z5/18 [C,19/10G,19/10C19/10] z/10 
[C,10/7G,10/7C10/7] z/14 [C,19/20G,19/20C19/20] z/20 [C,15/32G,15/32C15/32] z/32 [C,19/20G,19/20C19/20] z/20 
[C,19/20G,19/20C19/20] z/20 [C,2/9G,2/9C2/9] z5/18 [C,2/9G,2/9C2/9] z5/18 [E,19/10B,19/10E19/10] z/10 
[E,10/7B,10/7E10/7] z/14 [E,19/20B,19/20E19/20] z/20 [E,15/32B,15/32E15/32] z/32 [E,19/20B,19/20E19/20] z/20 
[E,19/20B,19/20E19/20] z/20 [E,2/9B,2/9E2/9] z5/18 [E,2/9B,2/9E2/9] z5/18 [C,19/10G,19/10C19/10] z/10 
[C,10/7G,10/7C10/7] z/14 [C,19/20G,19/20C19/20] z/20 [C,15/32G,15/32C15/32] z/32 [C,19/20G,19/20C19/20] z/20 
[C,19/20G,19/20C19/20] z/20 [C,2/9G,2/9C2/9] z5/18 [C,2/9G,2/9C2/9] z5/18 [E,19/10B,19/10E19/10] z/10 
[E,10/7B,10/7E10/7] z/14 [E,19/20B,19/20E19/20] z/20 [E,15/32B,15/32E15/32] z/32 [E,19/20B,19/20E19/20] z/20 
[E,19/20B,19/20E19/20] z/20 [E,2/9B,2/9E2/9] z5/18 [E,2/9B,2/9E2/9] z5/18 [C,19/10G,19/10C19/10] z/10 
[C,10/7G,10/7C10/7] z/14 [C,15/32G,15/32C15/32] z/32 [C,15/32G,15/32C15/32D15/32] z/32 [C,15/32G,15/32C15/32D15/32] z97/32 
[E,15/32B,15/32E15/32] z/32 [E,15/32B,15/32E15/32] z/32 [E,15/32B,15/32E15/32] z/32 [E,15/32B,15/32E15/32] z/32 [E,15/32B,15/32E15/32] z/32 [E,15/32B,15/32E15/32] z/32 [E,15/32B,15/32E15/32] z/32 [E,15/32B,15/32E15/32] z/32 
[E,15/32B,15/32E15/32] z/32 [E,15/32B,15/32E15/32] z/32 [E,15/32B,15/32E15/32] z/32 [E,15/32B,15/32E15/32] z/32 [E,15/32B,15/32E15/32] z/32 [E,15/32B,15/32E15/32] z/32 [E,15/32B,15/32E15/32] z/32 [E,15/32B,15/32E15/32] z/32 
[E,15/32B,15/32E15/32] z/32 [E,15/32B,15/32E15/32] z/32 [E,15/32B,15/32E15/32] z/32 [E,15/32B,15/32E15/32] z/32 [E,15/32B,15/32E15/32] z/32 [E,15/32B,15/32E15/32] z/32 [E,15/32B,15/32E15/32] z/32 [E,15/32B,15/32E15/32] z/32 
[E,15/32B,15/32E15/32] z/32 [E,15/32B,15/32E15/32] z/32 [E,15/32B,15/32E15/32] z/32 [E,15/32B,15/32E15/32] z/32 [E,15/32B,15/32E15/32] z/32 [E,15/32B,15/32E15/32] z/32 [E,15/32B,15/32E15/32] z/32 [E,15/32B,15/32E15/32] z/32 
[E,15/32B,15/32E15/32] z/32 [E,15/32B,15/32E15/32] z/32 [E,15/32B,15/32E15/32] z/32 [E,15/32B,15/32E15/32] z/32 [E,15/32B,15/32E15/32] z/32 [E,15/32B,15/32E15/32] z/32 [E,15/32B,15/32E15/32] z/32 [E,15/32B,15/32E15/32] z/32 
[E,15/32B,15/32E15/32] z/32 [E,15/32B,15/32E15/32] z/32 [E,15/32B,15/32E15/32] z/32 [E,15/32B,15/32E15/32] z/32 [E,15/32B,15/32E15/32] z/32 [E,15/32B,15/32E15/32] z/32 [E,15/32B,15/32E15/32] z/32 [E,15/32B,15/32E15/32] z241/32 
E,19/20 z/20 E2/9 z5/18 E,15/32 z/32 E2/9 z5/18 E,15/32 z/32 E2/9 z5/18 E,15/32 z/32 
E2/9 z5/18 E,15/32 z/32 E2/9 z5/18 E,15/32 z/32 E2/9 z5/18 E,15/32 z/32 E2/9 z5/18 E,15/32 z/32 
E2/9 z5/18 E,15/32 z/32 E2/9 z5/18 E,15/32 z/32 E2/9 z5/18 E,15/32 z/32 E2/9 z5/18 E,15/32 z/32 
E2/9 z5/18 C15/32 z/32 c2/9 z5/18 C15/32 z/32 c2/9 z5/18 B,15/32 z/32 B2/9 z5/18 B,15/32 z/32 
B2/9 z5/18 E,15/32 z/32 E2/9 z5/18 E,15/32 z/32 E2/9 z5/18 E,15/32 z/32 E2/9 z5/18 E,15/32 z/32 
E2/9 z5/18 E,15/32 z/32 E2/9 z5/18 E,15/32 z/32 E2/9 z5/18 E,15/32 z/32 E2/9 z5/18 E,15/32 z/32 
E2/9 z5/18 E,15/32 z/32 E2/9 z5/18 E,15/32 z/32 E2/9 z5/18 E,15/32 z/32 E2/9 z5/18 E,15/32 z/32 
E2/9 z5/18 E15/32 z/32 e2/9 z5/18 B,15/32 z/32 B2/9 z5/18 B,15/32 z/32 B2/9 z5/18 E15/32 z/32 
[e2/9E,19/20] z7/9 E2/9 z5/18 E,15/32 z/32 E2/9 z5/18 E,15/32 z/32 E2/9 z5/18 E,15/32 z/32 
G,19/20 z/20 G2/9 z5/18 G,15/32 z/32 G2/9 z5/18 G,15/32 z/32 G2/9 z5/18 G,15/32 z/32 
C19/20 z/20 c2/9 z5/18 C15/32 z/32 c2/9 z5/18 C15/32 z/32 c2/9 z5/18 C15/32 z/32 
B,19/20 z/20 B2/9 z5/18 B,15/32 z/32 B2/9 z5/18 B,15/32 z/32 B2/9 z5/18 B,15/32 z/32 
E,19/20 z/20 E2/9 z5/18 E,15/32 z/32 E2/9 z5/18 E,15/32 z/32 E2/9 z5/18 E,15/32 z/32 
G,19/20 z/20 G2/9 z5/18 G,15/32 z/32 G2/9 z5/18 G,15/32 z/32 G2/9 z5/18 G,15/32 z/32 
D19/20 z/20 d2/9 z5/18 D15/32 z/32 d2/9 z5/18 D15/32 z/32 d2/9 z5/18 D15/32 z/32 
B,19/20 z/20 B2/9 z5/18 B,15/32 z/32 B2/9 z5/18 A,15/32 z/32 B2/9 z5/18 D15/32 z/32 
[C10/7G10/7] z/14 [C19/20G19/20] z/20 [G19/10c19/10] z138/5 
G,19/20 z/20 C,2/9 z/36 G,/4 C2/9 z/36 G,/4 C,2/9 z/36 G,/4 C2/9 z/36 G,/4 C,2/9 z/36 G,/4 C2/9 z/36 G,/4 
C,2/9 z/36 G,/4 C2/9 z/36 G,/4 C,2/9 z/36 G,/4 C2/9 z/36 G,/4 C,2/9 z/36 G,/4 C2/9 z/36 G,/4 C,2/9 z/36 G,/4 C2/9 z/36 G,/4 
F,19/20 z/20 B,,2/9 z/36 F,/4 B,2/9 z/36 F,/4 B,,2/9 z/36 F,/4 B,2/9 z/36 F,/4 B,,2/9 z/36 F,/4 B,2/9 z/36 F,/4 
B,,2/9 z/36 F,/4 B,2/9 z/36 F,/4 B,,2/9 z/36 F,/4 B,2/9 z/36 F,/4 B,,2/9 z/36 F,/4 B,2/9 z/36 F,/4 B,,2/9 z/36 F,/4 B,2/9 z/36 F,/4 
E,15/32 z/32 A,2/9 z/36 E,/4 A,,2/9 z/36 E,/4 A,2/9 z/36 E,/4 A,,2/9 z/36 E,/4 A,2/9 z/36 E,/4 A,,2/9 z/36 E,/4 A,2/9 z/36 E,/4 
A,,2/9 z/36 E,/4 B,2/9 z/36 F,/4 B,,2/9 z/36 F,/4 B,2/9 z/36 F,/4 B,,2/9 z/36 F,/4 B,2/9 z/36 F,/4 B,,2/9 z/36 F,/4 B,2/9 z/36 F,/4 
B,,2/9 z/36 F,/4 B,2/9 z/36 ^G,/4 B,2/9 z/36 E/4 B,2/9 z/36 E/4 ^G2/9 z/36 E/4 G2/9 z/36 B/4 G2/9 z/36 B/4 e2/9 z/36 B/4 
e2/9 z/36 ^g/4 e2/9 z/36 g/4 b2/9 z/36 e'/4 b2/9 z/36 e'/4 b'2/9 z/36 ^g'/4 b'15/32 z17/32 [g'15/32b'15/32] z17/32 
[^G,,19/20^C,19/20G,19/20^C19/20] z/20 [G,,19/20C,19/20G,19/20C19/20] z/20 [G,,15/32C,15/32G,15/32C15/32] z/32 [G,,15/32C,15/32G,15/32C15/32] z/32 [G,,15/32C,15/32G,15/32C15/32] z/32 [F,,19/20B,,19/20F,19/20B,19/20] z/20 
[F,,15/32B,,15/32F,15/32B,15/32] z/32 [F,,15/32B,,15/32F,15/32B,15/32] z/32 [F,,15/32B,,15/32F,15/32B,15/32] z/32 [F,,15/32B,,15/32F,15/32B,15/32] z/32 [F,,15/32B,,15/32F,15/32B,15/32] z/32 [F,,15/32B,,15/32F,15/32B,15/32] z/32 [A,,19/20E,19/20A,19/20] z/20 
[A,,15/32E,15/32A,15/32] z/32 [A,,19/20E,19/20A,19/20] z/20 [A,,15/32E,15/32A,15/32] z/32 [A,,15/32E,15/32A,15/32] z/32 [A,,15/32E,15/32A,15/32] z/32 [G,,19/20E,19/20G,19/20] z/20 
[G,,15/32E,15/32G,15/32] z/32 [B,,15/32^D,15/32B,15/32^D15/32] z/32 [C,15/32E,15/32C15/32E15/32] z/32 [B,,15/32D,15/32B,15/32D15/32] z/32 [G,,15/32C,15/32G,15/32C15/32] z/32 [F,,15/32B,,15/32F,15/32B,15/32] z/32 [F,,19/20C,19/20F,19/20] z/20 
[F,,15/32C,15/32F,15/32] z/32 [F,,15/32C,15/32F,15/32] z/32 [F,,15/32C,15/32F,15/32] z/32 [F,,15/32C,15/32F,15/32] z/32 [F,,15/32C,15/32F,15/32] z/32 [F,,15/32C,15/32F,15/32] z/32 [G,,19/20D,19/20G,19/20] z/20 
[G,,15/32D,15/32G,15/32] z/32 [G,,15/32D,15/32G,15/32] z/32 [G,,15/32D,15/32G,15/32] z/32 [G,,15/32D,15/32G,15/32] z/32 [G,,15/32D,15/32G,15/32] z/32 [G,,15/32D,15/32G,15/32] z/32 [A,,19/20E,19/20A,19/20] z/20 
[A,,15/32E,15/32A,15/32] z/32 [A,,15/32E,15/32A,15/32] z/32 [A,,15/32E,15/32A,15/32] z/32 [A,,15/32E,15/32A,15/32] z/32 [A,,15/32E,15/32A,15/32] z/32 [A,,15/32E,15/32A,15/32] z/32 [F,,19/20B,,19/20F,19/20B,19/20] z/20 
[F,,15/32B,,15/32F,15/32B,15/32] z/32 [F,,15/32B,,15/32F,15/32B,15/32] z/32 [F,,15/32B,,15/32F,15/32B,15/32] z/32 [F,,15/32B,,15/32F,15/32B,15/32] z/32 [F,,15/32B,,15/32F,15/32B,15/32] z/32 [F,,15/32B,,15/32F,15/32B,15/32] z/32 [G,,19/20C,19/20G,19/20C19/20] z/20 
[G,,15/32C,15/32G,15/32C15/32] z/32 [G,,15/32C,15/32G,15/32C15/32] z/32 [G,,15/32C,15/32G,15/32C15/32] z/32 [G,,15/32C,15/32G,15/32C15/32] z/32 [G,,15/32C,15/32G,15/32C15/32] z/32 [G,,15/32C,15/32G,15/32C15/32] z/32 [F,,19/20B,,19/20F,19/20B,19/20] z/20 
[F,,15/32B,,15/32F,15/32B,15/32] z/32 [F,,15/32B,,15/32F,15/32B,15/32] z/32 [F,,15/32B,,15/32F,15/32B,15/32] z/32 [F,,15/32B,,15/32F,15/32B,15/32] z/32 [F,,15/32B,,15/32F,15/32B,15/32] z/32 [F,,15/32B,,15/32F,15/32B,15/32] z/32 [A,,19/20E,19/20A,19/20] z/20 
[A,,15/32E,15/32A,15/32] z/32 [A,,15/32E,15/32A,15/32] z/32 [A,,15/32E,15/32A,15/32] z/32 [A,,15/32E,15/32A,15/32] z/32 [A,,15/32E,15/32A,15/32] z/32 [A,,15/32E,15/32A,15/32] z/32 [G,,19/20D,19/20G,19/20] z/20 
[G,,15/32D,15/32G,15/32] z/32 [G,,15/32D,15/32G,15/32] z/32 [G,,15/32D,15/32G,15/32] z/32 [G,,15/32D,15/32G,15/32] z/32 [G,,15/32D,15/32G,15/32] z/32 [G,,15/32D,15/32G,15/32] z/32 [F,,19/20C,19/20F,19/20] z/20 
[F,,15/32C,15/32F,15/32] z/32 [F,,15/32C,15/32F,15/32] z/32 [F,,15/32C,15/32F,15/32] z/32 [F,,15/32C,15/32F,15/32] z/32 [F,,15/32C,15/32F,15/32] z/32 [F,,15/32C,15/32F,15/32] z/32 [G,,19/20D,19/20G,19/20] z/20 
[G,,15/32D,15/32G,15/32] z/32 [G,,15/32D,15/32G,15/32] z/32 [G,,15/32D,15/32G,15/32] z/32 [G,,15/32D,15/32G,15/32] z/32 [G,,15/32D,15/32G,15/32] z/32 [G,,15/32D,15/32G,15/32] z/32 [G,,19/20C,19/20G,19/20C19/20] z601/20 
[B,15/32B15/32] z/32 [=D15/32d15/32] z/32 [E15/32e15/32] z/32 [E15/32e15/32] z/32 [B19/20b19/20] z/20 [A19/20a19/20] z/20 
[=G19/20=g19/20] z/20 [F19/20f19/20] z/20 [G15/32g15/32] z/32 [F15/32f15/32] z/32 [D15/32d15/32] z/32 [E15/32e15/32] z/32 
[B,15/32B15/32] z/32 [D15/32d15/32] z/32 [E15/32e15/32] z/32 [E15/32e15/32] z/32 [B15/32b15/32] z17/32 [A15/32a15/32] z/32 [A15/32a15/32] z/32 
[G15/32g15/32] z17/32 [F15/32f15/32] z/32 [F15/32f15/32] z/32 [D15/32d15/32] z/32 [B,15/32B15/32] z/32 [D15/32d15/32] z33/32 
[D15/32d15/32] z/32 [E15/32e15/32] z17/32 [B15/32b15/32] z17/32 [A15/32a15/32] z17/32 [G15/32g15/32] z17/32 
[F19/20f19/20] z/20 [G15/32g15/32] z/32 [F15/32f15/32] z/32 [D15/32d15/32] z/32 [E15/32e15/32] z17/32 [D15/32d15/32] z/32 
[^D15/32^d15/32] z/32 [E15/32e15/32] z/32 [B15/32b15/32] z17/32 [A15/32a15/32] z/32 [A15/32a15/32] z/32 [G15/32g15/32] z17/32 
[=d19/20d'19/20] z/20 [d19/20d'19/20] z/20 [d15/32d'15/32] z/32 [A15/32a15/32] z/32 [B15/32b15/32] z/32 [d15/32d'15/32] z/32 
[e10/7e'10/7] z/14 [b19/20b'19/20] z/20 [a15/32a'15/32] z/32 [g15/32=g'15/32] z/32 [f15/32f'15/32] z/32 
[g15/32g'15/32] z/32 [f15/32f'15/32] z/32 [d15/32d'15/32] z/32 [e15/32e'15/32] z/32 [d19/20d'19/20] z/20 [B15/32b15/32] z/32 [^A15/32^a15/32] z/32 
[=A19/20=a19/20] z/20 [G15/32g15/32] z/32 [A15/32a15/32] z/32 [G15/32g15/32] z/32 [A15/32a15/32] z/32 [^A15/32^a15/32] z/32 [B15/32b15/32] z/32 
[d19/20d'19/20] z/20 [d19/20d'19/20] z/20 [d15/32d'15/32] z17/32 [B15/32b15/32] z/32 [d15/32d'15/32] z/32 
[e10/7e'10/7] z/14 [b19/20b'19/20] z/20 [=a15/32a'15/32] z/32 [g15/32g'15/32] z/32 [f15/32f'15/32] z/32 
[g19/20g'19/20] z/20 [f15/32f'15/32] z/32 [d15/32d'15/32] z/32 [e15/32e'15/32] z17/32 [B15/32b15/32] z/32 [A15/32^a15/32] z/32 
[=A19/20=a19/20] z/20 [G15/32g15/32] z/32 [A15/32a15/32] z/32 [G15/32g15/32] z/32 [A15/32a15/32] z/32 [G15/32g15/32] z/32 [A15/32a15/32] z/32 
[G15/32g15/32] z/32 [^A17/24^a17/24] z/24 [=A17/24=a17/24] z/24 [G15/32g15/32] z/32 [A17/24a17/24] z/24 [G17/24g17/24] z/24 
[=D15/32d15/32] z961/32 
[^c19/10^g19/10^c'19/10] z/10 [E15/32e15/32] z17/32 [B15/32b15/32] z17/32 
[A15/32a15/32] z/32 [G15/32=g15/32] z17/32 [F19/20f19/20] z/20 [G15/32g15/32] z/32 [F15/32f15/32] z/32 [G15/32g15/32] z/32 
[F15/32f15/32] z/32 [G15/32g15/32] z/32 [E15/32e15/32] z/32 [D15/32d15/32] z/32 [E15/32e15/32] z17/32 [B15/32b15/32] z17/32 
[A15/32a15/32] z/32 [G19/20g19/20] z/20 [d19/20d'19/20] z/20 [B15/32b15/32] z/32 [^A15/32^a15/32] z/32 [B15/32b15/32] z/32 
[A15/32a15/32] z/32 [B15/32b15/32] z/32 [A15/32a15/32] z/32 [B15/32b15/32] z/32 [E15/32e15/32] z17/32 [B15/32b15/32] z17/32 
[=A15/32=a15/32] z/32 [G15/32g15/32] z17/32 [F19/20f19/20] z/20 [G15/32g15/32] z/32 [F15/32f15/32] z/32 [D15/32d15/32] z/32 
[E15/32e15/32] z17/32 [D15/32d15/32] z/32 [^D15/32^d15/32] z/32 [E15/32e15/32] z17/32 [B15/32b15/32] z17/32 
[A15/32a15/32] z/32 [G15/32g15/32] z17/32 [=d19/20d'19/20] z/20 [B15/32b15/32] z/32 [A15/32a15/32] z/32 [B15/32b15/32] z/32 
[A15/32a15/32] z/32 [B15/32b15/32] z/32 [d15/32d'15/32] z/32 [e15/32e'15/32] z/32 [=C19/20G19/20] z/20 [C19/20G19/20] z/20 
[C19/20G19/20] z/20 [C19/20G19/20] z/20 [C19/20G19/20] z/20 [C19/20G19/20] z/20 
[C19/20G19/20] z/20 [C19/20G19/20] z/20 [B,19/20F19/20] z/20 [B,19/20F19/20] z/20 
[B,19/20F19/20] z/20 [B,19/20F19/20] z/20 [B,19/20F19/20] z/20 [B,19/20F19/20] z/20 
[B,19/20F19/20] z/20 [B,19/20F19/20] z/20 [^A,19/20=F19/20] z/20 [A,19/20F19/20] z/20 
[A,19/20F19/20] z/20 [A,19/20F19/20] z/20 [A,19/20F19/20] z/20 [A,19/20F19/20] z/20 
[A,19/20F19/20] z/20 [A,19/20F19/20] z/20 [=A,19/20E19/20] z/20 [A,19/20E19/20] z/20 
[A,19/20E19/20] z/20 [A,19/20E19/20] z/20 [A,19/20E19/20] z/20 [A,19/20E19/20] z/20 
[A,19/20E19/20] z/20 [A,19/20E19/20] z/20 [C19/20G19/20] z/20 [C19/20G19/20] z/20 
[C19/20G19/20] z/20 [C19/20G19/20] z/20 [C19/20G19/20] z/20 [C19/20G19/20] z/20 
[C19/20G19/20] z/20 [C19/20G19/20] z/20 [B,19/20^F19/20] z/20 [B,19/20F19/20] z/20 
[B,19/20F19/20] z/20 [B,19/20F19/20] z/20 [B,19/20F19/20] z/20 [B,19/20F19/20] z/20 
[B,19/20F19/20] z/20 [B,19/20F19/20] z/20 [A,19/20E19/20] z/20 [A,19/20E19/20] z/20 
[A,19/20E19/20] z/20 [A,19/20E19/20] z/20 [B,19/20F19/20] z/20 [B,19/20F19/20] z/20 
[B,19/20F19/20] z/20 [B,19/20F19/20] z/20 [C19/20=c19/20] z/20 [=C,15/32=G,15/32C15/32G15/32] z/32 [C173/28c173/28] z1549/28 
[^A,,19/20D,19/20^A,19/20D19/20] z/20 [A,,19/20D,19/20A,19/20D19/20] z/20 [A,,15/32D,15/32A,15/32D15/32] z/32 [A,,15/32D,15/32A,15/32D15/32] z/32 [A,,15/32D,15/32A,15/32D15/32] z/32 [G,,19/20^C,19/20^G,19/20^C19/20] z/20 
[G,,15/32C,15/32G,15/32C15/32] z/32 [G,,15/32C,15/32G,15/32C15/32] z/32 [G,,15/32C,15/32G,15/32C15/32] z/32 [G,,15/32C,15/32G,15/32C15/32] z/32 [G,,15/32C,15/32G,15/32C15/32] z/32 [G,,15/32C,15/32G,15/32C15/32] z/32 [F,,19/20B,,19/20F,19/20B,19/20] z/20 
[F,,15/32B,,15/32F,15/32B,15/32] z/32 [F,,19/20B,,19/20F,19/20B,19/20] z/20 [F,,15/32B,,15/32F,15/32B,15/32] z/32 [F,,15/32B,,15/32F,15/32B,15/32] z/32 [F,,15/32B,,15/32F,15/32B,15/32] z/32 [F,,19/20A,,19/20F,19/20A,19/20] z/20 
[F,,15/32A,,15/32F,15/32A,15/32] z/32 [C,15/32=F,15/32C15/32=F15/32] z/32 [D,15/32^F,15/32D15/32^F15/32] z/32 [C,15/32=F,15/32C15/32=F15/32] z/32 [A,,15/32D,15/32A,15/32D15/32] z/32 [G,,15/32C,15/32G,15/32C15/32] z/32 [G,,19/20D,19/20G,19/20] z/20 
[G,,15/32D,15/32G,15/32] z/32 [G,,15/32D,15/32G,15/32] z/32 [G,,15/32D,15/32G,15/32] z/32 [G,,15/32D,15/32G,15/32] z/32 [G,,15/32D,15/32G,15/32] z/32 [G,,15/32D,15/32G,15/32] z/32 [=F,,19/20A,,19/20F,19/20A,19/20] z/20 
[F,,15/32A,,15/32F,15/32A,15/32] z/32 [F,,15/32A,,15/32F,15/32A,15/32] z/32 [F,,15/32A,,15/32F,15/32A,15/32] z/32 [F,,15/32A,,15/32F,15/32A,15/32] z/32 [F,,15/32A,,15/32F,15/32A,15/32] z/32 [F,,15/32A,,15/32F,15/32A,15/32] z/32 [^F,,19/20B,,19/20^F,19/20B,19/20] z/20 
[F,,15/32B,,15/32F,15/32B,15/32] z/32 [F,,15/32B,,15/32F,15/32B,15/32] z/32 [F,,15/32B,,15/32F,15/32B,15/32] z/32 [F,,15/32B,,15/32F,15/32B,15/32] z/32 [F,,15/32B,,15/32F,15/32B,15/32] z/32 [F,,15/32B,,15/32F,15/32B,15/32] z/32 [G,,19/20C,19/20G,19/20C19/20] z/20 
[G,,15/32C,15/32G,15/32C15/32] z/32 [G,,15/32C,15/32G,15/32C15/32] z/32 [G,,15/32C,15/32G,15/32C15/32] z/32 [G,,15/32C,15/32G,15/32C15/32] z/32 [G,,15/32C,15/32G,15/32C15/32] z/32 [G,,15/32C,15/32G,15/32C15/32] z/32 [A,,19/20D,19/20A,19/20D19/20] z/20 
[A,,15/32D,15/32A,15/32D15/32] z/32 [A,,15/32D,15/32A,15/32D15/32] z/32 [A,,15/32D,15/32A,15/32D15/32] z/32 [A,,15/32D,15/32A,15/32D15/32] z/32 [A,,15/32D,15/32A,15/32D15/32] z/32 [A,,15/32D,15/32A,15/32D15/32] z/32 [G,,19/20C,19/20G,19/20C19/20] z/20 
[G,,15/32C,15/32G,15/32C15/32] z/32 [G,,15/32C,15/32G,15/32C15/32] z/32 [G,,15/32C,15/32G,15/32C15/32] z/32 [G,,15/32C,15/32G,15/32C15/32] z/32 [G,,15/32C,15/32G,15/32C15/32] z/32 [G,,15/32C,15/32G,15/32C15/32] z/32 [F,,19/20B,,19/20F,19/20B,19/20] z/20 
[F,,15/32B,,15/32F,15/32B,15/32] z/32 [F,,15/32B,,15/32F,15/32B,15/32] z/32 [F,,15/32B,,15/32F,15/32B,15/32] z/32 [F,,15/32B,,15/32F,15/32B,15/32] z/32 [F,,15/32B,,15/32F,15/32B,15/32] z/32 [F,,15/32B,,15/32F,15/32B,15/32] z/32 [=F,,19/20A,,19/20=F,19/20A,19/20] z/20 
[F,,15/32A,,15/32F,15/32A,15/32] z/32 [F,,15/32A,,15/32F,15/32A,15/32] z/32 [F,,15/32A,,15/32F,15/32A,15/32] z/32 [F,,15/32A,,15/32F,15/32A,15/32] z/32 [F,,15/32A,,15/32F,15/32A,15/32] z/32 [F,,15/32A,,15/32F,15/32A,15/32] z/32 [G,,19/20D,19/20G,19/20] z/20 
[G,,15/32D,15/32G,15/32] z/32 [G,,15/32D,15/32G,15/32] z/32 [G,,15/32D,15/32G,15/32] z/32 [G,,15/32D,15/32G,15/32] z/32 [G,,15/32D,15/32G,15/32] z/32 [G,,15/32D,15/32G,15/32] z/32 [F,,19/20A,,19/20F,19/20A,19/20] z/20 
[F,,15/32A,,15/32F,15/32A,15/32] z/32 [F,,15/32A,,15/32F,15/32A,15/32] z/32 [F,,15/32A,,15/32F,15/32A,15/32] z/32 [F,,15/32A,,15/32F,15/32A,15/32] z/32 [F,,15/32A,,15/32F,15/32A,15/32] z/32 [F,,15/32A,,15/32F,15/32A,15/32] z/32 [A,,19/20D,19/20A,19/20D19/20] z/20 
[C,19/20^F,19/20C19/20^F19/20] z/20 [D,19/20G,19/20D19/20^G19/20] z/20 [=F,19/20A,19/20=F19/20^A19/20] z/20 [A,19/20D19/20A19/20^d19/20] z/20 
[F,15/32A,15/32F15/32A15/32] z/32 [E,15/32=A,15/32E15/32=A15/32] z/32 [F,15/32^A,15/32F15/32^A15/32] z/32 [D,15/32G,15/32D15/32G15/32] z/32 [G,,15/32C,15/32G,15/32C15/32] z/32 [=A,,15/32=D,15/32=A,15/32=D15/32] z/32 [^A,,19/20^D,19/20^A,19/20^D19/20] 
