X: 1
T: Mob Psycho 100 - Refrain Boy (Instrustment)
Z: ABC Generated by Starbound Composer v0.8.7
L: 1/4
M: 4/4
Q: 1/4=190
K: C
z4 
[^F,4^C,4^F,,4] 
[^G,,4^D,4^G,4] 
[=F,,4=C,4=F,4] 
[_B,4_B,,4F,4] 
[^F,/^F,,/] F,,/ [F,/^C,/] F,,/ [F,/C,/] F,,/ [C,/F,/] F,,/ 
[G,G,,D,] z3 
[=F,2B,,2G,2] z2 
[^D,,D,B,,] [B,,D,,D,] z2 
B,,/ F,/ [F,B,] B,,/ F,/ [F,B,] 
F,,/ C,/ [^F,C,] F,,/ C,/ [C,F,] 
^C,,/ G,,/ [G,,C,] C,,/ G,,/ [G,,C,] 
G,,/ D,/ [D,G,] G,,/ [D,/G,/] G,,/ [G,/D,/] 
B,,/ =F,/ [F,B,] B,,/ F,/ [F,B,] 
F,,/ C,/ [C,^F,] F,,/ C,/ [F,C,] 
C,,/ G,,/ [G,,C,] C,,/ G,,/ [G,,C,] 
G,,/ D,/ [G,D,] G,,/ D,/ [D,G,] 
F,, F,, F,, F,, 
F,, F,, F,, F,, 
=F,, F,, F,, F,, 
F,, F,, F,, F,, 
D,, D,, D,, D,, 
G,, G,, G,, G,, 
B,, B,, B,, B,, z/ 
[G,,/D,/G,/] z/ [G,,/D,/G,/] z/ [G,/D,/G,,/] z/ [G,,/D,/G,/] ^F,,/ 
C,/ F,/ B, F,/ C,/ F,, 
F,,/ [C,F,] F,,/ [C,F,] F,,/ =F,,/ 
=C,/ =F,/ G, F,/ C,/ F,, 
F,,/ [F,C,] F,,/ [C,F,] F,,/ D,,/ 
B,,/ D,/ ^F, D,/ B,, G,, 
[D,G,] G,,/ [G,3/D,3/] C,,/ G,,/ 
^C,/ D,/ =F, G,/ ^C3/ 
G,/ C,5/ [B,,/F,/B,/] [B,/F,/B,,/] z 
[F,/B,,/B,/] [B,/F,/B,,/] z [F,/=C,/F,,/] [F,/C,/F,,/] z 
[F,,/C,/F,/] [F,,/C,/F,/] z ^F,,/ [^F,^C,] F,,/ 
[F,C,] F,,/ [F,C,] F,,/ [C,F,] 
F,,/ [C,F,] F,,/ [B,,/=F,/B,/] [B,/F,/B,,/] z 
[F,/B,,/B,/] [B,/F,/B,,/] z [=F,,/=C,/F,/] [F,,/C,/F,/] z 
[F,,/C,/F,/] [F,/C,/F,,/] z [D,,D,] D,,/ [B,,D,] 
D,,/ [B,,D,] [F,F,,] F,,/ [F,C,] 
F,,/ [F,C,] [^F,^F,,] [=F,,=F,] [^F,,^F,] 
[=G,,=G,] [^G,/^G,,/] G,,/ [G,/D,/] G,,/ [G,/D,/] G,,/ 
[G,/D,/] [C,=F,=F,,] [F,,/C,/F,/] [F,,/C,/F,/] [F,/C,/F,,/] z2 
^F,,/ F,,/ [^C,^F,] F,,/ F,,/ [F,C,] 
G,,/ G,,/ [D,G,] G,,/ G,,/ [G,D,] 
=F,,/ F,,/ [=C,=F,] F,,/ F,,/ [C,F,] 
B,,/ B,,/ [B,F,] B,,/ B,,/ [F,B,] 
D,,/ D,,/ [B,,D,] D,,/ D,,/ [B,,D,] 
A,,/ A,,/ [F,A,] A,,/ A,,/ [A,F,] 
[B,,/B,/] B,,/ [F,/B,/] B,,/ [F,/B,/] B,,/ [F,/B,/] B,,/ 
[C^C,G,] z/ [C,G,C] z/ [C,G,C] 
^F,,/ F,,/ [C,^F,] F,,/ F,,/ [C,F,] 
F,,/ F,,/ [C,F,] F,,/ F,,/ [C,F,] 
=F,,/ F,,/ [=F,=C,] F,,/ F,,/ [C,F,] 
B,,/ B,,/ [B,F,] B,,/ B,,/ [F,B,] 
[D,/D,,/] [D,/D,,/] z/ [D,,B,,D,] D,,/ [D,B,,] 
[F,,/F,/] [F,,/F,/] z/ [F,,C,F,] F,,/ [C,F,] 
[^F,/^F,,/] [F,,/F,/] z/ [F,,F,^C,] F,,/ [C,F,] 
[G,/G,,/] G,,/ [G,/D,/] G,,/ [G,/D,/] G,,/ [G,/D,/] G,,/ 
[G,,/D,/G,/] [G,,/D,/G,/] [G,,/D,/G,/] z5/ 
B,,/ =F,/ [F,B,] B,,/ F,/ [B,F,] 
F,,/ C,/ [^F,C,] F,,/ C,/ [C,F,] 
C,/ G,/ [G,C] C,/ G,/ [G,C] 
G,,/ D,/ [D,G,] G,,/ [D,/G,/] G,,/ [D,/G,/] 
B,,/ =F,/ [F,B,] B,,/ F,/ [F,B,] 
F,,/ C,/ [C,^F,] F,,/ C,/ [C,F,] 
C,/ G,/ [G,C] C,/ G,/ [CG,] 
[G,D,G,,] z/ [G,,D,G,] z/ [G,G,,D,] 
[=F,3/B,,3/G,3/] z5/ 
[G,F,B,,] [B,,F,G,] 
