X: 1
T: NateWantsToBattle - Branded
Z: ABC Generated by Starbound Composer v0.8.7
L: 1/4
M: 4/4
Q: 1/4=89
K: F
d15/32 z/32 f15/32 z/32 g15/32 z/32 a2/9 z/36 d17/36 z/36 d/4 a15/32 z/32 g15/32 z/32 f15/32 z129/32 
d15/32 z/32 f15/32 z/32 g15/32 z/32 a2/9 z/36 d17/36 z/36 d/4 a15/32 z/32 g15/32 z/32 f15/32 z129/32 
[d15/32D,15/32F,15/32A,15/32D19/10] z/32 [f15/32D,15/32F,15/32A,15/32] z/32 [g15/32D,15/32F,15/32A,15/32] z/32 [a2/9D,15/32F,15/32A,15/32] z/36 [z/4d17/36] [z/4C,15/32E,15/32G,15/32C19/10] d/4 [a15/32C,15/32E,15/32G,15/32] z/32 [g15/32C,15/32E,15/32G,15/32] z/32 [f15/32C,15/32E,15/32G,15/32] z/32 
[B,,15/32D,15/32F,15/32g17/24F19/20] z/32 [z/4B,,15/32D,15/32F,15/32] f/4 [D15/32B,,15/32D,15/32F,15/32g17/24] z/32 [F2/9B,,15/32D,15/32F,15/32] z/36 [f/4G/4] [g2/9A15/32C,15/32E,15/32G,15/32] z/36 f/4 [g2/9F2/9C,15/32E,15/32G,15/32] z/36 [a/4A17/36] [z/4g15/32C,15/32E,15/32G,15/32] F/4 [f15/32A15/32C,15/32E,15/32G,15/32] z/32 
[d15/32D,15/32F,15/32A,15/32D19/10] z/32 [f15/32D,15/32F,15/32A,15/32] z/32 [g15/32D,15/32F,15/32A,15/32] z/32 [a2/9D,15/32F,15/32A,15/32] z/36 [z/4d17/36] [z/4C,15/32E,15/32G,15/32C19/10] d/4 [a15/32C,15/32E,15/32G,15/32] z/32 [g15/32C,15/32E,15/32G,15/32] z/32 [f15/32C,15/32E,15/32G,15/32] z/32 
[B,,15/32D,15/32F,15/32F19/20] z/32 [B,,15/32D,15/32F,15/32] z/32 [D15/32B,,15/32D,15/32F,15/32] z/32 [F2/9B,,15/32D,15/32F,15/32] z/36 G/4 [A15/32C,15/32E,15/32G,15/32] z/32 [F2/9C,15/32E,15/32G,15/32] z/36 [z/4A17/36] [z/4C,15/32E,15/32G,15/32] F/4 [A15/32C,15/32E,15/32G,15/32] z/32 
[D/4F/4] A/4 [A2/9D/4F/4] z/36 G/4 [A2/9D/4F/4] z/36 c/4 [A2/9D/4F/4] z/36 G/4 [^C/4F/4A15/32] z/4 [C/4F/4] G/4 [A2/9C/4F/4] z/36 c/4 [A2/9C/4F/4] z/36 G/4 
[=C/4F/4A15/32] z/4 [C/4F/4] G/4 [A2/9C/4F/4] z/36 G/4 [F2/9C/4F/4] z/36 G/4 [^C/4E/4A15/32] z/4 [C/4E/4G15/32] z/4 [C/4E/4B15/32] z/4 [C/4E/4A15/32] z/4 
[D/4F/4] A/4 [A2/9D/4F/4] z/36 G/4 [A2/9D/4F/4] z/36 c/4 [A2/9D/4F/4] z/36 G/4 [C/4F/4A15/32] z/4 [C/4F/4] G/4 [A2/9C/4F/4] z/36 c/4 [A2/9C/4F/4] z/36 G/4 
[=C/4F/4A15/32] z/4 [C/4F/4] z/4 [C/4F/4] [d/4f/4] [d2/9f2/9C/4F/4] z/36 [e/4g/4] [^C/4E/4f15/32a15/32] z/4 [C/4E/4e15/32g15/32] z/4 [C/4E/4d15/32f15/32] z/4 [C/4E/4^c15/32e15/32] z/4 
[D,/4F,/4d15/32f15/32] z/4 [D,/4F,/4f15/32a15/32] z/4 [D,/4F,/4d15/32f15/32] z/4 [D,/4F,/4f15/32a15/32] z/4 [e2/9g2/9^C,/4F,/4] z/36 [z/4e17/36g17/36] [C,/4F,/4] [d/4f/4] [C,/4F,/4e15/32g15/32] z/4 [C,/4F,/4d15/32f15/32] z/4 
[=C,/4F,/4d15/32f15/32] z/4 [C,/4F,/4f15/32a15/32] z/4 [C,/4F,/4d15/32f15/32] z/4 [C,/4F,/4f15/32a15/32] z/4 [f2/9a2/9B,,/4F,/4] z/36 [e/4g/4] [B,,/4F,/4d15/32f15/32] z/4 [C,/4F,/4g15/32b15/32] z/4 [C,/4F,/4f15/32a15/32] z/4 
[D,/4F,/4d15/32f15/32] z/4 [D,/4F,/4f15/32a15/32] z/4 [D,/4F,/4d15/32f15/32] z/4 [D,/4F,/4f15/32a15/32] z/4 [e2/9g2/9^C,/4F,/4] z/36 [z/4e17/36g17/36] [C,/4F,/4] [d/4f/4] [C,/4F,/4e15/32g15/32] z/4 [C,/4F,/4d15/32f15/32] z/4 
[=C,/4F,/4] [d/4f/4] [d2/9f2/9C,/4F,/4] z/36 [d/4f/4] [d2/9f2/9C,/4F,/4] z/36 [f/4a/4] [e2/9g2/9C,/4F,/4] z/36 [d/4f/4] [c/4e/4^C,/4F,/4] z7/4 
[D,15/32F,15/32A,15/32] z/32 [D,2/9F,2/9A,2/9A15/32f15/32a15/32] z/36 [z/4D,17/36F,17/36A,17/36] [z/4A15/32f15/32a15/32] [D,/4F,/4A,/4] [A15/32f15/32a15/32D,15/32F,15/32A,15/32] z/32 [A2/9f2/9a2/9=C,15/32E,15/32G,15/32] z/36 [G/4e/4g/4] [C,2/9E,2/9G,2/9F15/32d15/32f15/32] z/36 [z/4C,17/36E,17/36G,17/36] [z/4F19/20d19/20f19/20] [C,/4E,/4G,/4] [C,15/32E,15/32G,15/32] z/32 
[B,,15/32D,15/32F,15/32] z/32 [A2/9f2/9a2/9B,,2/9D,2/9F,2/9] z/36 [A17/36f17/36a17/36B,,17/36D,17/36F,17/36] z/36 [B,,/4D,/4F,/4A17/36f17/36a17/36] [z/4B,,15/32D,15/32F,15/32] [A/4f/4a/4] [G15/32e15/32g15/32C,15/32E,15/32G,15/32] z/32 [C,2/9E,2/9G,2/9F15/32d15/32f15/32] z/36 [z/4C,17/36E,17/36G,17/36] [z/4B15/32g15/32b15/32] [C,/4E,/4G,/4] [A15/32f15/32a15/32C,15/32E,15/32G,15/32] z/32 
[D,15/32F,15/32A,15/32] z/32 [D,2/9F,2/9A,2/9A15/32f15/32a15/32] z/36 [z/4D,17/36F,17/36A,17/36] [z/4A15/32f15/32a15/32] [D,/4F,/4A,/4] [A15/32f15/32a15/32D,15/32F,15/32A,15/32] z/32 [A2/9f2/9a2/9C,15/32E,15/32G,15/32] z/36 [G/4e/4g/4] [C,2/9E,2/9G,2/9F15/32d15/32f15/32] z/36 [z/4C,17/36E,17/36G,17/36] [z/4F19/20d19/20f19/20] [C,/4E,/4G,/4] [C,15/32E,15/32G,15/32] z/32 
[z/4B,,15/32D,15/32F,15/32] [D/4F/4d/4] [D2/9F2/9d2/9B,,2/9D,2/9F,2/9] z/36 [D/4F/4d/4B,,17/36D,17/36F,17/36] [D2/9F2/9d2/9] z/36 [F/4A/4f/4B,,/4D,/4F,/4] [E2/9G2/9e2/9B,,15/32D,15/32F,15/32] z/36 [D/4F/4d/4] [C15/32E15/32c15/32A,,15/32^C,15/32E,15/32] z/32 [A,,2/9C,2/9E,2/9] z/36 [z/4A,,17/36C,17/36E,17/36] [z/4a3/4^c'3/4e'3/4a'3/4] [A,,/4C,/4E,/4] [A,,15/32C,15/32E,15/32] z/32 
[D,15/32F,15/32A,15/32] z/32 [D,2/9F,2/9A,2/9A15/32f15/32a15/32] z/36 [z/4D,17/36F,17/36A,17/36] [z/4A15/32f15/32a15/32] [D,/4F,/4A,/4] [A15/32f15/32a15/32D,15/32F,15/32A,15/32] z/32 [A2/9f2/9a2/9=C,15/32E,15/32G,15/32] z/36 [G/4e/4g/4] [C,2/9E,2/9G,2/9F15/32d15/32f15/32] z/36 [z/4C,17/36E,17/36G,17/36] [z/4F19/20d19/20f19/20] [C,/4E,/4G,/4] [C,15/32E,15/32G,15/32] z/32 
[B,,15/32D,15/32F,15/32] z/32 [A2/9f2/9a2/9B,,2/9D,2/9F,2/9] z/36 [A17/36f17/36a17/36B,,17/36D,17/36F,17/36] z/36 [B,,/4D,/4F,/4A17/36f17/36a17/36] [z/4B,,15/32D,15/32F,15/32] [A/4f/4a/4] [G15/32e15/32g15/32C,15/32E,15/32G,15/32] z/32 [C,2/9E,2/9G,2/9F15/32d15/32f15/32] z/36 [z/4C,17/36E,17/36G,17/36] [z/4B15/32g15/32b15/32] [C,/4E,/4G,/4] [A15/32f15/32a15/32C,15/32E,15/32G,15/32] z/32 
[A15/32f15/32a15/32D,15/32F,15/32A,15/32] z/32 [G2/9e2/9g2/9D,2/9F,2/9A,2/9] z/36 [G17/36e17/36g17/36D,17/36F,17/36A,17/36] z/36 [D,/4F,/4A,/4G17/36e17/36g17/36] [z/4D,15/32F,15/32A,15/32] [F/4d/4f/4] [G15/32e15/32g15/32C,15/32E,15/32G,15/32] z/32 [C,2/9E,2/9G,2/9A15/32f15/32a15/32] z/36 [z/4C,17/36E,17/36G,17/36] [G2/9e2/9g2/9] z/36 [F/4d/4f/4C,/4E,/4G,/4] [F15/32d15/32f15/32C,15/32E,15/32G,15/32] z/32 
[z/4B,,15/32D,15/32F,15/32] [D/4F/4d/4] [D2/9F2/9d2/9B,,2/9D,2/9F,2/9] z/36 [D/4F/4d/4B,,17/36D,17/36F,17/36] [D2/9F2/9d2/9] z/36 [F/4A/4f/4B,,/4D,/4F,/4] [E2/9G2/9e2/9B,,15/32D,15/32F,15/32] z/36 [D/4F/4d/4] [C15/32E15/32c15/32A,,15/32^C,15/32E,15/32] z/32 [A,,2/9C,2/9E,2/9] z/36 [z/4A,,17/36C,17/36E,17/36] [z/4a3/4c'3/4e'3/4a'3/4] [A,,/4C,/4E,/4] [A,,15/32C,15/32E,15/32] z/32 
[d15/32D,15/32F,15/32A,15/32D19/10] z/32 [f15/32D,15/32F,15/32A,15/32] z/32 [g15/32D,15/32F,15/32A,15/32] z/32 [a2/9D,15/32F,15/32A,15/32] z/36 [z/4d17/36] [z/4=C,15/32E,15/32G,15/32=C19/10] d/4 [a15/32C,15/32E,15/32G,15/32] z/32 [g15/32C,15/32E,15/32G,15/32] z/32 [f15/32C,15/32E,15/32G,15/32] z/32 
[B,,15/32D,15/32F,15/32g17/24F19/20] z/32 [z/4B,,15/32D,15/32F,15/32] f/4 [D15/32B,,15/32D,15/32F,15/32g17/24] z/32 [F2/9B,,15/32D,15/32F,15/32] z/36 [f/4G/4] [g2/9A15/32C,15/32E,15/32G,15/32] z/36 f/4 [g2/9F2/9C,15/32E,15/32G,15/32] z/36 [a/4A17/36] [z/4g15/32C,15/32E,15/32G,15/32] F/4 [f15/32A15/32C,15/32E,15/32G,15/32] z/32 
[d15/32D,15/32F,15/32A,15/32D19/10] z/32 [f15/32D,15/32F,15/32A,15/32] z/32 [g15/32D,15/32F,15/32A,15/32] z/32 [a2/9D,15/32F,15/32A,15/32] z/36 [z/4d17/36] [z/4C,15/32E,15/32G,15/32C19/10] d/4 [a15/32C,15/32E,15/32G,15/32] z/32 [g15/32C,15/32E,15/32G,15/32] z/32 [f15/32C,15/32E,15/32G,15/32] z/32 
[B,,15/32D,15/32F,15/32F19/20] z/32 [B,,15/32D,15/32F,15/32] z/32 [D15/32B,,15/32D,15/32F,15/32] z/32 [F2/9B,,15/32D,15/32F,15/32] z/36 G/4 [A15/32C,15/32E,15/32G,15/32] z/32 [F2/9C,15/32E,15/32G,15/32] z/36 [z/4A17/36] [z/4C,15/32E,15/32G,15/32] F/4 [A15/32C,15/32E,15/32G,15/32] z/32 
[D/4F/4] A/4 [A2/9D/4F/4] z/36 G/4 [A2/9D/4F/4] z/36 =c/4 [A2/9D/4F/4] z/36 G/4 [^C/4F/4A15/32] z/4 [C/4F/4] G/4 [A2/9C/4F/4] z/36 c/4 [A2/9C/4F/4] z/36 G/4 
[=C/4F/4A15/32] z/4 [C/4F/4] G/4 [A2/9C/4F/4] z/36 G/4 [F2/9C/4F/4] z/36 G/4 [^C/4E/4A15/32] z/4 [C/4E/4G15/32] z/4 [C/4E/4B15/32] z/4 [C/4E/4A15/32] z/4 
[D/4F/4] A/4 [A2/9D/4F/4] z/36 G/4 [A2/9D/4F/4] z/36 c/4 [A2/9D/4F/4] z/36 G/4 [C/4F/4A15/32] z/4 [C/4F/4] G/4 [A2/9C/4F/4] z/36 c/4 [A2/9C/4F/4] z/36 G/4 
[=C/4F/4A15/32] z/4 [C/4F/4] z/4 [C/4F/4] [d/4f/4] [d2/9f2/9C/4F/4] z/36 [e/4g/4] [^C/4E/4f15/32a15/32] z/4 [C/4E/4e15/32g15/32] z/4 [C/4E/4d15/32f15/32] z/4 [C/4E/4^c15/32e15/32] z/4 
[D,/4F,/4d15/32f15/32] z/4 [D,/4F,/4f15/32a15/32] z/4 [D,/4F,/4d15/32f15/32] z/4 [D,/4F,/4f15/32a15/32] z/4 [e2/9g2/9^C,/4F,/4] z/36 [z/4e17/36g17/36] [C,/4F,/4] [d/4f/4] [C,/4F,/4e15/32g15/32] z/4 [C,/4F,/4d15/32f15/32] z/4 
[=C,/4F,/4d15/32f15/32] z/4 [C,/4F,/4f15/32a15/32] z/4 [C,/4F,/4d15/32f15/32] z/4 [C,/4F,/4f15/32a15/32] z/4 [f2/9a2/9B,,/4F,/4] z/36 [e/4g/4] [B,,/4F,/4d15/32f15/32] z/4 [C,/4F,/4g15/32b15/32] z/4 [C,/4F,/4f15/32a15/32] z/4 
[D,/4F,/4d15/32f15/32] z/4 [D,/4F,/4f15/32a15/32] z/4 [D,/4F,/4d15/32f15/32] z/4 [D,/4F,/4f15/32a15/32] z/4 [e2/9g2/9^C,/4F,/4] z/36 [z/4e17/36g17/36] [C,/4F,/4] [d/4f/4] [C,/4F,/4e15/32g15/32] z/4 [C,/4F,/4d15/32f15/32] z/4 
[=C,/4F,/4] [d/4f/4] [d2/9f2/9C,/4F,/4] z/36 [d/4f/4] [d2/9f2/9C,/4F,/4] z/36 [f/4a/4] [e2/9g2/9C,/4F,/4] z/36 [d/4f/4] [c/4e/4^C,/4F,/4] z7/4 
[D,15/32F,15/32A,15/32] z/32 [D,2/9F,2/9A,2/9A15/32f15/32a15/32] z/36 [z/4D,17/36F,17/36A,17/36] [z/4A15/32f15/32a15/32] [D,/4F,/4A,/4] [A15/32f15/32a15/32D,15/32F,15/32A,15/32] z/32 [A2/9f2/9a2/9=C,15/32E,15/32G,15/32] z/36 [G/4e/4g/4] [C,2/9E,2/9G,2/9F15/32d15/32f15/32] z/36 [z/4C,17/36E,17/36G,17/36] [z/4F19/20d19/20f19/20] [C,/4E,/4G,/4] [C,15/32E,15/32G,15/32] z/32 
[B,,15/32D,15/32F,15/32] z/32 [A2/9f2/9a2/9B,,2/9D,2/9F,2/9] z/36 [A17/36f17/36a17/36B,,17/36D,17/36F,17/36] z/36 [B,,/4D,/4F,/4A17/36f17/36a17/36] [z/4B,,15/32D,15/32F,15/32] [A/4f/4a/4] [G15/32e15/32g15/32C,15/32E,15/32G,15/32] z/32 [C,2/9E,2/9G,2/9F15/32d15/32f15/32] z/36 [z/4C,17/36E,17/36G,17/36] [z/4B15/32g15/32b15/32] [C,/4E,/4G,/4] [A15/32f15/32a15/32C,15/32E,15/32G,15/32] z/32 
[D,15/32F,15/32A,15/32] z/32 [D,2/9F,2/9A,2/9A15/32f15/32a15/32] z/36 [z/4D,17/36F,17/36A,17/36] [z/4A15/32f15/32a15/32] [D,/4F,/4A,/4] [A15/32f15/32a15/32D,15/32F,15/32A,15/32] z/32 [A2/9f2/9a2/9C,15/32E,15/32G,15/32] z/36 [G/4e/4g/4] [C,2/9E,2/9G,2/9F15/32d15/32f15/32] z/36 [z/4C,17/36E,17/36G,17/36] [z/4F19/20d19/20f19/20] [C,/4E,/4G,/4] [C,15/32E,15/32G,15/32] z/32 
[z/4B,,15/32D,15/32F,15/32] [D/4F/4d/4] [D2/9F2/9d2/9B,,2/9D,2/9F,2/9] z/36 [D/4F/4d/4B,,17/36D,17/36F,17/36] [D2/9F2/9d2/9] z/36 [F/4A/4f/4B,,/4D,/4F,/4] [E2/9G2/9e2/9B,,15/32D,15/32F,15/32] z/36 [D/4F/4d/4] [C15/32E15/32c15/32A,,15/32^C,15/32E,15/32] z/32 [A,,2/9C,2/9E,2/9] z/36 [z/4A,,17/36C,17/36E,17/36] [z/4a3/4c'3/4e'3/4a'3/4] [A,,/4C,/4E,/4] [A,,15/32C,15/32E,15/32] z/32 
[D,15/32F,15/32A,15/32] z/32 [D,2/9F,2/9A,2/9A15/32f15/32a15/32] z/36 [z/4D,17/36F,17/36A,17/36] [z/4A15/32f15/32a15/32] [D,/4F,/4A,/4] [A15/32f15/32a15/32D,15/32F,15/32A,15/32] z/32 [A2/9f2/9a2/9=C,15/32E,15/32G,15/32] z/36 [G/4e/4g/4] [C,2/9E,2/9G,2/9F15/32d15/32f15/32] z/36 [z/4C,17/36E,17/36G,17/36] [z/4F19/20d19/20f19/20] [C,/4E,/4G,/4] [C,15/32E,15/32G,15/32] z/32 
[B,,15/32D,15/32F,15/32] z/32 [A2/9f2/9a2/9B,,2/9D,2/9F,2/9] z/36 [A17/36f17/36a17/36B,,17/36D,17/36F,17/36] z/36 [B,,/4D,/4F,/4A17/36f17/36a17/36] [z/4B,,15/32D,15/32F,15/32] [A/4f/4a/4] [G15/32e15/32g15/32C,15/32E,15/32G,15/32] z/32 [C,2/9E,2/9G,2/9F15/32d15/32f15/32] z/36 [z/4C,17/36E,17/36G,17/36] [z/4B15/32g15/32b15/32] [C,/4E,/4G,/4] [A15/32f15/32a15/32C,15/32E,15/32G,15/32] z/32 
[A15/32f15/32a15/32D,15/32F,15/32A,15/32] z/32 [G2/9e2/9g2/9D,2/9F,2/9A,2/9] z/36 [G17/36e17/36g17/36D,17/36F,17/36A,17/36] z/36 [D,/4F,/4A,/4G17/36e17/36g17/36] [z/4D,15/32F,15/32A,15/32] [F/4d/4f/4] [G15/32e15/32g15/32C,15/32E,15/32G,15/32] z/32 [C,2/9E,2/9G,2/9A15/32f15/32a15/32] z/36 [z/4C,17/36E,17/36G,17/36] [G2/9e2/9g2/9] z/36 [F/4d/4f/4C,/4E,/4G,/4] [F15/32d15/32f15/32C,15/32E,15/32G,15/32] z/32 
[z/4B,,15/32D,15/32F,15/32] [D/4F/4d/4] [D2/9F2/9d2/9B,,2/9D,2/9F,2/9] z/36 [D/4F/4d/4B,,17/36D,17/36F,17/36] [D2/9F2/9d2/9] z/36 [F/4A/4f/4B,,/4D,/4F,/4] [E2/9G2/9e2/9B,,15/32D,15/32F,15/32] z/36 [D/4F/4d/4] [C15/32E15/32c15/32A,,15/32^C,15/32E,15/32] z/32 [A,,2/9C,2/9E,2/9] z/36 [z/4A,,17/36C,17/36E,17/36] [z/4a3/4c'3/4e'3/4a'3/4] [A,,/4C,/4E,/4] [A,,15/32C,15/32E,15/32] z/32 
[=c15/32=c'19/16B,,19/10] z/32 c2/9 z/36 c17/36 z/36 [b17/36B17/36] z/36 [z/4A17/24a19/16] [z/A,,19/10] A15/32 z/32 [G15/32g19/20] z/32 F15/32 z/32 
[A15/32f19/20D,,19/20] z/32 A2/9 z/36 [z/4A17/36] [z/4g19/20E,,19/20] G/4 G2/9 z/36 [z/4F19/20] [a15/32F,,19/20] z/32 f15/32 z/32 [b15/32A,,19/20] z/32 [z/4a15/32] F/4 
[c15/32c'19/16B,,19/10] z/32 c2/9 z/36 c17/36 z/36 [b17/36c17/36] z/36 [z/4c17/24a19/16] [z/A,,19/10] B15/32 z/32 [A15/32g19/20] z/32 G15/32 z/32 
[A15/32f19/20D,,19/20] z/32 A2/9 z/36 [z/4d17/36] [z/4g19/20E,,19/20] A17/36 z/36 G/4 [a15/32F19/20F,,19/20] z/32 f15/32 z/32 [e'15/32A,,19/20] z/32 [z/4d'15/32] c/4 
[d15/32c'19/16B,,19/10D,19/10] z/32 d2/9 z/36 d17/36 z/36 [b17/36e17/36] z/36 [z/4f17/24a19/16] [z/A,,19/10E,19/10] e15/32 z/32 [d15/32g19/20] z/32 c15/32 z/32 
[a15/32F,,19/20D,19/20] z/32 g15/32 z/32 [f2/9b15/32G,,19/20E,19/20] z/36 [z/4d17/36] [z/4a15/32] [z/4g3/4] [e'/A,,10/7D,10/7] [d'19/20a19/20] z11/20 
[D,15/32F,15/32A,15/32] z/32 [D,2/9F,2/9A,2/9A15/32f15/32a15/32] z/36 [z/4D,17/36F,17/36A,17/36] [z/4A15/32f15/32a15/32] [D,/4F,/4A,/4] [A15/32f15/32a15/32D,15/32F,15/32A,15/32] z/32 [A2/9f2/9a2/9=C,15/32E,15/32G,15/32] z/36 [G/4e/4g/4] [C,2/9E,2/9G,2/9F15/32d15/32f15/32] z/36 [z/4C,17/36E,17/36G,17/36] [z/4F19/20d19/20f19/20] [C,/4E,/4G,/4] [C,15/32E,15/32G,15/32] z/32 
[B,,15/32D,15/32F,15/32] z/32 [A2/9f2/9a2/9B,,2/9D,2/9F,2/9] z/36 [A17/36f17/36a17/36B,,17/36D,17/36F,17/36] z/36 [B,,/4D,/4F,/4A17/36f17/36a17/36] [z/4B,,15/32D,15/32F,15/32] [A/4f/4a/4] [G15/32e15/32g15/32C,15/32E,15/32G,15/32] z/32 [C,2/9E,2/9G,2/9F15/32d15/32f15/32] z/36 [z/4C,17/36E,17/36G,17/36] [z/4B15/32g15/32b15/32] [C,/4E,/4G,/4] [A15/32f15/32a15/32C,15/32E,15/32G,15/32] z/32 
[D,15/32F,15/32A,15/32] z/32 [D,2/9F,2/9A,2/9A15/32f15/32a15/32] z/36 [z/4D,17/36F,17/36A,17/36] [z/4A15/32f15/32a15/32] [D,/4F,/4A,/4] [A15/32f15/32a15/32D,15/32F,15/32A,15/32] z/32 [A2/9f2/9a2/9C,15/32E,15/32G,15/32] z/36 [G/4e/4g/4] [C,2/9E,2/9G,2/9F15/32d15/32f15/32] z/36 [z/4C,17/36E,17/36G,17/36] [z/4F19/20d19/20f19/20] [C,/4E,/4G,/4] [C,15/32E,15/32G,15/32] z/32 
[z/4B,,15/32D,15/32F,15/32] [D/4F/4d/4] [D2/9F2/9d2/9B,,2/9D,2/9F,2/9] z/36 [D/4F/4d/4B,,17/36D,17/36F,17/36] [D2/9F2/9d2/9] z/36 [F/4A/4f/4B,,/4D,/4F,/4] [E2/9G2/9e2/9B,,15/32D,15/32F,15/32] z/36 [D/4F/4d/4] [C15/32E15/32^c15/32A,,15/32^C,15/32E,15/32] z/32 [A,,2/9C,2/9E,2/9] z/36 [z/4A,,17/36C,17/36E,17/36] [z/4a3/4^c'3/4e'3/4a'3/4] [A,,/4C,/4E,/4] [A,,15/32C,15/32E,15/32] z/32 
[D,15/32F,15/32A,15/32] z/32 [D,2/9F,2/9A,2/9A15/32f15/32a15/32] z/36 [z/4D,17/36F,17/36A,17/36] [z/4A15/32f15/32a15/32] [D,/4F,/4A,/4] [A15/32f15/32a15/32D,15/32F,15/32A,15/32] z/32 [A2/9f2/9a2/9=C,15/32E,15/32G,15/32] z/36 [G/4e/4g/4] [C,2/9E,2/9G,2/9F15/32d15/32f15/32] z/36 [z/4C,17/36E,17/36G,17/36] [z/4F19/20d19/20f19/20] [C,/4E,/4G,/4] [C,15/32E,15/32G,15/32] z/32 
[B,,15/32D,15/32F,15/32] z/32 [A2/9f2/9a2/9B,,2/9D,2/9F,2/9] z/36 [A17/36f17/36a17/36B,,17/36D,17/36F,17/36] z/36 [B,,/4D,/4F,/4A17/36f17/36a17/36] [z/4B,,15/32D,15/32F,15/32] [A/4f/4a/4] [G15/32e15/32g15/32C,15/32E,15/32G,15/32] z/32 [C,2/9E,2/9G,2/9F15/32d15/32f15/32] z/36 [z/4C,17/36E,17/36G,17/36] [z/4B15/32g15/32b15/32] [C,/4E,/4G,/4] [A15/32f15/32a15/32C,15/32E,15/32G,15/32] z/32 
[A15/32f15/32a15/32D,15/32F,15/32A,15/32] z/32 [G2/9e2/9g2/9D,2/9F,2/9A,2/9] z/36 [G17/36e17/36g17/36D,17/36F,17/36A,17/36] z/36 [D,/4F,/4A,/4G17/36e17/36g17/36] [z/4D,15/32F,15/32A,15/32] [F/4d/4f/4] [G15/32e15/32g15/32C,15/32E,15/32G,15/32] z/32 [C,2/9E,2/9G,2/9A15/32f15/32a15/32] z/36 [z/4C,17/36E,17/36G,17/36] [G2/9e2/9g2/9] z/36 [F/4d/4f/4C,/4E,/4G,/4] [F15/32d15/32f15/32C,15/32E,15/32G,15/32] z/32 
[z/4B,,15/32D,15/32F,15/32] [D/4F/4d/4] [D2/9F2/9d2/9B,,2/9D,2/9F,2/9] z/36 [D/4F/4d/4B,,17/36D,17/36F,17/36] [D2/9F2/9d2/9] z/36 [F/4A/4f/4B,,/4D,/4F,/4] [E2/9G2/9e2/9B,,15/32D,15/32F,15/32] z/36 [D/4F/4d/4] [C15/32E15/32c15/32A,,15/32^C,15/32E,15/32] z/32 [A,,2/9C,2/9E,2/9] z/36 [z/4A,,17/36C,17/36E,17/36] [z/4a3/4c'3/4e'3/4a'3/4] [A,,/4C,/4E,/4] [A,,15/32C,15/32E,15/32] z/32 
[d15/32D,15/32F,15/32A,15/32] z/32 [D,2/9F,2/9A,2/9a15/32F15/32A15/32] z/36 [z/4D,17/36F,17/36A,17/36] [z/4d15/32F15/32A15/32] [D,/4F,/4A,/4] [a15/32F15/32A15/32D,15/32F,15/32A,15/32] z/32 [g2/9F2/9A2/9=C,15/32E,15/32G,15/32] z/36 [E/4G/4g17/36] [C,2/9E,2/9G,2/9D15/32F15/32] z/36 [f/4C,17/36E,17/36G,17/36] [z/4g15/32D19/20F19/20] [C,/4E,/4G,/4] [C,15/32E,15/32G,15/32f2] z/32 
[B,,15/32D,15/32F,15/32] z/32 [B,,2/9D,2/9F,2/9F/4A/4] z/36 [B,,17/36D,17/36F,17/36F/A/] z/36 [B,,/4D,/4F,/4F/A/] [g/4B,,15/32D,15/32F,15/32] [f/4F/4A/4] [E15/32G15/32C,15/32E,15/32G,15/32e19/20] z/32 [C,2/9E,2/9G,2/9D15/32F15/32] z/36 [z/4C,17/36E,17/36G,17/36] [z/4G15/32B15/32] [C,/4E,/4G,/4] [F15/32A15/32C,15/32E,15/32G,15/32] z/32 
[d15/32D,15/32F,15/32A,15/32] z/32 [D,2/9F,2/9A,2/9a15/32F15/32A15/32] z/36 [z/4D,17/36F,17/36A,17/36] [z/4d15/32F15/32A15/32] [D,/4F,/4A,/4] [a15/32F15/32A15/32D,15/32F,15/32A,15/32] z/32 [a2/9F2/9A2/9C,15/32E,15/32G,15/32] z/36 [g/4E/4G/4] [C,2/9E,2/9G,2/9f15/32D15/32F15/32] z/36 [z/4C,17/36E,17/36G,17/36] [z/4b/DF] [C,/4E,/4G,/4] [a15/32C,15/32E,15/32G,15/32] z/32 
[z/4B,,15/32D,15/32F,15/32a/] [D/4F/4] [B,,2/9D,2/9F,2/9a/4D/4F/4] z/36 [g/4D/4F/4B,,17/36D,17/36F,17/36] [a/4D/4F/4] [B,,/4D,/4F,/4g/4F/4A/4] [E/4G/4B,,15/32D,15/32F,15/32f/] [D/4F/4] [e15/32C15/32E15/32A,,15/32^C,15/32E,15/32] z/32 [A,,2/9C,2/9E,2/9] z/36 [A,,17/36C,17/36E,17/36] z/36 [A,,/4C,/4E,/4] [A,,15/32C,15/32E,15/32] z/32 
[d15/32D,15/32F,15/32A,15/32] z/32 [D,2/9F,2/9A,2/9a15/32F15/32A15/32] z/36 [z/4D,17/36F,17/36A,17/36] [z/4d15/32F15/32A15/32] [D,/4F,/4A,/4] [a15/32F15/32A15/32D,15/32F,15/32A,15/32] z/32 [g2/9F2/9A2/9=C,15/32E,15/32G,15/32] z/36 [E/4G/4g17/36] [C,2/9E,2/9G,2/9D15/32F15/32] z/36 [f/4C,17/36E,17/36G,17/36] [z/4g/DF] [C,/4E,/4G,/4] [C,15/32E,15/32G,15/32a3/] z/32 
[B,,15/32D,15/32F,15/32] z/32 [B,,2/9D,2/9F,2/9F/4A/4] z/36 [z/4B,,17/36D,17/36F,17/36F/A/] g/4 [B,,/4D,/4F,/4a/4F/A/] [g/4B,,15/32D,15/32F,15/32] [a/4F/4A/4] [E15/32G15/32C,15/32E,15/32G,15/32g19/20] z/32 [C,2/9E,2/9G,2/9D15/32F15/32] z/36 [z/4C,17/36E,17/36G,17/36] [z/4G15/32B15/32] [C,/4E,/4G,/4] [F15/32A15/32C,15/32E,15/32G,15/32] z/32 
[a15/32F15/32A15/32D,15/32F,15/32A,15/32] z/32 [E2/9G2/9D,2/9F,2/9A,2/9] z/36 [a17/36E17/36G17/36D,17/36F,17/36A,17/36] z/36 [D,/4F,/4A,/4E17/36G17/36] [a2/9D,15/32F,15/32A,15/32] z/36 [D/4F/4a17/36] [z/4E15/32G15/32C,15/32E,15/32G,15/32] [z/4a17/36] [C,2/9E,2/9G,2/9F15/32A15/32] z/36 [g/4C,17/36E,17/36G,17/36] [E/4G/4a/] [C,/4E,/4G,/4D/4F/4] [b/4C,15/32E,15/32G,15/32D/F/] [z/4a/] 
[z/4B,,15/32D,15/32F,15/32] [b/4D/4F/4] [B,,2/9D,2/9F,2/9D/4F/4a/] z/36 [D/4F/4B,,17/36D,17/36F,17/36] [b/4D/4F/4] [B,,/4D,/4F,/4F/4A/4a/] [E/4G/4B,,15/32D,15/32F,15/32] [b/4D/4F/4] [a/4A,,15/32^C,15/32E,15/32C/E/] [z/4g3/4] [A,,2/9C,2/9E,2/9] z/36 [z/4A,,17/36C,17/36E,17/36] [z/4a19/20] [A,,/4C,/4E,/4] [A,,15/32C,15/32E,15/32] z/32 
[d15/32D,15/32F,15/32A,15/32D19/10] z/32 [f15/32D,15/32F,15/32A,15/32] z/32 [g15/32D,15/32F,15/32A,15/32] z/32 [a2/9D,15/32F,15/32A,15/32] z/36 [z/4d17/36] [z/4=C,15/32E,15/32G,15/32=C19/10] d/4 [a15/32C,15/32E,15/32G,15/32] z/32 [g15/32C,15/32E,15/32G,15/32] z/32 [f15/32C,15/32E,15/32G,15/32] z/32 
[B,,15/32D,15/32F,15/32g17/24F19/20] z/32 [z/4B,,15/32D,15/32F,15/32] f/4 [D15/32B,,15/32D,15/32F,15/32g17/24] z/32 [F2/9B,,15/32D,15/32F,15/32] z/36 [f/4G/4] [g2/9A15/32C,15/32E,15/32G,15/32] z/36 f/4 [g2/9F2/9C,15/32E,15/32G,15/32] z/36 [a/4A17/36] [z/4g15/32C,15/32E,15/32G,15/32] F/4 [f15/32A15/32C,15/32E,15/32G,15/32] z/32 
[d15/32D,15/32F,15/32A,15/32D19/10] z/32 [f15/32D,15/32F,15/32A,15/32] z/32 [g15/32D,15/32F,15/32A,15/32] z/32 [a2/9D,15/32F,15/32A,15/32] z/36 [z/4d17/36] [z/4C,15/32E,15/32G,15/32C19/10] d/4 [a15/32C,15/32E,15/32G,15/32] z/32 [g15/32C,15/32E,15/32G,15/32] z/32 [f15/32C,15/32E,15/32G,15/32] z/32 
[B,,15/32D,15/32F,15/32g17/24F19/20] z/32 [z/4B,,15/32D,15/32F,15/32] f/4 [D15/32B,,15/32D,15/32F,15/32g17/24] z/32 [F2/9B,,15/32D,15/32F,15/32] z/36 [f/4G/4] [g2/9A15/32C,15/32E,15/32G,15/32] z/36 f/4 [g2/9F2/9C,15/32E,15/32G,15/32] z/36 [a/4A17/36] [z/4g15/32C,15/32E,15/32G,15/32] F/4 [f15/32A15/32C,15/32E,15/32G,15/32] z/32 
d15/32 z/32 f15/32 z/32 g15/32 z/32 a2/9 z/36 d17/36 z/36 d/4 a15/32 z/32 g15/32 z/32 f15/32 z129/32 
d15/32 z/32 f15/32 z/32 g15/32 z/32 a2/9 z/36 d17/36 z/36 d/4 a15/32 z/32 g15/32 z/32 f15/32 
