X: 1
T: NateWantsToBattle - Until the Wolves Come Out (E-Guitar)
Z: ABC Generated by Starbound Composer v0.8.7
L: 1/4
M: 4/4
Q: 1/4=85
K: C
z16 
G,,/4 A,,/4 A,,/4 A,,/4 A,,/4 A,,/4 A,,/4 A,,/4 A,,/4 A,,/4 A,,/4 A,,/4 A,,/4 A,,/4 A,,/4 A,,/4 
G,,/4 A,,/4 A,,/4 A,,/4 A,,/4 A,,/4 A,,/4 A,,/4 A,,/4 A,,/4 A,,/4 A,,/4 A,,/4 A,,/4 A,,/4 A,,/4 
G,,/4 A,,/4 A,,/4 A,,/4 A,,/4 A,,/4 A,,/4 A,,/4 A,,/4 A,,/4 A,,/4 A,,/4 A,,/4 A,,/4 A,,/4 A,,/4 
G,,/4 A,,/4 A,,/4 A,,/4 A,,/4 A,,/4 A,,/4 A,,/4 A,,/4 A,,/4 A,,/4 A,,/4 A,,/4 A,,/4 A,,/4 A,,/4 
G,,/4 A,,/4 A,,/4 A,,/4 A,,/4 A,,/4 A,,/4 A,,/4 A,,/4 A,,/4 A,,/4 A,,/4 A,,/4 A,,/4 A,,/4 A,,/4 
G,,/4 A,,/4 A,,/4 A,,/4 A,,/4 A,,/4 A,,/4 A,,/4 A,,/4 A,,/4 A,,/4 A,,/4 A,,/4 A,,/4 A,,/4 A,,/4 
F,,/4 F,,/4 F,,/4 F,,/4 F,,/4 F,,/4 F,,/4 F,,/4 F,,/4 F,,/4 F,,/4 F,,/4 F,,/4 F,,/4 F,,/4 F,,/4 
G,,/4 A,,/4 A,,/4 A,,/4 A,,/4 A,,/4 A,,/4 A,,/4 A,,/4 C,/4 C,/4 C,/4 C,/4 C,/4 C,/4 C,/4 
G,,/4 A,,/4 A,,/4 A,,/4 A,,/4 A,,/4 A,,/4 A,,/4 A,,/4 A,,/4 A,,/4 A,,/4 A,,/4 A,,/4 A,,/4 A,,/4 
G,,/4 A,,/4 A,,/4 A,,/4 A,,/4 A,,/4 A,,/4 A,,/4 A,,/4 A,,/4 A,,/4 A,,/4 A,,/4 A,,/4 A,,/4 A,,/4 
F,,/4 F,,/4 F,,/4 F,,/4 F,,/4 F,,/4 F,,/4 F,,/4 F,,/4 F,,/4 F,,/4 F,,/4 F,,/4 F,,/4 F,,/4 F,,/4 
G,,/4 A,,/4 A,,/4 A,,/4 A,,/4 A,,/4 A,,/4 A,,/4 A,,/4 A,,/4 A,,/4 A,,/4 A,,/4 A,,/4 A,,/4 A,,/4 z4 
[F,,/4A,,/4C,/4] [F,,/4A,,/4C,/4] [F,,/4A,,/4C,/4] [F,,/4A,,/4C,/4] [F,,/4A,,/4C,/4] [F,,/4A,,/4C,/4] [F,,/4A,,/4C,/4] [F,,/4A,,/4C,/4] [F,,/4A,,/4C,/4] [F,,/4A,,/4C,/4] [F,,/4A,,/4C,/4] [F,,/4A,,/4C,/4] [F,,/4A,,/4C,/4] [F,,/4A,,/4C,/4] [F,,/4A,,/4C,/4] [F,,/4A,,/4C,/4] 
[F,,/4A,,/4C,/4] [F,,/4A,,/4C,/4] [F,,/4A,,/4C,/4] [F,,/4A,,/4C,/4] [F,,/4A,,/4C,/4] [F,,/4A,,/4C,/4] [F,,/4A,,/4C,/4] [F,,/4A,,/4C,/4] [F,,/4A,,/4C,/4] [F,,/4A,,/4C,/4] [F,,/4A,,/4C,/4] [F,,/4A,,/4C,/4] [F,,/4A,,/4C,/4] [F,,/4A,,/4C,/4] [F,,/4A,,/4C,/4] [F,,/4A,,/4C,/4] 
[A,,/4C,/4E,/4] [A,,/4C,/4E,/4] [A,,/4C,/4E,/4] [A,,/4C,/4E,/4] [A,,/4C,/4E,/4] [A,,/4C,/4E,/4] [A,,/4C,/4E,/4] [A,,/4C,/4E,/4] [A,,/4C,/4E,/4] [A,,/4C,/4E,/4] [A,,/4C,/4E,/4] [A,,/4C,/4E,/4] [A,,/4C,/4E,/4] [A,,/4C,/4E,/4] [A,,/4C,/4E,/4] [A,,/4C,/4E,/4] 
[A,,/4C,/4E,/4] [A,,/4C,/4E,/4] [A,,/4C,/4E,/4] [A,,/4C,/4E,/4] [A,,/4C,/4E,/4] [A,,/4C,/4E,/4] [A,,/4C,/4E,/4] [A,,/4C,/4E,/4] [A,,/4C,/4E,/4] [A,,/4C,/4E,/4] [A,,/4C,/4E,/4] [A,,/4C,/4E,/4] [A,,/4C,/4E,/4] [A,,/4C,/4E,/4] [A,,/4C,/4E,/4] [A,,/4C,/4E,/4] 
[F,,/4A,,/4C,/4] [F,,/4A,,/4C,/4] [F,,/4A,,/4C,/4] [F,,/4A,,/4C,/4] [F,,/4A,,/4C,/4] [F,,/4A,,/4C,/4] [F,,/4A,,/4C,/4] [F,,/4A,,/4C,/4] [F,,/4A,,/4C,/4] [F,,/4A,,/4C,/4] [F,,/4A,,/4C,/4] [F,,/4A,,/4C,/4] [F,,/4A,,/4C,/4] [F,,/4A,,/4C,/4] [F,,/4A,,/4C,/4] [F,,/4A,,/4C,/4] 
[F,,/4A,,/4C,/4] [F,,/4A,,/4C,/4] [F,,/4A,,/4C,/4] [F,,/4A,,/4C,/4] [F,,/4A,,/4C,/4] [F,,/4A,,/4C,/4] [F,,/4A,,/4C,/4] [F,,/4A,,/4C,/4] [F,,/4A,,/4C,/4] [F,,/4A,,/4C,/4] [F,,/4A,,/4C,/4] [F,,/4A,,/4C,/4] [F,,/4A,,/4C,/4] [F,,/4A,,/4C,/4] [F,,/4A,,/4C,/4] [F,,/4A,,/4C,/4] 
[A,,/4C,/4E,/4] [A,,/4C,/4E,/4] [A,,/4C,/4E,/4] [A,,/4C,/4E,/4] [A,,/4C,/4E,/4] [A,,/4C,/4E,/4] [A,,/4C,/4E,/4] [A,,/4C,/4E,/4] [A,,/4C,/4E,/4] [A,,/4C,/4E,/4] [A,,/4C,/4E,/4] [A,,/4C,/4E,/4] [A,,/4C,/4E,/4] [A,,/4C,/4E,/4] [A,,/4C,/4E,/4] [A,,/4C,/4E,/4] 
[A,,/4C,/4E,/4] [A,,/4C,/4E,/4] [A,,/4C,/4E,/4] [A,,/4C,/4E,/4] [A,,/4C,/4E,/4] [A,,/4C,/4E,/4] [A,,/4C,/4E,/4] [A,,/4C,/4E,/4] [A,,/4C,/4E,/4] [A,,/4C,/4E,/4] [A,,/4C,/4E,/4] [A,,/4C,/4E,/4] [A,,/4C,/4E,/4] [A,,/4C,/4E,/4] [A,,/4C,/4E,/4] [A,,/4C,/4E,/4] z4 
G,,/4 A,,/4 A,,/4 A,,/4 A,,/4 A,,/4 A,,/4 A,,/4 A,,/4 A,,/4 A,,/4 A,,/4 A,,/4 A,,/4 A,,/4 A,,/4 
G,,/4 A,,/4 A,,/4 A,,/4 A,,/4 A,,/4 A,,/4 A,,/4 A,,/4 A,,/4 A,,/4 A,,/4 A,,/4 A,,/4 A,,/4 A,,/4 
F,,/4 F,,/4 F,,/4 F,,/4 F,,/4 F,,/4 F,,/4 F,,/4 F,,/4 F,,/4 F,,/4 F,,/4 F,,/4 F,,/4 F,,/4 F,,/4 
G,,/4 A,,/4 A,,/4 A,,/4 A,,/4 A,,/4 A,,/4 A,,/4 A,,/4 A,,/4 A,,/4 A,,/4 A,,/4 A,,/4 A,,/4 A,,/4 
G,,/4 A,,/4 A,,/4 A,,/4 A,,/4 A,,/4 A,,/4 A,,/4 A,,/4 A,,/4 A,,/4 A,,/4 A,,/4 A,,/4 A,,/4 A,,/4 
G,,/4 A,,/4 A,,/4 A,,/4 A,,/4 A,,/4 A,,/4 A,,/4 A,,/4 A,,/4 A,,/4 A,,/4 A,,/4 A,,/4 A,,/4 A,,/4 
F,,/4 F,,/4 F,,/4 F,,/4 F,,/4 F,,/4 F,,/4 F,,/4 F,,/4 F,,/4 F,,/4 F,,/4 F,,/4 F,,/4 F,,/4 F,,/4 
G,,/4 A,,/4 A,,/4 A,,/4 A,,/4 A,,/4 A,,/4 A,,/4 A,,/4 A,,/4 A,,/4 A,,/4 A,,/4 A,,/4 A,,/4 A,,/4 z4 
[F,,/4A,,/4C,/4] [F,,/4A,,/4C,/4] [F,,/4A,,/4C,/4] [F,,/4A,,/4C,/4] [F,,/4A,,/4C,/4] [F,,/4A,,/4C,/4] [F,,/4A,,/4C,/4] [F,,/4A,,/4C,/4] [F,,/4A,,/4C,/4] [F,,/4A,,/4C,/4] [F,,/4A,,/4C,/4] [F,,/4A,,/4C,/4] [F,,/4A,,/4C,/4] [F,,/4A,,/4C,/4] [F,,/4A,,/4C,/4] [F,,/4A,,/4C,/4] 
[F,,/4A,,/4C,/4] [F,,/4A,,/4C,/4] [F,,/4A,,/4C,/4] [F,,/4A,,/4C,/4] [F,,/4A,,/4C,/4] [F,,/4A,,/4C,/4] [F,,/4A,,/4C,/4] [F,,/4A,,/4C,/4] [F,,/4A,,/4C,/4] [F,,/4A,,/4C,/4] [F,,/4A,,/4C,/4] [F,,/4A,,/4C,/4] [F,,/4A,,/4C,/4] [F,,/4A,,/4C,/4] [F,,/4A,,/4C,/4] [F,,/4A,,/4C,/4] 
[A,,/4C,/4E,/4] [A,,/4C,/4E,/4] [A,,/4C,/4E,/4] [A,,/4C,/4E,/4] [A,,/4C,/4E,/4] [A,,/4C,/4E,/4] [A,,/4C,/4E,/4] [A,,/4C,/4E,/4] [A,,/4C,/4E,/4] [A,,/4C,/4E,/4] [A,,/4C,/4E,/4] [A,,/4C,/4E,/4] [A,,/4C,/4E,/4] [A,,/4C,/4E,/4] [A,,/4C,/4E,/4] [A,,/4C,/4E,/4] 
[A,,/4C,/4E,/4] [A,,/4C,/4E,/4] [A,,/4C,/4E,/4] [A,,/4C,/4E,/4] [A,,/4C,/4E,/4] [A,,/4C,/4E,/4] [A,,/4C,/4E,/4] [A,,/4C,/4E,/4] [A,,/4C,/4E,/4] [A,,/4C,/4E,/4] [A,,/4C,/4E,/4] [A,,/4C,/4E,/4] [A,,/4C,/4E,/4] [A,,/4C,/4E,/4] [A,,/4C,/4E,/4] [A,,/4C,/4E,/4] 
[F,,/4A,,/4C,/4] [F,,/4A,,/4C,/4] [F,,/4A,,/4C,/4] [F,,/4A,,/4C,/4] [F,,/4A,,/4C,/4] [F,,/4A,,/4C,/4] [F,,/4A,,/4C,/4] [F,,/4A,,/4C,/4] [F,,/4A,,/4C,/4] [F,,/4A,,/4C,/4] [F,,/4A,,/4C,/4] [F,,/4A,,/4C,/4] [F,,/4A,,/4C,/4] [F,,/4A,,/4C,/4] [F,,/4A,,/4C,/4] [F,,/4A,,/4C,/4] 
[F,,/4A,,/4C,/4] [F,,/4A,,/4C,/4] [F,,/4A,,/4C,/4] [F,,/4A,,/4C,/4] [F,,/4A,,/4C,/4] [F,,/4A,,/4C,/4] [F,,/4A,,/4C,/4] [F,,/4A,,/4C,/4] [F,,/4A,,/4C,/4] [F,,/4A,,/4C,/4] [F,,/4A,,/4C,/4] [F,,/4A,,/4C,/4] [F,,/4A,,/4C,/4] [F,,/4A,,/4C,/4] [F,,/4A,,/4C,/4] [F,,/4A,,/4C,/4] 
[A,,/4C,/4E,/4] [A,,/4C,/4E,/4] [A,,/4C,/4E,/4] [A,,/4C,/4E,/4] [A,,/4C,/4E,/4] [A,,/4C,/4E,/4] [A,,/4C,/4E,/4] [A,,/4C,/4E,/4] [A,,/4C,/4E,/4] [A,,/4C,/4E,/4] [A,,/4C,/4E,/4] [A,,/4C,/4E,/4] [A,,/4C,/4E,/4] [A,,/4C,/4E,/4] [A,,/4C,/4E,/4] [A,,/4C,/4E,/4] 
[A,,/4C,/4E,/4] [A,,/4C,/4E,/4] [A,,/4C,/4E,/4] [A,,/4C,/4E,/4] [A,,/4C,/4E,/4] [A,,/4C,/4E,/4] [A,,/4C,/4E,/4] [A,,/4C,/4E,/4] [A,,/4C,/4E,/4] [A,,/4C,/4E,/4] [A,,/4C,/4E,/4] [A,,/4C,/4E,/4] [A,,/4C,/4E,/4] [A,,/4C,/4E,/4] [A,,/4C,/4E,/4] [A,,/4C,/4E,/4] z24 
[F,,/4A,,/4C,/4] [F,,/4A,,/4C,/4] [F,,/4A,,/4C,/4] [F,,/4A,,/4C,/4] [F,,/4A,,/4C,/4] [F,,/4A,,/4C,/4] [F,,/4A,,/4C,/4] [F,,/4A,,/4C,/4] [F,,/4A,,/4C,/4] [F,,/4A,,/4C,/4] [F,,/4A,,/4C,/4] [F,,/4A,,/4C,/4] [F,,/4A,,/4C,/4] [F,,/4A,,/4C,/4] [F,,/4A,,/4C,/4] [F,,/4A,,/4C,/4] 
[F,,/4A,,/4C,/4] [F,,/4A,,/4C,/4] [F,,/4A,,/4C,/4] [F,,/4A,,/4C,/4] [F,,/4A,,/4C,/4] [F,,/4A,,/4C,/4] [F,,/4A,,/4C,/4] [F,,/4A,,/4C,/4] [F,,/4A,,/4C,/4] [F,,/4A,,/4C,/4] [F,,/4A,,/4C,/4] [F,,/4A,,/4C,/4] [F,,/4A,,/4C,/4] [F,,/4A,,/4C,/4] [F,,/4A,,/4C,/4] [F,,/4A,,/4C,/4] 
[A,,/4C,/4E,/4] [A,,/4C,/4E,/4] [A,,/4C,/4E,/4] [A,,/4C,/4E,/4] [A,,/4C,/4E,/4] [A,,/4C,/4E,/4] [A,,/4C,/4E,/4] [A,,/4C,/4E,/4] [A,,/4C,/4E,/4] [A,,/4C,/4E,/4] [A,,/4C,/4E,/4] [A,,/4C,/4E,/4] [A,,/4C,/4E,/4] [A,,/4C,/4E,/4] [A,,/4C,/4E,/4] [A,,/4C,/4E,/4] 
[A,,/4C,/4E,/4] [A,,/4C,/4E,/4] [A,,/4C,/4E,/4] [A,,/4C,/4E,/4] [A,,/4C,/4E,/4] [A,,/4C,/4E,/4] [A,,/4C,/4E,/4] [A,,/4C,/4E,/4] [A,,/4C,/4E,/4] [A,,/4C,/4E,/4] [A,,/4C,/4E,/4] [A,,/4C,/4E,/4] [A,,/4C,/4E,/4] [A,,/4C,/4E,/4] [A,,/4C,/4E,/4] [A,,/4C,/4E,/4] 
[F,,/4A,,/4C,/4] [F,,/4A,,/4C,/4] [F,,/4A,,/4C,/4] [F,,/4A,,/4C,/4] [F,,/4A,,/4C,/4] [F,,/4A,,/4C,/4] [F,,/4A,,/4C,/4] [F,,/4A,,/4C,/4] [F,,/4A,,/4C,/4] [F,,/4A,,/4C,/4] [F,,/4A,,/4C,/4] [F,,/4A,,/4C,/4] [F,,/4A,,/4C,/4] [F,,/4A,,/4C,/4] [F,,/4A,,/4C,/4] [F,,/4A,,/4C,/4] 
[F,,/4A,,/4C,/4] [F,,/4A,,/4C,/4] [F,,/4A,,/4C,/4] [F,,/4A,,/4C,/4] [F,,/4A,,/4C,/4] [F,,/4A,,/4C,/4] [F,,/4A,,/4C,/4] [F,,/4A,,/4C,/4] [F,,/4A,,/4C,/4] [F,,/4A,,/4C,/4] [F,,/4A,,/4C,/4] [F,,/4A,,/4C,/4] [F,,/4A,,/4C,/4] [F,,/4A,,/4C,/4] [F,,/4A,,/4C,/4] [F,,/4A,,/4C,/4] 
[A,,/4C,/4E,/4] [A,,/4C,/4E,/4] [A,,/4C,/4E,/4] [A,,/4C,/4E,/4] [A,,/4C,/4E,/4] [A,,/4C,/4E,/4] [A,,/4C,/4E,/4] [A,,/4C,/4E,/4] [A,,/4C,/4E,/4] [A,,/4C,/4E,/4] [A,,/4C,/4E,/4] [A,,/4C,/4E,/4] [A,,/4C,/4E,/4] [A,,/4C,/4E,/4] [A,,/4C,/4E,/4] [A,,/4C,/4E,/4] 
[A,,/4C,/4E,/4] [A,,/4C,/4E,/4] [A,,/4C,/4E,/4] [A,,/4C,/4E,/4] [A,,/4C,/4E,/4] [A,,/4C,/4E,/4] [A,,/4C,/4E,/4] [A,,/4C,/4E,/4] [A,,/4C,/4E,/4] [A,,/4C,/4E,/4] [A,,/4C,/4E,/4] [A,,/4C,/4E,/4] [A,,/4C,/4E,/4] [A,,/4C,/4E,/4] [A,,/4C,/4E,/4] [A,,/4C,/4E,/4] 
[F,,/4A,,/4C,/4] [F,,/4A,,/4C,/4] [F,,/4A,,/4C,/4] [F,,/4A,,/4C,/4] [F,,/4A,,/4C,/4] [F,,/4A,,/4C,/4] [F,,/4A,,/4C,/4] [F,,/4A,,/4C,/4] [F,,/4A,,/4C,/4] [F,,/4A,,/4C,/4] [F,,/4A,,/4C,/4] [F,,/4A,,/4C,/4] [F,,/4A,,/4C,/4] [F,,/4A,,/4C,/4] [F,,/4A,,/4C,/4] [F,,/4A,,/4C,/4] 
[F,,/4A,,/4C,/4] [F,,/4A,,/4C,/4] [F,,/4A,,/4C,/4] [F,,/4A,,/4C,/4] [F,,/4A,,/4C,/4] [F,,/4A,,/4C,/4] [F,,/4A,,/4C,/4] [F,,/4A,,/4C,/4] [F,,/4A,,/4C,/4] [F,,/4A,,/4C,/4] [F,,/4A,,/4C,/4] [F,,/4A,,/4C,/4] [F,,/4A,,/4C,/4] [F,,/4A,,/4C,/4] [F,,/4A,,/4C,/4] [F,,/4A,,/4C,/4] 
[A,,/4C,/4E,/4] [A,,/4C,/4E,/4] [A,,/4C,/4E,/4] [A,,/4C,/4E,/4] [A,,/4C,/4E,/4] [A,,/4C,/4E,/4] [A,,/4C,/4E,/4] [A,,/4C,/4E,/4] [A,,/4C,/4E,/4] [A,,/4C,/4E,/4] [A,,/4C,/4E,/4] [A,,/4C,/4E,/4] [A,,/4C,/4E,/4] [A,,/4C,/4E,/4] [A,,/4C,/4E,/4] [A,,/4C,/4E,/4] 
[A,,/4C,/4E,/4] [A,,/4C,/4E,/4] [A,,/4C,/4E,/4] [A,,/4C,/4E,/4] [A,,/4C,/4E,/4] [A,,/4C,/4E,/4] [A,,/4C,/4E,/4] [A,,/4C,/4E,/4] [A,,/4C,/4E,/4] [A,,/4C,/4E,/4] [A,,/4C,/4E,/4] [A,,/4C,/4E,/4] [A,,/4C,/4E,/4] [A,,/4C,/4E,/4] [A,,/4C,/4E,/4] [A,,/4C,/4E,/4] 
[F,,/4A,,/4C,/4] [F,,/4A,,/4C,/4] [F,,/4A,,/4C,/4] [F,,/4A,,/4C,/4] [F,,/4A,,/4C,/4] [F,,/4A,,/4C,/4] [F,,/4A,,/4C,/4] [F,,/4A,,/4C,/4] [F,,/4A,,/4C,/4] [F,,/4A,,/4C,/4] [F,,/4A,,/4C,/4] [F,,/4A,,/4C,/4] [F,,/4A,,/4C,/4] [F,,/4A,,/4C,/4] [F,,/4A,,/4C,/4] [F,,/4A,,/4C,/4] 
[F,,/4A,,/4C,/4] [F,,/4A,,/4C,/4] [F,,/4A,,/4C,/4] [F,,/4A,,/4C,/4] [F,,/4A,,/4C,/4] [F,,/4A,,/4C,/4] [F,,/4A,,/4C,/4] [F,,/4A,,/4C,/4] [F,,/4A,,/4C,/4] [F,,/4A,,/4C,/4] [F,,/4A,,/4C,/4] [F,,/4A,,/4C,/4] [F,,/4A,,/4C,/4] [F,,/4A,,/4C,/4] [F,,/4A,,/4C,/4] [F,,/4A,,/4C,/4] 
[A,,/4C,/4E,/4] [A,,/4C,/4E,/4] [A,,/4C,/4E,/4] [A,,/4C,/4E,/4] [A,,/4C,/4E,/4] [A,,/4C,/4E,/4] [A,,/4C,/4E,/4] [A,,/4C,/4E,/4] [A,,/4C,/4E,/4] [A,,/4C,/4E,/4] [A,,/4C,/4E,/4] [A,,/4C,/4E,/4] [A,,/4C,/4E,/4] [A,,/4C,/4E,/4] [A,,/4C,/4E,/4] [A,,/4C,/4E,/4] 
[A,,/4C,/4E,/4] [A,,/4C,/4E,/4] [A,,/4C,/4E,/4] [A,,/4C,/4E,/4] [A,,/4C,/4E,/4] [A,,/4C,/4E,/4] [A,,/4C,/4E,/4] [A,,/4C,/4E,/4] [A,,/4C,/4E,/4] [A,,/4C,/4E,/4] [A,,/4C,/4E,/4] [A,,/4C,/4E,/4] [A,,/4C,/4E,/4] [A,,/4C,/4E,/4] [A,,/4C,/4E,/4] [A,,/4C,/4E,/4] 
