X: 1
T: PATD - Death of a Bachelor
Z: ABC Generated by Starbound Composer v0.8.7
L: 1/4
M: 4/4
Q: 1/4=147
K: C
z2 c17/24 z/24 B17/24 z/24 A15/32 z/32 
[c10/7D,57/20F,57/20A,57/20] z/14 [z3/D19/10] [D,19/20F,19/20A,19/20] z/20 
[z2B,,57/20D,57/20G,57/20] A17/24 z/24 [z/4B17/24] [z/B,,19/20D,19/20G,19/20] A15/32 z/32 
[B15/32C,57/20E,57/20G,57/20] z/32 E19/20 z/20 E19/20 z/20 [z/D19/20] [z/C,19/20E,19/20G,19/20] [z/E19/8] 
[z2C,57/20E,57/20A,57/20] c17/24 z/24 [z/4B17/24] [z/C,19/20E,19/20A,19/20] A15/32 z/32 
[c10/7D,57/20F,57/20A,57/20] z/14 [z3/D19/10] [D,19/20F,19/20A,19/20] z/20 
[z/B,,57/20D,57/20G,57/20] c15/32 z/32 B19/20 z/20 A19/20 z/20 [B15/32B,,19/20D,19/20G,19/20] z/32 [z/E77/18] 
[C,57/20E,57/20G,57/20] z3/20 [C,19/20E,19/20G,19/20] z/20 
[z2C,57/20E,57/20A,57/20] c17/24 z/24 [z/4d17/24] [z/C,19/20E,19/20A,19/20] e15/32 z/32 
[d10/7D,57/20F,57/20A,57/20] z/14 [z3/A19/10] [D,19/20F,19/20A,19/20] z/20 
[z2B,,57/20D,57/20G,57/20] B17/24 z/24 [z/4c17/24] [z/B,,19/20D,19/20G,19/20] [z/d19/20] 
[z/C,57/20E,57/20G,57/20] c15/32 z/32 [z2G57/20] [C,19/20E,19/20G,19/20] z/20 
[z3/C,57/20E,57/20A,57/20] A2/9 z/36 A/4 c17/24 z/24 B/4 [A15/32C,19/20E,19/20A,19/20] z/32 [z/c19/10] 
[z3/D,57/20F,57/20A,57/20] G2/9 z/36 A/4 B17/24 z/24 [z/4A17/24] [z/D,19/20F,19/20A,19/20] [z/B19/10] 
[z3/B,,57/20D,57/20G,57/20] G2/9 z/36 A/4 B17/24 z/24 [z/4A17/24] [z/B,,19/20D,19/20G,19/20] [z/G17/24] 
[z/4C,57/20E,57/20G,57/20] B17/24 z/24 [z2E57/20] [C,19/20E,19/20G,19/20] z/20 
[z3/C,57/20E,57/20A,57/20] A15/32 z/32 c17/24 z/24 [z/4d17/24] [z/C,19/20E,19/20A,19/20] e15/32 z/32 
[d10/7D,57/20F,57/20A,57/20] z/14 [z3/A19/10] [D,19/20F,19/20A,19/20] z/20 
[z2D,57/20F,57/20^G,57/20] B17/24 z/24 [z/4c17/24] [z/D,19/20F,19/20G,19/20] [z/d19/20] 
[z/C,57/20E,57/20=G,57/20] c15/32 z/32 [z2B57/20] [C,19/20E,19/20G,19/20] z/20 
[z3/C,57/20E,57/20A,57/20] A15/32 z/32 c17/24 z/24 [z/4B17/24] [z/C,19/20E,19/20A,19/20] A15/32 z/32 
[c19/10D,57/20F,57/20A,57/20] z/10 c17/24 z/24 [z/4B17/24] [z/D,19/20F,19/20A,19/20] A15/32 z/32 
[c19/10^D,57/20^F,57/20A,57/20] z/10 A17/24 z/24 [z/4B17/24] [z/D,19/20F,19/20A,19/20] [z/c19/8] 
[=D,19/20G,19/20A,19/20] z/20 [D,19/20G,19/20A,19/20] z/20 [D,19/20G,19/20A,19/20G19/10g19/10] z/20 [D,19/20G,19/20A,19/20] z/20 
[z3/G,19/5B,19/5D19/5G19/5] [E15/32e15/32] z/32 [A10/7a10/7] z/14 [G2/9g2/9] z/36 [E/4e/4] 
[C,15/32E,15/32A,15/32A19/10a19/10] z17/32 [C,15/32E,15/32A,15/32] z17/32 [C,15/32E,15/32A,15/32E19/10e19/10] z17/32 [C,15/32E,15/32A,15/32] z17/32 
[D,15/32=F,15/32A,15/32D19/10d19/10] z17/32 [D,15/32F,15/32A,15/32] z17/32 [D,15/32F,15/32A,15/32C17/24c17/24] z9/32 [D/4d/4] [D,15/32F,15/32A,15/32E10/7e10/7] z17/32 
[C,15/32F,15/32A,15/32] z/32 [E15/32e15/32] z/32 [D15/32d15/32C,15/32F,15/32A,15/32] z/32 [C15/32c15/32] z/32 [C,15/32F,15/32A,15/32D17/24d17/24] z9/32 [z/4C17/24c17/24] [C,15/32F,15/32A,15/32] z/32 [z/C19/10c19/10] 
[B,,15/32E,15/32G,15/32] z17/32 [B,,15/32E,15/32G,15/32] z/32 [E15/32e15/32] z/32 [B,,15/32E,15/32G,15/32A10/7a10/7] z17/32 [B,,15/32E,15/32G,15/32] z/32 [G2/9g2/9] z/36 [E/4e/4] 
[C,15/32E,15/32A,15/32A10/7a10/7] z17/32 [C,15/32E,15/32A,15/32] z/32 [E15/32e15/32] z/32 [C,15/32E,15/32A,15/32D17/24d17/24] z9/32 [C/4c/4] [C,15/32E,15/32A,15/32A,57/20A57/20] z17/32 
[D,15/32F,15/32A,15/32] z17/32 [D,15/32F,15/32A,15/32] z17/32 [D,15/32F,15/32A,15/32C17/24c17/24] z9/32 [D/4d/4] [D,15/32F,15/32A,15/32E19/10e19/10] z17/32 
[C,15/32F,15/32A,15/32] z17/32 [G15/32g15/32C,15/32F,15/32A,15/32] z/32 [E15/32e15/32] z/32 [C,15/32F,15/32A,15/32D17/24d17/24] z9/32 [z/4C17/24c17/24] [C,15/32F,15/32A,15/32] z/32 [z/C19/8c19/8] 
[B,,15/32E,15/32G,15/32] z17/32 [B,,15/32E,15/32G,15/32] z17/32 [B,,15/32E,15/32G,15/32A17/24a17/24] z9/32 [z/4G17/24g17/24] [B,,15/32E,15/32G,15/32] z/32 [G2/9g2/9E,15/32] z/36 [A/4a/4] 
[C,15/32E,15/32A,15/32c19/10c'19/10] z17/32 [C,15/32E,15/32A,15/32] z17/32 [C,15/32E,15/32A,15/32A19/10a19/10] z17/32 [C,15/32E,15/32A,15/32] z17/32 
[D,15/32F,15/32A,15/32e19/5g19/5e'19/5] z17/32 [D,15/32F,15/32A,15/32] z17/32 [D,15/32F,15/32A,15/32] z17/32 [D,15/32F,15/32A,15/32] z17/32 
[C,15/32F,15/32A,15/32] z/32 [E15/32e15/32] z/32 [D15/32d15/32C,15/32F,15/32A,15/32] z/32 [C15/32c15/32] z/32 [C,15/32F,15/32A,15/32D17/24d17/24] z9/32 [z/4C17/24c17/24] [C,15/32F,15/32A,15/32] z/32 [z/C19/8c19/8] 
[B,,15/32E,15/32G,15/32] z17/32 [B,,15/32E,15/32G,15/32] z17/32 [B,,15/32E,15/32G,15/32A17/24a17/24] z9/32 [z/4G17/24g17/24] [B,,15/32E,15/32G,15/32] z/32 [E15/32e15/32] z/32 
[C,15/32E,15/32A,15/32A10/7a10/7] z17/32 [C,15/32E,15/32A,15/32] z/32 [E15/32e15/32] z/32 [C,15/32E,15/32A,15/32D17/24d17/24] z9/32 [C/4c/4] [C,15/32E,15/32A,15/32A,19/20A19/20] z17/32 
[C15/32c15/32D,15/32F,15/32A,15/32] z/32 [D15/32d15/32] z/32 [E15/32e15/32D,15/32F,15/32A,15/32] z/32 [z/D10/7d10/7] [D,15/32F,15/32A,15/32] z17/32 [c15/32D,15/32F,15/32A,15/32] z/32 A15/32 z/32 
[c15/32C,15/32F,15/32A,15/32] z/32 d15/32 z/32 [e15/32C,15/32F,15/32A,15/32] z/32 [z/d10/7] [C,15/32F,15/32A,15/32] z17/32 [c15/32C,15/32F,15/32A,15/32] z/32 [z/c19/20] 
[z3/B,,57/20E,57/20G,57/20] A15/32 z/32 c17/24 z/24 [z/4B17/24] [z/B,,19/20E,19/20G,19/20] A15/32 z/32 
[c10/7D,57/20F,57/20A,57/20] z/14 [z3/D19/10] [D,19/20F,19/20A,19/20] z/20 
[z2B,,57/20D,57/20G,57/20] B17/24 z/24 [z/4B17/24] [z/B,,19/20D,19/20G,19/20] A15/32 z/32 
[B19/20C,57/20E,57/20G,57/20] z/20 E19/20 z/20 E15/32 z/32 E15/32 z/32 [D15/32C,19/20E,19/20G,19/20] z/32 [z/E19/10] 
[z3/C,57/20E,57/20A,57/20] A15/32 z/32 c17/24 z/24 [z/4B17/24] [z/C,19/20E,19/20A,19/20] A15/32 z/32 
[c15/32D,57/20F,57/20A,57/20] z/32 d15/32 z/32 e15/32 z/32 [z3/A19/10] [z/D,19/20F,19/20A,19/20] A15/32 z/32 
[B19/20B,,57/20D,57/20G,57/20] z/20 d15/32 z/32 B15/32 z/32 A15/32 z/32 [z/G19/20] [z/B,,19/20D,19/20G,19/20] [z/E77/18] 
[C,57/20E,57/20G,57/20] z3/20 [C,19/20E,19/20G,19/20] z/20 
[z2C,57/20E,57/20A,57/20] c17/24 z/24 [z/4B17/24] [z/C,19/20E,19/20A,19/20] [z/A19/20] 
[z/D,57/20F,57/20A,57/20] e17/24 z/24 c17/24 z/24 [zA19/10] [D,19/20F,19/20A,19/20] z/20 
[z2B,,57/20D,57/20G,57/20] G17/24 z/24 [z/4A17/24] [z/B,,19/20D,19/20G,19/20] [z/B19/20] 
[z/C,57/20E,57/20G,57/20] g19/20 z/20 e15/32 z/32 d17/24 z/24 [z/4c17/24] [z/C,19/20E,19/20G,19/20] [z/A19/8] 
[z2C,57/20E,57/20A,57/20] c17/24 z/24 [z/4B17/24] [z/C,19/20E,19/20A,19/20] A15/32 z/32 
[c17/24D,57/20F,57/20A,57/20] z/24 D17/24 z/24 [z3/D19/10] [z/D,19/20F,19/20A,19/20] [z/B19/20] 
[z/B,,57/20D,57/20G,57/20] A15/32 z/32 G15/32 z/32 B10/7 z/14 [D15/32B,,19/20D,19/20G,19/20] z/32 [z/C77/18] 
[C,57/20E,57/20G,57/20] z3/20 [C,19/20E,19/20G,19/20] z/20 
[z3/C,57/20E,57/20A,57/20] c15/32 z/32 e17/24 z/24 [z/4d17/24] [z/C,19/20E,19/20A,19/20] c15/32 z/32 
[d10/7D,57/20F,57/20A,57/20] z/14 [z3/c19/10] [D,19/20F,19/20A,19/20] z/20 
[z2D,57/20F,57/20^G,57/20] d17/24 z/24 [z/4c17/24] [z/D,19/20F,19/20G,19/20] B15/32 z/32 
[c10/7C,57/20E,57/20=G,57/20] z/14 B10/7 z/14 [C,19/20E,19/20G,19/20A19/8] z/20 
[z3/C,57/20E,57/20A,57/20] A15/32 z/32 c17/24 z/24 [z/4B17/24] [z/C,19/20E,19/20A,19/20] A15/32 z/32 
[c19/10D,57/20F,57/20A,57/20] z/10 c17/24 z/24 [z/4B17/24] [z/D,19/20F,19/20A,19/20] A15/32 z/32 
[c19/10^D,57/20^F,57/20A,57/20] z/10 A17/24 z/24 [z/4B17/24] [z/D,19/20F,19/20A,19/20] [z/c19/8] 
[=D,19/20G,19/20A,19/20] z/20 [D,19/20G,19/20A,19/20] z/20 [D,19/20G,19/20A,19/20G19/10g19/10] z/20 [D,19/20G,19/20A,19/20] z/20 
[z3/G,19/5B,19/5D19/5G19/5] [E15/32e15/32] z/32 [A10/7a10/7] z/14 [G2/9g2/9] z/36 [E/4e/4] 
[C,15/32E,15/32A,15/32A19/10a19/10] z17/32 [C,15/32E,15/32A,15/32] z17/32 [C,15/32E,15/32A,15/32E19/10e19/10] z17/32 [C,15/32E,15/32A,15/32] z17/32 
[D,15/32=F,15/32A,15/32D19/10d19/10] z17/32 [D,15/32F,15/32A,15/32] z17/32 [D,15/32F,15/32A,15/32C17/24c17/24] z9/32 [D/4d/4] [D,15/32F,15/32A,15/32E10/7e10/7] z17/32 
[C,15/32F,15/32A,15/32] z/32 [E15/32e15/32] z/32 [D15/32d15/32C,15/32F,15/32A,15/32] z/32 [C15/32c15/32] z/32 [C,15/32F,15/32A,15/32D17/24d17/24] z9/32 [z/4C17/24c17/24] [C,15/32F,15/32A,15/32] z/32 [z/C19/10c19/10] 
[B,,15/32E,15/32G,15/32] z17/32 [B,,15/32E,15/32G,15/32] z/32 [E15/32e15/32] z/32 [B,,15/32E,15/32G,15/32A10/7a10/7] z17/32 [B,,15/32E,15/32G,15/32] z/32 [G2/9g2/9] z/36 [E/4e/4] 
[C,15/32E,15/32A,15/32A10/7a10/7] z17/32 [C,15/32E,15/32A,15/32] z/32 [E15/32e15/32] z/32 [C,15/32E,15/32A,15/32D17/24d17/24] z9/32 [C/4c/4] [C,15/32E,15/32A,15/32A,57/20A57/20] z17/32 
[D,15/32F,15/32A,15/32] z17/32 [D,15/32F,15/32A,15/32] z17/32 [D,15/32F,15/32A,15/32C17/24c17/24] z9/32 [D/4d/4] [D,15/32F,15/32A,15/32E19/10e19/10] z17/32 
[C,15/32F,15/32A,15/32] z17/32 [G15/32g15/32C,15/32F,15/32A,15/32] z/32 [E15/32e15/32] z/32 [C,15/32F,15/32A,15/32D17/24d17/24] z9/32 [z/4C17/24c17/24] [C,15/32F,15/32A,15/32] z/32 [z/C19/8c19/8] 
[B,,15/32E,15/32G,15/32] z17/32 [B,,15/32E,15/32G,15/32] z17/32 [B,,15/32E,15/32G,15/32A17/24a17/24] z9/32 [z/4G17/24g17/24] [B,,15/32E,15/32G,15/32] z/32 [G2/9g2/9] z/36 [A/4a/4] 
[C,15/32E,15/32A,15/32c19/10c'19/10] z17/32 [C,15/32E,15/32A,15/32] z17/32 [C,15/32E,15/32A,15/32A19/10a19/10] z17/32 [C,15/32E,15/32A,15/32] z17/32 
[D,15/32F,15/32A,15/32e19/5g19/5e'19/5] z17/32 [D,15/32F,15/32A,15/32] z17/32 [D,15/32F,15/32A,15/32] z17/32 [D,15/32F,15/32A,15/32] z17/32 
[C,15/32F,15/32A,15/32] z/32 [E15/32e15/32] z/32 [D15/32d15/32C,15/32F,15/32A,15/32] z/32 [C15/32c15/32] z/32 [C,15/32F,15/32A,15/32D17/24d17/24] z9/32 [z/4C17/24c17/24] [C,15/32F,15/32A,15/32] z/32 [z/C19/8c19/8] 
[B,,15/32E,15/32G,15/32] z17/32 [B,,15/32E,15/32G,15/32] z17/32 [B,,15/32E,15/32G,15/32A17/24a17/24] z9/32 [z/4G17/24g17/24] [B,,15/32E,15/32G,15/32] z/32 [E15/32e15/32] z/32 
[C,15/32E,15/32A,15/32A10/7a10/7] z17/32 [C,15/32E,15/32A,15/32] z/32 [E15/32e15/32] z/32 [C,15/32E,15/32A,15/32D17/24d17/24] z9/32 [C/4c/4] [C,15/32E,15/32A,15/32A,19/20A19/20] z17/32 
[C15/32c15/32D,15/32F,15/32A,15/32] z/32 [D15/32d15/32] z/32 [E15/32e15/32D,15/32F,15/32A,15/32] z/32 [z/D10/7d10/7] [D,15/32F,15/32A,15/32] z17/32 [c15/32D,15/32F,15/32A,15/32] z/32 A15/32 z/32 
[c15/32C,15/32F,15/32A,15/32] z/32 d15/32 z/32 [e15/32C,15/32F,15/32A,15/32] z/32 [z/d10/7] [C,15/32F,15/32A,15/32] z17/32 [c15/32C,15/32F,15/32A,15/32] z/32 [z/c19/10] 
[z3/B,,19/5E,19/5G,19/5] A15/32 z/32 c17/24 z/24 d17/24 z/24 e15/32 z/32 
[d10/7D,19/5F,19/5A,19/5] z/14 A19/10 z3/5 
[z2D,19/5F,19/5^G,19/5] B17/24 z/24 c17/24 z/24 [z/d19/20] 
[z/C,19/5E,19/5=G,19/5] c15/32 z/32 B57/20 z3/20 
[z3/C,19/5E,19/5A,19/5] A15/32 z/32 c17/24 z/24 B17/24 z/24 A15/32 z/32 
[c19/10D,19/5F,19/5A,19/5] z/10 c17/24 z/24 B17/24 z/24 A15/32 z/32 
[c19/10^D,19/5^F,19/5A,19/5] z/10 A17/24 z/24 B17/24 z/24 [z/c19/8] 
[=D,19/20G,19/20A,19/20] z/20 [D,19/20G,19/20A,19/20] z/20 [D,19/20G,19/20A,19/20G19/10g19/10] z/20 [D,19/20G,19/20A,19/20] z/20 
[c''3/28G,38/5B,38/5D38/5G38/5] z/252 b'31/288 z/288 _b'/9 z/60 a'/10 z/70 ^g'11/112 z/48 =g'5/48 z/80 ^f'/10 z/80 =f'5/48 z/84 e'3/28 z/70 ^d'/10 z/60 =d'/9 ^c'/9 z/90 =c'/10 b/8 _b7/72 z/36 a/10 z/140 ^g25/224 =g11/96 z/60 ^f13/120 z/168 =f3/28 z/84 e5/48 z/80 ^d/10 z/80 =d5/48 z/84 ^c23/224 z3/160 =c17/160 z/96 B11/96 _B25/224 z/140 A/10 ^G/8 =G3/32 z/32 ^F3/28 z/252 =F31/288 z/288 E/9 z/60 ^D3/20 
[G,47/9B,47/9=D47/9] z5/18 
[E15/32e15/32] z/32 [A10/7a10/7] z/14 [G2/9g2/9] z/36 [E/4e/4] [A,,15/32A19/10a19/10] z/32 [E,15/32A,15/32] z/32 A,,15/32 z/32 
[E,15/32A,15/32] z/32 [A,,15/32E19/10e19/10] z/32 [E,15/32A,15/32] z/32 A,,15/32 z/32 [E,15/32A,15/32] z/32 [D,,15/32D19/10d19/10] z/32 [A,,15/32D,15/32] z/32 D,,15/32 z/32 
[A,,15/32D,15/32] z/32 [D,,15/32C17/24c17/24] z/32 [z/4A,,15/32D,15/32] [D/4d/4] [D,,15/32E10/7e10/7] z/32 [A,,15/32D,15/32] z/32 F,,15/32 z/32 [E15/32e15/32C,15/32=F,15/32] z/32 [D15/32d15/32F,,15/32] z/32 
[C15/32c15/32C,15/32F,15/32] z/32 [F,,15/32D17/24d17/24] z/32 [z/4C,15/32F,15/32] [z/4C17/24c17/24] F,,15/32 z/32 [C,15/32F,15/32C19/10c19/10] z/32 E,,15/32 z/32 [B,,15/32E,15/32] z/32 E,,15/32 z/32 
[E15/32e15/32B,,15/32E,15/32] z/32 [E,,15/32A10/7a10/7] z/32 [B,,15/32E,15/32] z/32 E,,15/32 z/32 [G2/9g2/9B,,15/32E,15/32] z/36 [E/4e/4] [A,,15/32A10/7a10/7] z/32 [E,15/32A,15/32] z/32 A,,15/32 z/32 
[E15/32e15/32E,15/32A,15/32] z/32 [A,,15/32D17/24d17/24] z/32 [z/4E,15/32A,15/32] [C/4c/4] [A,,15/32A,57/20A57/20] z/32 [E,15/32A,15/32] z/32 D,,15/32 z/32 [A,,15/32D,15/32] z/32 D,,15/32 z/32 
[A,,15/32D,15/32] z/32 [D,,15/32C17/24c17/24] z/32 [z/4A,,15/32D,15/32] [D/4d/4] [D,,15/32E19/10e19/10] z/32 [A,,15/32D,15/32] z/32 F,,15/32 z/32 [C,15/32F,15/32] z/32 [G15/32g15/32F,,15/32] z/32 
[E15/32e15/32C,15/32F,15/32] z/32 [F,,15/32D17/24d17/24] z/32 [z/4C,15/32F,15/32] [z/4C17/24c17/24] F,,15/32 z/32 [C,15/32F,15/32C19/8c19/8] z/32 E,,15/32 z/32 [B,,15/32E,15/32] z/32 E,,15/32 z/32 
[B,,15/32E,15/32] z/32 [E,,15/32A17/24a17/24] z/32 [z/4B,,15/32E,15/32] [z/4G17/24g17/24] E,,15/32 z/32 [G2/9g2/9B,,15/32E,15/32] z/36 [A/4a/4] [A,,15/32c19/10c'19/10] z/32 [E,15/32A,15/32] z/32 A,,15/32 z/32 
[E,15/32A,15/32] z/32 [A,,15/32A19/10a19/10] z/32 [E,15/32A,15/32] z/32 A,,15/32 z/32 [E,15/32A,15/32] z/32 [D,,15/32e19/5g19/5e'19/5] z/32 [A,,15/32D,15/32] z/32 D,,15/32 z/32 
[A,,15/32D,15/32] z/32 D,,15/32 z/32 [A,,15/32D,15/32] z/32 D,,15/32 z/32 [A,,15/32D,15/32] z/32 F,,15/32 z/32 [e15/32e'15/32C,15/32F,15/32] z/32 [d15/32d'15/32F,,15/32] z/32 
[c15/32c'15/32C,15/32F,15/32] z/32 [F,,15/32d17/24d'17/24] z/32 [z/4C,15/32F,15/32] [z/4c17/24c'17/24] F,,15/32 z/32 [C,15/32F,15/32c19/8c'19/8] z/32 E,,15/32 z/32 [B,,15/32E,15/32] z/32 E,,15/32 z/32 
[B,,15/32E,15/32] z/32 [E,,15/32A17/24a17/24] z/32 [z/4B,,15/32E,15/32] [z/4G17/24g17/24] E,,15/32 z/32 [E15/32e15/32B,,15/32E,15/32] z/32 [A,,15/32A10/7a10/7] z/32 [E,15/32A,15/32] z/32 A,,15/32 z/32 
[E15/32e15/32E,15/32A,15/32] z/32 [A,,15/32D17/24d17/24] z/32 [z/4E,15/32A,15/32] [C/4c/4] [A,,15/32A,19/20A19/20] z/32 [E,15/32A,15/32] z/32 [C15/32c15/32D,,15/32] z/32 [D15/32d15/32A,,15/32D,15/32] z/32 [E15/32e15/32D,,15/32] z/32 
[A,,15/32D,15/32D10/7d10/7] z/32 D,,15/32 z/32 [A,,15/32D,15/32] z/32 [c15/32D,,15/32] z/32 [A15/32A,,15/32D,15/32] z/32 [c15/32F,,19/5A,,19/5C,19/5] z/32 d15/32 z/32 e15/32 z/32 
d10/7 z/14 c15/32 z/32 [z/c77/18] [C,38/5E,38/5G,38/5] 
