X: 1
T: PATD - High Hopes
Z: ABC Generated by Starbound Composer v0.8.7
L: 1/4
M: 2/4
Q: 1/4=82
K: F
[F15/32B15/32d15/32B,10/7B,,19/10] z/32 [F2/9B2/9d2/9] z/36 [F/4B/4d/4] [F15/32B15/32d15/32] z/32 [F15/32B15/32d15/32B,15/32] z/32 [F15/32A15/32c15/32F,10/7F,,19/10] z/32 [F2/9A2/9c2/9] z/36 [F/4A/4c/4] [F15/32A15/32c15/32] z/32 [F15/32A15/32c15/32F,15/32] z/32 
[D15/32F15/32A15/32D,10/7D,,19/10] z/32 [D2/9F2/9A2/9] z/36 [D/4F/4A/4] [D15/32F15/32A15/32] z/32 [D15/32F15/32A15/32D,15/32] z/32 [C15/32E15/32G15/32C,10/7C,,19/10] z/32 [C2/9E2/9G2/9] z/36 [C/4E/4G/4] [C15/32E15/32G15/32] z/32 [C15/32E15/32G15/32C,15/32] z/32 
M: 2/4
M: 2/4
[F15/32B15/32d15/32B,10/7B,,19/10] z/32 [F2/9B2/9d2/9] z/36 [F/4B/4d/4] [F15/32B15/32d15/32] z/32 [F15/32B15/32d15/32B,15/32] z/32 [F15/32A15/32c15/32F,10/7F,,19/10] z/32 [F2/9A2/9c2/9] z/36 [F/4A/4c/4] [F15/32A15/32c15/32] z/32 [F15/32A15/32c15/32F,15/32] z/32 
[D15/32F15/32A15/32D,10/7D,,19/10] z/32 [D2/9F2/9A2/9] z/36 [D/4F/4A/4] [D15/32F15/32A15/32] z/32 [D15/32F15/32A15/32D,15/32] z/32 [C15/32E15/32A,,19/10A,19/10] z/32 [C2/9E2/9] z/36 [C/4E/4] F2/9 z/36 G/4 F15/32 z/32 
[D15/32A15/32B,10/7B,,19/10] z/32 [D15/32A15/32] z/32 [D15/32A15/32] z/32 [A2/9B,15/32] z/36 G/4 [F2/9F,10/7F,,19/10] z/36 ^C/12 D53/84 z/28 [=C2/9A2/9] z/36 [C/4A/4] [C15/32A15/32F,15/32] z/32 
[F15/32c15/32D,10/7D,,19/10] z/32 [c2/9F15/32] z/36 d/4 G2/9 z/36 G/4 [G2/9D,15/32] z/36 F/4 [F2/9C,10/7C,,19/10] z/36 G17/24 z/24 [C2/9G2/9B2/9] z/36 [C/4G/4B/4] [C2/9G2/9B2/9C,15/32] z/36 [C/4G/4B/4] 
[A15/32D19/20B,10/7B,,19/10] z/32 A2/9 z/36 G/4 A2/9 z/36 G/4 [G2/9B,15/32] z/36 F/4 [F2/9F,10/7F,,19/10] z/36 D17/24 z/24 F2/9 z/36 G/4 [F15/32F,15/32] z/32 
[D15/32A15/32D,10/7D,,19/10] z/32 [D15/32A15/32] z/32 [D15/32A15/32] z/32 [G5/32D,15/32] z/96 F13/84 z/84 D/6 [C15/32E15/32A,19/20A,,19/10] z/32 [C2/9E2/9] z/36 [C/4E/4] [F2/9C19/20A,19/20] z/36 G/4 F15/32 z/32 
[D15/32A15/32B,10/7B,,19/10] z/32 [D15/32A15/32] z/32 [D15/32A15/32] z/32 [A2/9B,15/32] z/36 G/4 [F2/9F,10/7F,,19/10] z/36 ^C/12 D53/84 z/28 [=C2/9A2/9] z/36 [C/4A/4] [C15/32A15/32F,15/32] z/32 
[F15/32c15/32D,10/7D,,19/10] z/32 [c2/9F15/32] z/36 d/4 G2/9 z/36 G/4 [G2/9D,15/32] z/36 F/4 [F2/9C,10/7C,,19/10] z/36 G17/24 z/24 [C2/9G2/9B2/9] z/36 [C/4G/4B/4] [C2/9G2/9B2/9C,15/32] z/36 [C/4G/4B/4] 
[A15/32D19/20B,10/7B,,19/10] z/32 A2/9 z/36 G/4 A2/9 z/36 G/4 [G2/9B,15/32] z/36 F/4 [F2/9F,10/7F,,19/10] z/36 D17/24 z/24 F2/9 z/36 G/4 [F15/32F,15/32] z/32 
[D15/32A15/32D,10/7D,,19/10] z/32 [D15/32A15/32] z/32 [D15/32A15/32] z/32 [G5/32D,15/32] z/96 F13/84 z/84 D/6 [A15/32e15/32E19/20A,19/10C19/10] z/32 [A15/32e15/32] z/32 [c2/9E19/20] z/36 [A/4e/4] c2/9 z/36 c/4 
[c2/9B,10/7B,,19/10] z/36 c/4 [zf10/7] B,15/32 z/32 [f2/9F,10/7F,,19/10] z/36 f/4 f2/9 z/36 f/4 d2/9 z/36 [z/4c17/24] F,15/32 z/32 
[c2/9D,10/7D,,19/10] z/36 c/4 c2/9 z/36 f/4 [z/f19/20] D,15/32 z/32 [f2/9C,10/7C,,19/10] z/36 f/4 f2/9 z/36 f/4 d2/9 z/36 [z/4c17/24] C,15/32 z/32 
[B2/9B,10/7B,,19/10] z/36 B/4 B2/9 z/36 B/4 A2/9 z/36 [z/4A17/24] B,15/32 z/32 [B2/9F,10/7F,,19/10] z/36 B/4 B2/9 z/36 A17/36 z/36 A/4 [A2/9F,15/32] z/36 A/4 
[A2/9D,10/7D,,19/10] z/36 G/4 G19/20 z/20 [F2/9D,15/32] z/36 G/4 [G2/9A,10/7A,,19/10] z/36 F/4 [zF10/7] A,15/32 z/32 
[c2/9B,10/7B,,19/10] z/36 c/4 [zf10/7] B,15/32 z/32 [f2/9F,10/7F,,19/10] z/36 f/4 f2/9 z/36 f/4 d2/9 z/36 [z/4c17/24] F,15/32 z/32 
[c2/9D,10/7D,,19/10] z/36 c/4 c2/9 z/36 f/4 c2/9 z/36 c/4 D,15/32 z/32 [c2/9C,10/7C,,19/10] z/36 c/4 c2/9 z/36 f/4 c2/9 z/36 c/4 C,15/32 z/32 
[B2/9B,10/7B,,19/10] z/36 B/4 B2/9 z/36 B/4 A2/9 z/36 [z/4A17/24] B,15/32 z/32 [B2/9F,10/7F,,19/10] z/36 B/4 B2/9 z/36 A17/36 z/36 A/4 [A2/9F,15/32] z/36 A/4 
[A2/9D,10/7D,,19/10] z/36 G/4 G19/20 z/20 [F2/9D,15/32] z/36 G/4 [G2/9A,10/7A,,19/10] z/36 F/4 F19/20 z/20 [A2/9A,15/32] z/36 B/4 
[F,,15/32F19/20A19/20c19/20f19/20] z/32 C,15/32 z/32 [B5/16F,19/20] z/48 c19/60 z/60 [z/3^c53/42] [A,,15/32E19/20A19/20e19/20] z/32 ^C,15/32 z/32 [z/E,19/20] A2/9 z/36 A/4 
[e15/32D,15/32] z/32 [e2/9F,15/32] z/36 [z/4d17/24] [z/A,19/20] A2/9 z/36 G/4 [C,15/32F10/7] z/32 F,15/32 z/32 [z/B,19/20] A2/9 z/36 B/4 
[F,,15/32F19/20A19/20=c19/20f19/20] z/32 =C,15/32 z/32 [B5/16F,19/20] z/48 c19/60 z/60 [z/3^c53/42] [A,,15/32E19/20A19/20e19/20] z/32 ^C,15/32 z/32 [z/E,19/20] A2/9 z/36 A/4 
[e15/32D,15/32] z/32 [e2/9F,15/32] z/36 [z/4d17/24] [z/A,19/20] A2/9 z/36 G/4 [C,15/32F19/20] z/32 F,15/32 z/32 [F2/9f2/9B,19/20] z/36 [G/4g/4] [F15/32f15/32] z/32 
[d15/32a15/32B,10/7B,,19/10] z/32 [d15/32a15/32] z/32 [d15/32a15/32] z/32 [a2/9B,15/32] z/36 g/4 [f2/9F,10/7F,,19/10] z/36 c/12 d53/84 z/28 [=c2/9a2/9] z/36 [c/4a/4] [c15/32a15/32F,15/32] z/32 
[f15/32c'15/32D,10/7D,,19/10] z/32 [c'2/9f15/32] z/36 d'/4 g2/9 z/36 g/4 [g2/9D,15/32] z/36 f/4 [f2/9=C,10/7C,,19/10] z/36 g17/24 z/24 [c2/9g2/9b2/9] z/36 [c/4g/4b/4] [c2/9g2/9b2/9C,15/32] z/36 [c/4g/4b/4] 
[a15/32d19/20B,10/7B,,19/10] z/32 a2/9 z/36 g/4 a2/9 z/36 g/4 [g2/9B,15/32] z/36 f/4 [f2/9F,10/7F,,19/10] z/36 d17/24 z/24 f2/9 z/36 g/4 [f15/32F,15/32] z/32 
[d15/32a15/32D,10/7D,,19/10] z/32 [d15/32a15/32] z/32 [d15/32a15/32] z/32 [g5/32D,15/32] z/96 f13/84 z/84 d/6 [c15/32e15/32A,19/20A,,19/10] z/32 [c2/9e2/9] z/36 [c/4e/4] [f2/9c19/20A,19/20] z/36 g/4 f15/32 z/32 
[d15/32a15/32B,10/7B,,19/10] z/32 [d15/32a15/32] z/32 [d15/32a15/32] z/32 [a2/9B,15/32] z/36 g/4 [f2/9F,10/7F,,19/10] z/36 ^c/12 d53/84 z/28 [=c2/9a2/9] z/36 [c/4a/4] [c15/32a15/32F,15/32] z/32 
[f15/32c'15/32D,10/7D,,19/10] z/32 [c'2/9f15/32] z/36 d'/4 g2/9 z/36 g/4 [g2/9D,15/32] z/36 f/4 [f2/9C,10/7C,,19/10] z/36 g17/24 z/24 [c2/9g2/9b2/9] z/36 [c/4g/4b/4] [c2/9g2/9b2/9C,15/32] z/36 [c/4g/4b/4] 
[a15/32d19/20B,10/7B,,19/10] z/32 a2/9 z/36 g/4 a2/9 z/36 g/4 [g2/9B,15/32] z/36 f/4 [f2/9F,10/7F,,19/10] z/36 d17/24 z/24 f2/9 z/36 g/4 [f15/32F,15/32] z/32 
[d15/32a15/32D,10/7D,,19/10] z/32 [d15/32a15/32] z/32 [d15/32a15/32] z/32 [g5/32D,15/32] z/96 f13/84 z/84 d/6 [e15/32E19/20A,19/10C19/10] z/32 e15/32 z/32 [c2/9E19/20] z/36 [A/4e/4] c2/9 z/36 c/4 
[c2/9B,10/7B,,19/10] z/36 c/4 [zf10/7] B,15/32 z/32 [f2/9F,10/7F,,19/10] z/36 f/4 f2/9 z/36 f/4 d2/9 z/36 [z/4c17/24] F,15/32 z/32 
[c2/9D,10/7D,,19/10] z/36 c/4 c2/9 z/36 f/4 [z/f19/20] D,15/32 z/32 [f2/9C,10/7C,,19/10] z/36 f/4 f2/9 z/36 f/4 d2/9 z/36 [z/4c17/24] C,15/32 z/32 
[B2/9B,10/7B,,19/10] z/36 B/4 B2/9 z/36 B/4 A2/9 z/36 [z/4A17/24] B,15/32 z/32 [B2/9F,10/7F,,19/10] z/36 B/4 B2/9 z/36 A17/36 z/36 A/4 [A2/9F,15/32] z/36 A/4 
[A2/9D,10/7D,,19/10] z/36 G/4 G19/20 z/20 [F2/9D,15/32] z/36 G/4 [G2/9A,19/20A,,19/10] z/36 F/4 [z/F10/7] A,19/20 z/20 
[z3/4B,,19/10B,19/10] F/4 B5/16 z/48 B19/60 z/60 B29/96 z/32 [A17/24F,,19/10F,19/10] z/24 F/4 B5/16 z/48 B19/60 z/60 B29/96 z/32 
[A19/20D,,19/10D,19/10] z/20 A5/16 z/48 G19/60 z/60 F29/96 z/32 [E19/20C,,19/10C,19/10] z/20 F5/16 z/48 E19/60 z/60 D29/96 z/32 
[z3/4B,,19/10B,19/10] F/4 B5/16 z/48 B19/60 z/60 B29/96 z/32 [A17/24F,,19/10F,19/10] z/24 F/4 c5/16 z/48 B19/60 z/60 A29/96 z/32 
[A19/20D,,19/10D,19/10] z/20 A5/16 z/48 G19/60 z/60 F29/96 z/32 [E10/7A,,19/10A,19/10] z/14 A2/9 z/36 B/4 
[F,,15/32F19/20A19/20c19/20f19/20] z/32 C,15/32 z/32 [B5/16F,19/20] z/48 c19/60 z/60 [z/3^c53/42] [A,,15/32E19/20A19/20e19/20] z/32 ^C,15/32 z/32 [z/E,19/20] A2/9 z/36 A/4 
[e15/32D,15/32] z/32 [e2/9F,15/32] z/36 [z/4d17/24] [z/A,19/20] A2/9 z/36 G/4 [C,15/32F10/7] z/32 F,15/32 z/32 [z/B,19/20] A2/9 z/36 B/4 
[F,,15/32F19/20A19/20=c19/20f19/20] z/32 =C,15/32 z/32 [B5/16F,19/20] z/48 c19/60 z/60 [z/3^c53/42] [A,,15/32E19/20A19/20e19/20] z/32 ^C,15/32 z/32 [z/E,19/20] A2/9 z/36 A/4 
[e15/32D,15/32] z/32 [e2/9F,15/32] z/36 [z/4d17/24] [z/A,19/20] A2/9 z/36 G/4 [C,15/32F10/7] z/32 F,15/32 z/32 [z/B,19/20] f2/9 z/36 f/4 
[f15/32A19/10A,19/10C19/10F19/10] z/32 f15/32 z/32 f15/32 z/32 f2/9 z/36 f/4 [e2/9G19/10A,19/10^C19/10E19/10] z/36 e/4 e2/9 z/36 e/4 e5/16 z/48 f19/60 z/60 e29/96 z/32 
[d5/8F19/10F,19/10A,19/10D19/10] z/24 d19/30 z/30 d53/84 z/28 [F19/20B19/20c19/20F,19/10B,19/10C19/10] z3/10 =c/4 c2/9 z/36 c/4 
[f15/32A,19/10=C19/10F19/10] z/32 f15/32 z/32 f15/32 z/32 f2/9 z/36 f/4 [e2/9A,19/10^C19/10E19/10] z/36 e/4 e2/9 z/36 e/4 e5/16 z/48 f19/60 z/60 e29/96 z/32 
[d5/8F19/10F,19/10A,19/10D19/10] z/24 d19/30 z/30 d53/84 z/28 [F19/20B19/20^c19/20F,19/10B,19/10C19/10] z/20 F2/9 z/36 G/4 F15/32 z/32 
[A15/32B,,19/10] z/32 A15/32 z/32 A15/32 z/32 G2/9 z/36 F/4 [F2/9F,,19/10] z/36 D17/24 z/24 A2/9 z/36 A/4 A15/32 z/32 
[=c15/32D,,19/10] z/32 c2/9 z/36 d/4 G2/9 z/36 G/4 G2/9 z/36 F/4 [F2/9C,,19/10] z/36 G17/24 z/24 B2/9 z/36 B/4 B2/9 z/36 B/4 
[A15/32B,,19/10] z/32 G2/9 z/36 A/4 G15/32 z/32 G2/9 z/36 F/4 [F2/9F,,19/10] z/36 D17/24 z/24 F2/9 z/36 G/4 F15/32 z/32 
[A15/32D,,19/10] z/32 A15/32 z/32 A15/32 z/32 G5/32 z/96 F13/84 z/84 D/6 [E15/32A,,19/10] z/32 E2/9 z/36 E/4 F2/9 z/36 G/4 F15/32 z/32 
[D15/32F15/32A15/32B,10/7B,,19/10] z/32 [D15/32F15/32A15/32] z/32 [D15/32F15/32A15/32] z/32 [A2/9B,15/32] z/36 G/4 [F2/9F,10/7F,,19/10] z/36 C/12 D53/84 z/28 [=C2/9F2/9A2/9] z/36 [C/4F/4A/4] [C15/32F15/32A15/32F,15/32] z/32 
[F15/32A15/32c15/32D,10/7D,,19/10] z/32 [c2/9F15/32] z/36 d/4 G2/9 z/36 G/4 [G2/9D,15/32] z/36 F/4 [F2/9=C,10/7C,,19/10] z/36 G17/24 z/24 [C2/9G2/9B2/9] z/36 [C/4G/4B/4] [C2/9G2/9B2/9C,15/32] z/36 [C/4G/4B/4] 
[A15/32D19/20B,10/7B,,19/10] z/32 A2/9 z/36 G/4 A2/9 z/36 G/4 [G2/9B,15/32] z/36 F/4 [F2/9F,10/7F,,19/10] z/36 D17/24 z/24 F2/9 z/36 G/4 [F15/32F,15/32] z/32 
[D15/32A15/32D,10/7D,,19/10] z/32 [D15/32A15/32] z/32 [D15/32A15/32] z/32 [G5/32D,15/32] z/96 F13/84 z/84 D/6 [A15/32A,19/20A,,19/10] z/32 A15/32 z/32 [F2/9f2/9A,19/20] z/36 [G/4g/4] [F15/32f15/32] z/32 
[d15/32a15/32B,10/7B,,19/10] z/32 [d15/32a15/32] z/32 [d15/32a15/32] z/32 [a2/9B,15/32] z/36 g/4 [f2/9F,10/7F,,19/10] z/36 ^c/12 d53/84 z/28 [=c2/9a2/9] z/36 [c/4a/4] [c15/32a15/32F,15/32] z/32 
[f15/32c'15/32D,10/7D,,19/10] z/32 [c'2/9f15/32] z/36 d'/4 g2/9 z/36 g/4 [g2/9D,15/32] z/36 f/4 [f2/9C,10/7C,,19/10] z/36 g17/24 z/24 [c2/9g2/9b2/9] z/36 [c/4g/4b/4] [c2/9g2/9b2/9C,15/32] z/36 [c/4g/4b/4] 
[a15/32d19/20B,10/7B,,19/10] z/32 a2/9 z/36 g/4 a2/9 z/36 g/4 [g2/9B,15/32] z/36 f/4 [f2/9F,10/7F,,19/10] z/36 d17/24 z/24 f2/9 z/36 g/4 [f15/32F,15/32] z/32 
[d15/32a15/32D,10/7D,,19/10] z/32 [d15/32a15/32] z/32 [d15/32a15/32] z/32 [g5/32D,15/32] z/96 f13/84 z/84 d/6 [d15/32a15/32B,10/7B,,19/10] z/32 [d15/32a15/32] z/32 [d15/32a15/32] z/32 [a2/9B,15/32] z/36 g/4 
[f2/9F,10/7F,,19/10] z/36 ^c/12 d53/84 z/28 [=c2/9a2/9] z/36 [c/4a/4] [c15/32a15/32F,15/32] z/32 [f15/32c'15/32D,10/7D,,19/10] z/32 [c'2/9f15/32] z/36 d'/4 g2/9 z/36 g/4 [g2/9D,15/32] z/36 f/4 
[f2/9C,10/7C,,19/10] z/36 g17/24 z/24 [c2/9g2/9b2/9] z/36 [c/4g/4b/4] [c2/9g2/9b2/9C,15/32] z/36 [c/4g/4b/4] [a15/32d19/20B,10/7B,,19/10] z/32 a2/9 z/36 g/4 a2/9 z/36 g/4 [g2/9B,15/32] z/36 f/4 
[f2/9F,10/7F,,19/10] z/36 d17/24 z/24 f2/9 z/36 g/4 [f15/32F,15/32] z/32 [d15/32a15/32D,10/7D,,19/10] z/32 [d15/32a15/32] z/32 [d15/32a15/32] z/32 [g5/32D,15/32] z/96 f13/84 z/84 d/6 
[a15/32A,19/20A,,19/20] z/32 a15/32 z/32 [E15/32A15/32c15/32A,15/32E,19/20] z/32 [E15/32A15/32c15/32A,15/32] z/32 [E15/32A15/32c15/32C15/32A,19/10] z/32 [E2/9A2/9c2/9C2/9] z/36 [E19/20A19/20c19/20C19/20] 
