X: 1
T: PATD - Say Amen (Vocal)
Z: ABC Generated by Starbound Composer v0.8.7
L: 1/4
M: 4/4
Q: 1/4=167
K: D
z31 
F, C/ C/ C/ C B,/ 
B,/ A,/ B,/ A,/ B,/ C/ B, z/ 
F,/ C/ C/ C/ C/ C/ B,/ B,/ 
A,/ B,/ A,/ F, z F, 
C/ C/ C/ C B,/ B, z/ 
A,/ C B, F,/ F,/ C/ 
C/ C/ C/ B,/ B,/ B,/ A,/ B,/ 
A,/ F, z F,/ F,/ F/ 
F/ C/ C/ B, A,/ B, 
A,/ C B, F,/ F,/ F/ 
F/ F/ F/ C/ B,/ A,/ B,3/ z2 
F, F/ F C B,/ 
B,/ A,/ B,/ A,/ B,/ C/ B,/ A,/ 
F,/ E,/ z F2 
C A,/ F,/ F,/ F,3/ z/ 
F/ A A/ F/ A/ F/ A/ 
F/ A A2 z 
F/ E/ F/ E/ F/ E/ F/ E/ 
F F3/ D/ C z 
F2 E/ D/ C3 
B,/ C/ z F2 
C A,/ F,/ F,/ F, z/ 
A/ F/ A A/ F/ A/ F/ 
A/ F/ A A2 z 
F/ E/ F/ E/ F/ E/ F/ E/ 
F F3/ D/ C z 
F2 E/ D/ C3 
B,/ C/ z F2 
C A,/ F,/ F,/ F, z33 
F,/ C/ C/ C/ C B,/ B,/ 
A,/ z/ F,/ C B,/ F,/ F,/ 
F,/ C C/ C/ C/ B,/ B,/ 
A,/ B,/ A,/ F, z F,/ 
F,/ C/ C C B,/ B, z/ 
A,/ C/ C/ B, z/ F,/ C/ 
C/ C/ C/ C/ B,/ B, B,/ 
A,/ F, z F,/ F,/ F/ 
F/ F/ B,3/ B,/ A,/ z/ 
A,/ C/ C/ B, F,/ F,/ F/ 
F/ F/ F/ B, B,2 z2 
F,/ F,/ F/ F/ F/ F/ B, 
B,/ A,/ B,/ A,/ B,/ C/ B,/ A,/ 
F, z F2 
C A,/ F,/ F,/ F,3/ z/ 
F/ A A/ F/ A/ F/ A/ 
F/ A A2 z 
F/ E/ F/ E/ F/ E/ F/ E/ 
F F3/ D/ C z 
F2 E/ D/ C3 
B,/ C/ z F2 
C A,/ F,/ F,/ F, z/ 
A/ F/ A A/ F/ A/ F/ 
A/ F/ A A2 z 
F/ E/ F/ E/ F/ E/ F/ E/ 
F F3/ D/ C z 
F2 E/ D/ C3 
B,/ C/ z F2 
C A,/ F,/ F,/ F, z4 
F,/ F,/ ^G,/ A, B, G, 
A,/ F,3/ z3/ F,/ 
F,/ E,/ F, C C2 z3 
F,/ G,/ A,3/4 B,3/4 G, A, 
F, G, B,, B,, 
B,, C,2 z4 
F,/ F,/ G,/ A, B, G, 
A,/ F,3/ z3/ F,/ 
F,/ E,/ F, C C/ D/ 
C z5/ F,/ 
F,/ G,/ A,3/4 B,3/4 G,/ G, 
A, z F2 
C A,/ F,/ F,/ F, z 
F/ A A/ F/ A/ F/ A/ 
F/ A A2 z 
F/ E/ F/ E/ F/ E/ F/ E/ 
F F3/ D/ C z 
F2 E/ D/ C3 
B,/ C/ z F2 
C A,/ F,/ F,/ F, z/ 
A/ F/ A A/ F/ A/ F/ 
A/ F/ A A2 z 
F/ E/ F/ E/ F/ E/ F/ E/ 
F F3/ D/ C z 
F2 E/ D/ C3 
B,/ C/ z F2 
C A,/ F,/ F,/ F, z3 
F/ A/ A/ A2 z 
c/ B/ B2 z 
e f/ a/ a3 
b/ a/ [za4] F2 
E/ D/ [C3a3] 
[B,/^g/] [C/f/] z F2 
C A,/ F,/ F,/ F, z3 
F/ c3/ B/ B/ A z/ 
B3/ A/ A/ F z/ 
F3/ E/ E/ C/4 B,/4 B,/ C/ 
B,/ A,/ A,/ z3/ F2 
E/ D/ C3 
B,/ C/ z F2 
C A,/ F,/ F,/ F, 
