X: 1
T: Sonic Force OST - Infinite (Drum Kit)
Z: ABC Generated by Starbound Composer v0.8.7
L: 1/4
M: 4/4
Q: 1/4=130
K: A
[G,,,19/20G,,19/20C19/10G19/10C,,19/10G,,19/10] z/20 [C,,,19/20C,,19/20] z/20 [A,,,19/20A,,19/20C19/10A19/10C,,19/10D,,19/10A,,19/10] z/20 [C,,,19/20C,,19/20] z/20 
[G,,,19/20G,,19/20C19/10G19/10C,,19/10G,,19/10] z/20 [C,,,19/20C,,19/20] z/20 [F,,,19/20F,,19/20C19/10F19/10B,,,19/10C,,19/10F,,19/10] z/20 [C,,,19/20C,,19/20] z/20 
Q: 1/4=132
[G,,,19/20G,,19/20C19/10G19/10C,,19/10G,,19/10] z/20 [C,,,19/20C,,19/20] z/20 [A,,,19/20A,,19/20C19/10A19/10C,,19/10D,,19/10A,,19/10] z/20 [C,,,19/20C,,19/20] z/20 
Q: 1/4=133
[G,,,19/20G,,19/20C19/10G19/10C,,19/10G,,19/10] z/20 [C,,,19/20C,,19/20] z/20 [F,,,19/20F,,19/20C19/10F19/10B,,,19/10C,,19/10F,,19/10] z/20 [C,,,19/20C,,19/20] z/20 
Q: 1/4=136
[G,,,19/20G,,19/20A,19/10G19/10A,,,19/10C,,19/10G,,19/10] z/20 [C,,,19/20C,,19/20] z/20 [A,,,19/20A,,19/20A,19/10A19/10A,,,19/10D,,19/10A,,19/10] z/20 [C,,,19/20C,,19/20] z/20 
Q: 1/4=137
[G,,,19/20G,,19/20A,19/10G19/10A,,,19/10C,,19/10G,,19/10] z/20 [C,,,19/20C,,19/20] z/20 [F,,,19/20F,,19/20A,19/10F19/10A,,,19/10B,,,19/10F,,19/10] z/20 [C,,,19/20C,,19/20] z/20 
Q: 1/4=139
z4 
Q: 1/4=120
z4 
Q: 1/4=139
z48 
[A,,,17/24A,17/24] z/24 [A,,,17/24A,17/24] z/24 [A,,,19/8A,19/8] z/8 
[A,,,17/24A,17/24] z/24 [A,,,17/24A,17/24] z/24 [A,,,19/8A,19/8] z/8 
[B,,,17/24B,17/24] z/24 [B,,,17/24B,17/24] z/24 [B,,,19/8B,19/8] z/8 
[B,,,17/24B,17/24] z/24 [B,,,17/24B,17/24] z/24 [B,,,19/8B,19/8] z129/8 
[A,,,17/24A,17/24] z/24 [A,,,17/24A,17/24] z/24 [A,,,19/8A,19/8] z/8 
[A,,,17/24A,17/24] z/24 [A,,,17/24A,17/24] z/24 [A,,,19/8A,19/8] z/8 
[B,,,17/24B,17/24] z/24 [B,,,17/24B,17/24] z/24 [B,,,19/8B,19/8] z/8 
[B,,,17/24B,17/24] z/24 [B,,,17/24B,17/24] z/24 [B,,,19/8B,19/8] z769/8 
A,,,38/5 z2/5 
G,,,38/5 z2/5 
F,,,38/5 z2/5 
A,,,38/5 z2/5 
A,,,38/5 z2/5 
G,,,38/5 z2/5 
F,,,38/5 z2/5 
A,,,38/5 z222/5 
[G,,15/32C,15/32] z/32 [G,,15/32C,15/32] z33/32 [G,,15/32C,15/32] z/32 [G,,15/32C,15/32] z33/32 
[G,,15/32C,15/32] z/32 [G,,15/32C,15/32] z5089/32 
A,,,38/5 z2/5 
G,,,38/5 z2/5 
F,,,38/5 z2/5 
A,,,38/5 z2/5 
A,,,38/5 z2/5 
G,,,38/5 z2/5 
F,,,38/5 z2/5 
A,,,38/5 
