X: 1
T: Sonic Force OST - Infinite (High-Pitch Microphone)
Z: ABC Generated by Starbound Composer v0.8.7
L: 1/4
M: 4/4
Q: 1/4=130
K: A
z8 
Q: 1/4=132
z4 
Q: 1/4=133
z4 
Q: 1/4=136
z4 
Q: 1/4=137
z4 
Q: 1/4=139
z4 
Q: 1/4=120
z4 
Q: 1/4=139
z31 
G,/ A,/ G,/ A,/ G,/ A,/ G,/ G,/ 
G,/ A,/ G,/ B,/ A,/ G,/ G, 
G,/ A,/ G,/ A,/ G,/ A,/ G,/ G,/ 
G,/ A,/ G,/ B,/ A,/ G,/ G, 
A,/ A,/ A,/ A,/ A,/ A,/ A, 
A,/ A,/ A,/ A,/ A,/ A,/ A, 
A,/ A,/ A,/ B,/ B,/ B,/ B,/ B,/ 
B,/ B,/ B,/ B,/ B,/ B,/ B, 
G,/ A,/ G,/ A,/ G,/ A,/ G, 
G,/ A,/ G,/ B,/ A,/ G,/ G,/ G,/ 
G,/ A,/ G,/ A,/ G,/ A,/ G, 
G,/ A,/ G,/ B,/ A,/ G,/ G,/ G,/ 
A,/ A,/ A,/ A,/ A,/ A,/ A,/ A,/ 
A,/ A,/ A,/ A,/ A,/ A,/ A, 
A,/ A,/ A,/ B,/ B,/ B,/ B,/ B,/ 
B,/ B,/ B,/ B,/ B,/ B,/ B,/ B,/ z19/ 
F,/ C C/ C/ C/ C/ A,/ 
C/ C2 z19/ 
F,/ C/ C/ C/ C/ C/ C/ A,/ 
C/ C2 z9 
F,/ F,/ F,/ F,/ F, C, 
F,/ F,/ F,/ F,/ F, C, z15/ 
F,/ F,/ F,/ F,/ F,/ F, C, 
F,/ F,/ F,/ G,/ A, G, z8 
F,/ F,/ F,/ F,/ F, C, 
F,/ F,/ F,/ G,/ A,/ G,/ G, z3/ 
E,/ C,3/ z2 
E,/ C,3/ z25/ 
[D,/A,/] [D,/A,/] [D,/A,/] [D,/A,/] [D,/A,/] [D,/A,/] [D,A,] z7/ 
D, C, C,/ B,,/ C,/ C, z7/ 
[D,/A,/] [D,/A,/] [D,/A,/] [D,/A,/] [D,/A,/] [D,/A,/] [D,A,] z/ 
C,/ C,/ C,/ C,/ C,/ C, B,,/ 
B,,/ B,,/ B,,/ B,,/ B,,/ C, z9/ 
[D,/A,/] [D,/A,/] [D,/A,/] [D,/A,/] [D,/A,/] [D,/A,/] [D,A,] z7/ 
D, C, C,/ B,,/ C,/ C, z7/ 
[D,/A,/] [D,/A,/] [D,/A,/] [D,/A,/] [D,/A,/] [D,/A,/] [D,A,] z/ 
C,/ C,/ C,/ C,/ C,/ C, B,,/ 
B,,/ B,,/ B,,/ B,,/ B,,/ C, z5/ 
F,/ F,/ G, z2 
F,/ F,/ G, z43 
G,/ A,/ G,/ A,/ G,/ A,/ G,/ G,/ 
G,/ A,/ G,/ B,/ A,/ G,/ G,/ G, 
A,/ G,/ A,/ G,/ A,/ G, G,/ 
A,/ G,/ B,/ A,/ G,/ G, z15/ 
G,/ A,/ G,/ A,/ G,/ A,/ G, 
G,/ A,/ G,/ B,/ A,/ G,/ G,/ G, 
G,/ A,/ G,/ A,/ G,/ A,/ G, 
G,/ A,/ G,/ B,/ A,/ G,/ G,/ G, z25 
F,/ C C/ C/ C/ C/ A,/ 
C/ C2 z29 
F,/ F,/ F,/ F,/ F, C, 
F,/ F,/ F,/ F,/ F, C, z15/ 
F,/ F,/ F,/ F,/ F,/ F, C, 
F,/ F,/ F,/ G,/ A, G, z8 
F,/ F,/ F,/ F,/ F, C, 
F,/ F,/ F,/ G,/ A,/ G,/ G, z3/ 
E,/ C,3/ z2 
E,/ C,3/ z25/ 
[D,/A,/] [D,/A,/] [D,/A,/] [D,/A,/] [D,/A,/] [D,/A,/] [D,A,] z7/ 
D, C, C,/ B,,/ C,/ C, z7/ 
[D,/A,/] [D,/A,/] [D,/A,/] [D,/A,/] [D,/A,/] [D,/A,/] [D,A,] z/ 
C,/ C,/ C,/ C,/ C,/ C, B,,/ 
B,,/ B,,/ B,,/ B,,/ B,,/ C, z9/ 
[D,/A,/] [D,/A,/] [D,/A,/] [D,/A,/] [D,/A,/] [D,/A,/] [D,A,] z7/ 
D, C, C,/ B,,/ C,/ C, z7/ 
[D,/A,/] [D,/A,/] [D,/A,/] [D,/A,/] [D,/A,/] [D,/A,/] [D,A,] z/ 
C,/ C,/ C,/ C,/ C,/ C, B,,/ 
B,,/ B,,/ B,,/ B,,/ B,,/ C, z5/ 
F,/ F,/ G, z2 
F,/ F,/ G, z12 
F,/ F,/ F,/ F,/ F,/ F,/ G, 
