X: 1
T: Sword Art Online OP - Crossing Field
Z: ABC Generated by Starbound Composer v0.8.7
L: 1/4
M: 4/4
Q: 1/4=120
K: F
z2 
Q: 1/4=185
F/ G/ A 
[D,2A,2F3c3] [A,D] [FD,] 
[A,,E2] E, [d23/14A,2C2E2] z25/168 d5/24 
[c/32B,,] z31/32 F, [z3/F,2B,2D2] A/ 
[BC,] [AC,,] [G^C,,^C,] [AC,,C,] 
[B,,,/B,,/F4A4d4f4] [B,,,/B,,/] [B,,,/B,,/] [B,,,/B,,/] [B,,,/B,,/] [B,,,/B,,/] [B,,,/B,,/] [B,,,/B,,/] 
[=C,,=C,E2G2c2e2] [C,,C,] [C,,C,C3/c3/] [C,,/C,/] [D,,D,D4F4A4d4] 
[D,,/D,/] [D,,D,] [D,,D,] [D,,/D,/] [DFAdD,,D,] 
[D/F/A/d/D,,/D,/] [D,,D,D3F3A3d3] D,/ C,/ B,,/ A,,/ [f/D,,/] 
[A,,/e] B,,/ [A,,/f] C,/ [B,,/g] A,,/ [B,,/c5/] G,,/ 
A,,/ B,,/ A,,/ [C,/c] B,,/ [A,,/e] B,,/ [f/D,,/] 
[A,,/e] B,,/ [A,,/f] C,/ [B,,/g] A,,/ [B,,/c5/] A,,/ 
G,,/ F,,/ E,,/ [F,,/c] E,,/ [D,,/f] C,,/ [B,,,/B,,/c3/f3/c'3/] 
F,,/ [B,,/a'3/] [F,,/f5/] C,/ [F,,/f'3/] D,/ F,,/ [B,,,/g'3/] 
F,,/ B,,/ [F,,/e'3/] C,/ F,,/ [D,/f'] F,,/ [C,,/C,/] 
G,,/ C,/ G,,/ [D,/G2c2f2] G,,/ E,/ G,,/ [C,,/C,/G2c2e2] 
G,,/ C,/ G,,/ [D,/G2c2] G,,/ E,/ G,,/ [f/D,,/D,/] 
[A,,/e] B,,/ [A,,/f] C,/ [B,,/g] A,,/ [B,,/c5/] G,,/ 
A,,/ B,,/ A,,/ [C,/c] B,,/ [A,,/e] B,,/ [f/D,,/D,/] 
[A,,/e] B,,/ [A,,/f] C,/ [B,,/g] A,,/ [B,,/c'3/] A,,/ 
G,,/ [F,,/c'] E,,/ [F,,/f] E,,/ [D,,/g] C,,/ [B,,,/B,,/c3/g3/] 
F,,/ [B,,/a'3/] [F,,/f5/] C,/ [F,,/f'3/] D,/ F,,/ [B,,,/g'3/] 
F,,/ B,,/ [F,,/e'3/] C,/ F,,/ [D,/f'] F,,/ [C,,/C,/] 
G,,/ C,/ G,,/ [D,/G2c2e2] G,,/ E,/ G,,/ [z/4C,,/G2] [z/4c7/4] 
[G,,/f3/] C,/ G,,/ [C,,C,G2c2g2] [C,,C,] [B,,,2B,,2B3d3a3] 
[B,,F,] [BfB,,B,] [c3/g3/A,,2G,2] [z/c3/f3/] 
[zF,2A,2C2] c [D,A3/d3/] [z/A,] [z/A5/f5/] 
[D,2A,2D2] [G,,G3/=B3/] [z/D,] [z/G5/B5/f5/] 
[G,2=B,2D2] [_B/d/g/B,,,/B,,/] [B,,,/B,,/Bdf] [B,,,/B,,/] [B,,,/B,,/Bdg] 
[B,,,/B,,/] [B,,,/B,,/Bda] [B,,,/B,,/] [B,,,/B,,/B5/d5/b5/] [B,,,/B,,/] [B,,,/B,,/] [B,,,/B,,/] [B,,,/B,,/] 
[B,,,/B,,/dg] [B,,,/B,,/] [B,,,/B,,/df] [B,,,/B,,/] [c/g/C,,/C,/] [C,,/C,/f] [C,,/C,/] [cgC,,C,] 
[cc'C,,C,] [c/c'/C,,/C,/] [c2e2b2C,,2C,2] [G2g2C,,2C,2] 
[A2d2f2a2B,,,3B,,3] [Ff] [GgB,,,B,,] 
[GcegC,,C,] z f/ g/ a 
[D,,,D,,c3f3a3c'3] A,,/ D,/ E,/ F,/ [E,/Ff] D,/ 
[A,,,A,,E2A2c2e2] E,,/ A,,/ [C,/d3/d'3/] E,/ A,/ [c/c'/E,/] 
[B,,,/c3f3a3c'3] F,,/ B,,/ F,,/ C,/ F,,/ [A/a/D,/] [F,,/B3/b3/] 
C,,/ G,,/ [C,/Aa] G,,/ [GgC,,C,] [BbC,,C,] 
[B,,,/A3/d3/f3/a3/] [B,,/D,/] [B,,/D,/] [G/g/B,,/D,/] [B,,,/A3/d3/f3/a3/] [B,,/E,/] [B,,/E,/] [G/g/B,,/E,/] 
[B,,,/A3/d3/f3/a3/] [B,,/F,/] [B,,/F,/] [G/g/B,,/F,/] [B,,,/A3/d3/f3/a3/] [B,,/G,/] [B,,/G,/] [G/g/B,,/G,/] 
[AaA,,,A,,] [B/b/A,,,/A,,/] [AaA,,,A,,] [dd'A,,,A,,] [^C,,^C,A5/a5/] 
[D,,/D,/] [zE,,2E,2] f/ g/ [aA,,,A,,] [D,,,D,,c3f3a3c'3] 
A,,/ D,/ E,/ F,/ [E,/Ff] D,/ [A,,,/A,,/E2e2] [A/c/E,,/] 
[A/c/A,,/] [A/c/=C,/] [E,/d3/d'3/] A,/ E,/ [c/c'/C,/] [B,,,/c3c'3] [f/a/F,,/] 
[f/a/B,,/] [f/a/F,,/] [C,/fa] F,,/ [A/a/D,/] [F,,/B3/b3/] =C,,/ G,,/ 
[C,/Aa] G,,/ [GgC,,C,] [Bb^C,,^C,] [B,,,/A3/d3/f3/a3/] F,,/ 
B,,/ [G/g/F,,/] [B,,,/A3/d3/f3/a3/] F,,/ B,,/ [G/g/F,,/] [B,,,/B,,/A3/d3/f3/a3/] F,,/ 
[B,,,/B,,/] [G/g/F,,/] [B,,,/B,,/A3/d3/f3/a3/] [B,,,/B,,/] [B,,,/B,,/] [A/a/B,,,/B,,/] [cc'A,,,A,,] 
[B/b/A,,,/A,,/] [AaA,,,A,,] [dd'A,,,A,,] [E,,E,G2g2] [D,,/D,/] 
[z/C,,3C,3] g/ a/ g/ c'/ a/ [G,,/a'] D,/ 
[f'/G,/] [A,/d'3/] _B,/ D/ [G/db] D/ [A,,/ca] E,/ 
[A,/cg] C/ [c/g/E/] [A/c3/a3/] E/ C/ [A3/d3/D,,3/D,3/] 
[A/d/D,,/D,/] [A3/e3/E,,3/E,3/] [A/e/E,,/E,/] [A3/f3/F,,3/F,3/] 
[g/F,,/F,/] [a/G,,G,] g/ [aG,,G,] [B,,,/Adfa] F,,/ [G/g/B,,/] 
[D,/Ff] F,/ [B,/C3/c3/] F,/ D,/ [=C,,/=C,/Gceg] G,,/ [F/f/C,/] 
[D,/Ee] E,/ [D,/C3/c3/] C,/ G,,/ [D/F/A/d/D,,/D,/] [DFAdD,,D,] 
[D/F/A/d/D,,/D,/] [DFAdD,,D,] [D/F/A/d/D,,/D,/] [D,,3/D,3/D5/F5/A5/d5/] [D,,D,] 
[z/20f''/16D,,D,] [z/20e''11/180] [z9/160d''/15] [z5/96c''/16] [z/24=b'5/72] [z/16a'/14] g'/16 [z/24f'3/56] e'5/96 [z/16d'15/224] c'5/96 [z/24=b5/84] a/16 [z5/144g/16] [z5/72f7/90] [z5/96e7/120] [z11/224d9/160] [z13/252c11/168] =B/18 [AD,,D,] D,,/ A,,/ [D,/g] A,,/ 
[D,,/f] A,,/ [c/D,/] [A,,/g3/] A,,,/ E,,/ [f/A,,/] [E,,/c] 
A,,,/ [E,,/e] A,,/ [E,,/d3/] B,,,/ F,,/ [B,,/g] F,,/ 
[B,,,/f] F,,/ [c/B,,/] [F,,/g3/] C,,/ G,,/ [f/C,/] [G,,/c] 
C,,/ [G,,/e3/] C,/ G,,/ [F4A4d4f4D,,4A,,4D,4] 
M: 6/4
[D,,,6D,,6D,6F,6A,6D6] 
