X: 1
T: Undertale - Megalovania (Rock ver)
Z: ABC Generated by Starbound Composer v0.8.7
L: 1/4
M: 4/4
Q: 1/4=120
K: C
D2/9 z/36 D/4 d/4 z/4 A/4 z/ ^G/4 z/4 =G/4 z/4 F17/36 z/36 D/4 F2/9 z/36 G/4 
C2/9 z/36 C/4 d/4 z/4 A/4 z/ ^G/4 z/4 =G/4 z/4 F17/36 z/36 D/4 F2/9 z/36 G/4 
B,2/9 z/36 B,/4 d/4 z/4 A/4 z/ ^G/4 z/4 =G/4 z/4 F17/36 z/36 D/4 F2/9 z/36 G/4 
_B,2/9 z/36 B,/4 d/4 z/4 A/4 z/ ^G/4 z/4 =G/4 z/4 F17/36 z/36 D/4 F2/9 z/36 G/4 
[D2/9D,/4] z/36 D/4 [d/4D,/4] z/4 [D,2/9A/4] z/36 D,/4 z/4 [^G/4D,/4] z/4 [=G/4D,/4] z/4 [D,/4F17/36] D,2/9 z/36 [D/4D,/4] [F2/9D,/4] z/36 G/4 
[C2/9C,/4] z/36 C/4 [d/4C,/4] z/4 [C,2/9A/4] z/36 C,/4 z/4 [^G/4C,/4] z/4 [=G/4C,/4] z/4 [C,/4F17/36] C,2/9 z/36 [D/4C,/4] [F2/9C,/4] z/36 G/4 
[=B,2/9B,,/4] z/36 B,/4 [d/4B,,/4] z/4 [B,,2/9A/4] z/36 B,,/4 z/4 [^G/4B,,/4] z/4 [=G/4B,,/4] z/4 [B,,/4F17/36] B,,2/9 z/36 [D/4B,,/4] [F2/9B,,/4] z/36 G/4 
[_B,2/9_B,,/4] z/36 B,/4 [d/4B,,/4] z/4 [B,,2/9A/4] z/36 B,,/4 z/4 [^G/4C,/4] z/4 [=G/4C,/4] z/4 [C,/4F17/36] C,2/9 z/36 [D/4C,/4] [F2/9C,/4] z/36 G/4 
[D2/9d2/9D,,/4D,/4] z/36 [D/4d/4] [d/4d'/4D,,/4D,/4] z/4 [D,,2/9D,2/9A/4a/4] z/36 [D,,/4D,/4] z/4 [^G/4^g/4D,,/4D,/4] z/4 [=G/4=g/4D,,/4D,/4] z/4 [D,,/4D,/4F17/36f17/36] [D,,2/9D,2/9] z/36 [D/4d/4D,,/4D,/4] [F2/9f2/9D,,/4D,/4] z/36 [G/4g/4] 
[C2/9c2/9C,,/4C,/4] z/36 [C/4c/4] [d/4d'/4C,,/4C,/4] z/4 [C,,2/9C,2/9A/4a/4] z/36 [C,,/4C,/4] z/4 [^G/4^g/4C,,/4C,/4] z/4 [=G/4=g/4C,,/4C,/4] z/4 [C,,/4C,/4F17/36f17/36] [C,,2/9C,2/9] z/36 [D/4d/4C,,/4C,/4] [F2/9f2/9C,,/4C,/4] z/36 [G/4g/4] 
[=B,2/9B2/9B,,,/4=B,,/4] z/36 [B,/4B/4] [d/4d'/4B,,,/4B,,/4] z/4 [B,,,2/9B,,2/9A/4a/4] z/36 [B,,,/4B,,/4] z/4 [^G/4^g/4B,,,/4B,,/4] z/4 [=G/4=g/4B,,,/4B,,/4] z/4 [B,,,/4B,,/4F17/36f17/36] [B,,,2/9B,,2/9] z/36 [D/4d/4B,,,/4B,,/4] [F2/9f2/9B,,,/4B,,/4] z/36 [G/4g/4] 
[_B,2/9_B2/9_B,,,/4_B,,/4] z/36 [B,/4B/4] [d/4d'/4B,,,/4B,,/4] z/4 [B,,,2/9B,,2/9A/4a/4] z/36 [B,,,/4B,,/4] z/4 [^G/4^g/4C,,/4C,/4] z/4 [=G/4=g/4C,,/4C,/4] z/4 [C,,/4C,/4F17/36f17/36] [C,,2/9C,2/9] z/36 [D/4d/4C,,/4C,/4] [F2/9f2/9C,,/4C,/4] z/36 [G/4g/4] 
[D2/9d2/9D,,/4D,/4] z/36 [D/4d/4] [d/4d'/4D,,/4D,/4] z/4 [D,,2/9D,2/9A/4a/4] z/36 [D,,/4D,/4] z/4 [^G/4^g/4D,,/4D,/4] z/4 [=G/4=g/4D,,/4D,/4] z/4 [D,,/4D,/4F17/36f17/36] [D,,2/9D,2/9] z/36 [D/4d/4D,,/4D,/4] [F2/9f2/9D,,/4D,/4] z/36 [G/4g/4] 
[C2/9c2/9C,,/4C,/4] z/36 [C/4c/4] [d/4d'/4C,,/4C,/4] z/4 [C,,2/9C,2/9A/4a/4] z/36 [C,,/4C,/4] z/4 [^G/4^g/4C,,/4C,/4] z/4 [=G/4=g/4C,,/4C,/4] z/4 [C,,/4C,/4F17/36f17/36] [C,,2/9C,2/9] z/36 [D/4d/4C,,/4C,/4] [F2/9f2/9C,,/4C,/4] z/36 [G/4g/4] 
[=B,2/9=B2/9=B,,,/4=B,,/4] z/36 [B,/4B/4] [d/4d'/4B,,,/4B,,/4] z/4 [B,,,2/9B,,2/9A/4a/4] z/36 [B,,,/4B,,/4] z/4 [^G/4^g/4B,,,/4B,,/4] z/4 [=G/4=g/4B,,,/4B,,/4] z/4 [B,,,/4B,,/4F17/36f17/36] [B,,,2/9B,,2/9] z/36 [D/4d/4B,,,/4B,,/4] [F2/9f2/9B,,,/4B,,/4] z/36 [G/4g/4] 
[_B,2/9_B2/9_B,,,/4_B,,/4] z/36 [B,/4B/4] [d/4d'/4B,,,/4B,,/4] z/4 [B,,,2/9B,,2/9A/4a/4] z/36 [B,,,/4B,,/4] z/4 [^G/4^g/4C,,/4C,/4] z/4 [=G/4=g/4C,,/4C,/4] z/4 [C,,/4C,/4F17/36f17/36] [C,,2/9C,2/9] z/36 [D/4d/4C,,/4C,/4] [C,,/4C,/4c15/32] z/4 
[e/8D,/4] f11/32 z/32 [f2/9D,/4] z/36 f/4 D,2/9 z/36 [f/4D,/4] z/4 [e/8D,/4] f3/8 [d/4D,/4] z/4 [D,/4d19/16] D,2/9 z/36 D,/4 D,/4 z/4 
[C,/4f15/32] z/4 [f2/9C,/4] z/36 f/4 C,2/9 z/36 [g/4C,/4] z/4 [C,/4^g17/36] z/4 [=g/8C,/4] ^g/8 =g/8 z/8 [d/4C,/4] [f2/9C,2/9] z/36 [C,/4g17/24] C,/4 z/4 
[=B,,/4f15/32] z/4 [f2/9B,,/4] z/36 f/4 B,,2/9 z/36 [g/4B,,/4] z/4 [^g/4B,,/4] z/4 [B,,/4a17/36] z/4 [c'/4B,,/4] B,,2/9 z/36 [B,,/4a17/24] B,,/4 z/4 
[_B,,/4d'15/32] z/4 [B,,/4d'15/32] z/4 [d'2/9B,,2/9] z/36 [a/4B,,/4] d'2/9 z/36 [C,/4c'35/16] z/4 C,/4 z/4 [C,/4g'5/4] C,2/9 z/36 C,/4 C,/4 z/4 
[D2/9f15/32a15/32D,19/5] z/36 D/4 [f2/9a2/9d/4] z/36 [z/4f17/36a17/36] A/4 [f17/36a17/36] z/36 [^G/4f17/36a17/36] z/4 [=G/4d17/36=g17/36] z/4 [F17/36d19/16g19/16] z/36 D/4 F2/9 z/36 G/4 
[C2/9f15/32a15/32C,19/5] z/36 C/4 [d/4f15/32a15/32] z/4 [f2/9a2/9A/4] z/36 [f/4a/4] z/4 [d/4g/4^G/4] z/4 [f/4a/4=G/4] z/4 [d'17/36F17/36d19/16] z/36 [a/4D/4] [F2/9g15/32] z/36 G/4 
[=B,2/9f/d'/=B,,19/5] z/36 B,/4 [d/4a/] z/4 [A/4g/] z/4 [z/4f/] ^G/4 [z/4e/c'/] =G/4 [z/4g/] [z/4F17/36] [z/4f/] D/4 [F2/9e/] z/36 G/4 
[_B,2/9B15/32_B,,53/32] z/36 B,/4 [d2/9d/4] z/36 e/4 A/4 f/4 z/4 [z/e77/36c'77/36C,77/36] G/4 z/4 F17/36 z/36 D/4 F2/9 z/36 G/4 
[B,,,/4B,,/4] z/4 [B,,,/4B,,/4] z/4 [B,,,2/9B,,2/9] z/36 [B,,,/4B,,/4] z/4 [B,,,/4B,,/4] [d2/9f2/9] z/36 [B/4d/4B,,,/4B,,/4] [d2/9f2/9] z/36 [d/4g/4B,,,/4B,,/4] [d2/9^g2/9B,,,2/9B,,2/9] z/36 [d/4=g/4B,,,/4B,,/4] [d2/9f2/9B,,,15/32B,,15/32] z/36 [B/4d/4] 
[f/9^g/9C,,/4C,/4] z/72 [e/8=g/8] d/4 [C,,/4C,/4d15/32f15/32] z/4 [C,,2/9C,2/9e19/10g15/7] z/36 [C,,/4C,/4] z/4 [C,,/4C,/4] z/4 [C,,/4C,/4] z/4 [C,,/4C,/4] [C,,2/9C,2/9] z/36 [C,,/4C,/4^g17/36] [z/4C,,15/32C,15/32] a/4 
[D,,/4D,/4c'15/32] z/4 [a2/9D,,/4D,/4] z/36 g/4 [=g2/9D,,2/9D,2/9] z/36 [f/4D,,/4D,/4] d2/9 z/36 [e/4D,,/4D,/4] [z/4f15/32] [D,,/4D,/4] [z/4g15/32] [D,,/4D,/4] [D,,2/9D,2/9a15/32] z/36 [D,,/4D,/4] [c'15/32D,,15/32D,15/32] z/32 
[^C,,/4^C,/4^c'15/32] z/4 [C,,/4C,/4^g15/32] z/4 [g2/9C,,2/9C,2/9] z/36 [=g/4C,,/4C,/4] f2/9 z/36 [^D,,/4^D,/4g77/36] z/4 [D,,/4D,/4] z/4 [D,,/4D,/4] [D,,2/9D,2/9] z/36 [D,,/4D,/4] [D,,15/32D,15/32] z/32 
[B,,,/4B,,/4F15/32d15/32] z/4 [B,,,/4B,,/4G15/32e15/32] z/4 [B,,,2/9B,,2/9A15/32f15/32] z/36 [B,,,/4B,,/4] [z/4a15/32f'15/32] [B,,,/4B,,/4] [z/4g19/20e'19/20] [B,,,/4B,,/4] z/4 [B,,,/4B,,/4] [B,,,2/9B,,2/9f19/20d'19/20] z/36 [B,,,/4B,,/4] [B,,,15/32B,,15/32] z/32 
[=C,,/4=C,/4g19/20e'19/20] z/4 [C,,/4C,/4] z/4 [C,,2/9C,2/9a19/20f'19/20] z/36 [C,,/4C,/4] z/4 [C,,/4C,/4] [z/4=c'19/20g'19/20] [C,,/4C,/4] z/4 [C,,/4C,/4] [C,,2/9C,2/9a19/20e'19/20] z/36 [C,,/4C,/4] [C,,15/32C,15/32] z/32 
[=D,,/4=D,/4a'19/10] z/4 [D,,/4D,/4] z/4 [D,,2/9D,2/9] z/36 [D,,/4D,/4] z/4 [D,,/4D,/4] a'2/9 z/36 [^g'/4D,,/4D,/4] =g'2/9 z/36 [^f'/4D,,/4D,/4] [=f'2/9D,,2/9D,2/9] z/36 [e'/4D,,/4D,/4] [^d'2/9D,,15/32D,15/32] z/36 =d'/20 z/5 
[^C,,/4^C,/4^g19/10^c'19/10] z/4 [C,,/4C,/4] z/4 [C,,2/9C,2/9d'57/20] z/36 [C,,/4C,/4] z/4 [^D,,/4^D,/4] [z/4_b19/10^d'19/10] [D,,/4D,/4] z/4 [D,,/4D,/4] [D,,2/9D,2/9] z/36 [D,,/4D,/4] [D,,15/32D,15/32] z/32 
[B,,,/4B,,/4] z/4 [B,,,/4B,,/4] z/4 [B,,,2/9B,,2/9] z/36 [B,,,/4B,,/4] z/4 [B,,,/4B,,/4] [d2/9f2/9] z/36 [B/4d/4B,,,/4B,,/4] [d2/9f2/9] z/36 [d/4=g/4B,,,/4B,,/4] [d2/9^g2/9B,,,2/9B,,2/9] z/36 [d/4=g/4B,,,/4B,,/4] [d2/9f2/9B,,,15/32B,,15/32] z/36 [B/4d/4] 
[f/9^g/9=C,,/4=C,/4] z/72 [e/8=g/8] d/4 [C,,/4C,/4d15/32f15/32] z/4 [C,,2/9C,2/9e19/10g15/7] z/36 [C,,/4C,/4] z/4 [C,,/4C,/4] z/4 [C,,/4C,/4] z/4 [C,,/4C,/4] [C,,2/9C,2/9] z/36 [C,,/4C,/4^g17/36] [z/4C,,15/32C,15/32] a/4 
[=D,,/4=D,/4=c'15/32] z/4 [a2/9D,,/4D,/4] z/36 g/4 [=g2/9D,,2/9D,2/9] z/36 [f/4D,,/4D,/4] d2/9 z/36 [e/4D,,/4D,/4] [z/4f15/32] [D,,/4D,/4] [z/4g15/32] [D,,/4D,/4] [D,,2/9D,2/9a15/32] z/36 [D,,/4D,/4] [c'15/32D,,15/32D,15/32] z/32 
[^C,,/4^C,/4^c'15/32] z/4 [C,,/4C,/4^g15/32] z/4 [g2/9C,,2/9C,2/9] z/36 [=g/4C,,/4C,/4] f2/9 z/36 [^D,,/4^D,/4g77/36] z/4 [D,,/4D,/4] z/4 [D,,/4D,/4] [D,,2/9D,2/9] z/36 [D,,/4D,/4] [D,,15/32D,15/32] z/32 
[B,,,/4B,,/4F15/32d15/32] z/4 [B,,,/4B,,/4G15/32e15/32] z/4 [B,,,2/9B,,2/9A15/32f15/32] z/36 [B,,,/4B,,/4] [z/4a15/32f'15/32] [B,,,/4B,,/4] [z/4g19/20e'19/20] [B,,,/4B,,/4] z/4 [B,,,/4B,,/4] [B,,,2/9B,,2/9f19/20=d'19/20] z/36 [B,,,/4B,,/4] [B,,,15/32B,,15/32] z/32 
[=C,,/4=C,/4g19/20e'19/20] z/4 [C,,/4C,/4] z/4 [C,,2/9C,2/9a19/20f'19/20] z/36 [C,,/4C,/4] z/4 [C,,/4C,/4] [z/4=c'19/20g'19/20] [C,,/4C,/4] z/4 [C,,/4C,/4] [C,,2/9C,2/9a19/20e'19/20] z/36 [C,,/4C,/4] [C,,15/32C,15/32] z/32 
[=D,,/4=D,/4a'19/10] z/4 [D,,/4D,/4] z/4 [D,,2/9D,2/9] z/36 [D,,/4D,/4] z/4 [D,,/4D,/4] a'2/9 z/36 [^g'/4D,,/4D,/4] =g'2/9 z/36 [^f'/4D,,/4D,/4] [=f'2/9D,,2/9D,2/9] z/36 [e'/4D,,/4D,/4] [^d'2/9D,,15/32D,15/32] z/36 =d'/20 z/5 
[^C,,/4^C,/4^g19/10^c'19/10] z/4 [C,,/4C,/4] z/4 [C,,2/9C,2/9d'57/20] z/36 [C,,/4C,/4] z/4 [^D,,/4^D,/4] [z/4b19/10^d'19/10] [D,,/4D,/4] z/4 [D,,/4D,/4] [D,,2/9D,2/9] z/36 [D,,/4D,/4] [D,,15/32D,15/32] z/32 
[B,,,/4B,,/4B,57/20] z/4 [B,,,/4B,,/4] z/4 [B,,,2/9B,,2/9] z/36 [B,,,/4B,,/4] z/4 [B,,,/4B,,/4] z/4 [B,,,/4B,,/4] z/4 [B,,,/4B,,/4] [B,,,2/9B,,2/9F19/20] z/36 [B,,,/4B,,/4] [B,,,15/32B,,15/32] z/32 
[=C,,/4=C,/4E19/10] z/4 [C,,/4C,/4] z/4 [C,,2/9C,2/9] z/36 [C,,/4C,/4] z/4 [C,,/4C,/4] [z/4D19/10] [C,,/4C,/4] z/4 [C,,/4C,/4] [C,,2/9C,2/9] z/36 [C,,/4C,/4] [C,,15/32C,15/32] z/32 
[=B,,,/4=B,,/4F19/5] z/4 [B,,,/4B,,/4] z/4 [B,,,2/9B,,2/9] z/36 [B,,,/4B,,/4] z/4 [B,,,/4B,,/4] z/4 [B,,,/4B,,/4] z/4 [B,,,/4B,,/4] [B,,,2/9B,,2/9] z/36 [B,,,/4B,,/4] [B,,,15/32B,,15/32] z/32 
[B,,,/4B,,/4] z/4 [B,,,/4B,,/4] z/4 [B,,,2/9B,,2/9] z/36 [B,,,/4B,,/4] z/4 [B,,,/4B,,/4] z/4 [B,,,/4B,,/4] z/4 [B,,,/4B,,/4] [B,,,2/9B,,2/9] z/36 [B,,,/4B,,/4] [B,,,15/32B,,15/32] z/32 
[_B,,,/4_B,,/4B,57/20] z/4 [B,,,/4B,,/4] z/4 [B,,,2/9B,,2/9] z/36 [B,,,/4B,,/4] z/4 [B,,,/4B,,/4] z/4 [B,,,/4B,,/4] z/4 [B,,,/4B,,/4] [B,,,2/9B,,2/9F19/20] z/36 [B,,,/4B,,/4] [B,,,15/32B,,15/32] z/32 
[C,,/4C,/4E19/10] z/4 [C,,/4C,/4] z/4 [C,,2/9C,2/9] z/36 [C,,/4C,/4] z/4 [C,,/4C,/4] [z/4D19/10] [C,,/4C,/4] z/4 [C,,/4C,/4] [C,,2/9C,2/9] z/36 [C,,/4C,/4] [C,,15/32C,15/32] z/32 
[=D,,/4=D,/4D19/4] z/4 [D,,/4D,/4] z/4 [D,,2/9D,2/9] z/36 [D,,/4D,/4] z/4 [D,,/4D,/4] z/4 [D,,/4D,/4] z/4 [D,,/4D,/4] [D,,2/9D,2/9] z/36 [D,,/4D,/4] [D,,15/32D,15/32] z/32 
[D,,/4D,/4] z/4 [D,,/4D,/4] z/4 [D3/20D,,2/9D,2/9] z/60 [z/12^C7/48] [z/12D,,/4D,/4] =C13/96 z/32 =B,3/20 z/60 [z/12_B,7/48] [z/12D,,/4D,/4] A,13/96 z/32 ^G,3/20 z/60 [z/12=G,7/48] [z/12D,,/4D,/4] ^F,13/96 z/32 =F,3/20 z/60 [z/12E,7/48] [z/12D,,/4D,/4] ^D,13/96 z/32 [D,,2/9=D,2/9D,19/20] z/36 [D,,/4D,/4] [D,,15/32D,15/32] z/32 
[z/4B,57/20B,,,19/5] D,/4 D/4 z/4 A,/4 z/ ^G,/4 z/4 =G,/4 z/4 [z/4F,17/36] [z/4F19/20] D,/4 F,2/9 z/36 G,/4 
[C,2/9E19/10C,,19/5] z/36 C,/4 D/4 z/4 A,/4 z/ ^G,/4 [z/4D19/10] =G,/4 z/4 F,17/36 z/36 D,/4 F,2/9 z/36 G,/4 
[=B,,2/9F19/5=B,,,38/5] z/36 B,,/4 D/4 z/4 A,/4 z/ ^G,/4 z/4 =G,/4 z/4 F,17/36 z/36 D,/4 F,2/9 z/36 G,/4 
[=g2/9B,,2/9] z/36 [=d'/4B,,/4] [f'2/9D/4] z/36 d'/4 [A,/4g'15/32] z/4 [z/4f'15/32] [z/4^G,17/36] d'2/9 z/36 [=c'/4=G,/4] z/4 [z/4F,17/36] [z/4g19/20] D,/4 F,2/9 z/36 G,/4 
[z/4B,57/20_B,,,19/5] D,/4 D/4 z/4 A,/4 z/ ^G,/4 z/4 =G,/4 z/4 [z/4F,17/36] [z/4F19/20] D,/4 F,2/9 z/36 G,/4 
[C,2/9E19/10C,,19/5] z/36 C,/4 D/4 z/4 A,/4 z/ ^G,/4 [z/4D19/10] =G,/4 z/4 F,17/36 z/36 D,/4 F,2/9 z/36 G,/4 
[D,2/9D15/32D,,38/5] z/36 D,/4 [F/4f/4D/4] z/4 [E/4e/4A,/4] z/ [C/4c/4^G,/4] z/4 [E/4e/4=G,/4] z/4 [D17/36d17/36F,17/36] z/36 [G/4D,/4] [A2/9F,2/9] z/36 [c/4G,/4] 
D,2/9 z/36 D,/4 [F/4f/4D/4] z/4 [E/4e/4A,/4] z/ [C/4c/4^G,17/36] z/4 [E/4e/4=G,/4] z/4 [D17/36d17/36F,17/36] z/36 [G/4D,/4] [A2/9F,2/9] z/36 [c/4G,/4] 
[B,15/32B15/32B,,,15/32] z/32 [B,15/32B15/32_B,,15/32] z/32 [B,2/9B2/9B,,,15/32] z/36 [B,/4B/4] [z/4B,,15/32] [z/4B,17/36B17/36] [z/4B,,,15/32] [z/4B,17/36B17/36] [z/4B,,15/32] [B,/4B/4] [B,2/9B2/9B,,,15/32] z/36 [B,/4B/4] [B,15/32B15/32B,,15/32] z/32 
[C15/32c15/32C,,15/32] z/32 [C15/32c15/32C,15/32] z/32 [C2/9c2/9C,,15/32] z/36 [C/4c/4] [z/4C,15/32] [z/4C17/36c17/36] [z/4C,,15/32] [z/4C17/36c17/36] [z/4C,15/32] [C/4c/4] [C2/9c2/9C,,15/32] z/36 [C/4c/4] [C15/32c15/32C,15/32] z/32 
[D15/32d15/32D,,15/32] z/32 [D15/32d15/32D,15/32] z/32 [D2/9d2/9D,,15/32] z/36 [D/4d/4] [z/4D,15/32] [z/4^C17/36^c17/36] [z/4^C,,15/32] [z/4C17/36c17/36] [z/4^C,15/32] [C/4c/4] [C2/9c2/9C,,15/32] z/36 [C/4c/4] [C15/32c15/32C,15/32] z/32 
[=C15/32=c15/32=C,,15/32] z/32 [C15/32c15/32=C,15/32] z/32 [C2/9c2/9C,,15/32] z/36 [C/4c/4] [z/4C,15/32] [z/4=B,17/36=B17/36] [z/4=B,,,15/32] [z/4B,17/36B17/36] [z/4=B,,15/32] [B,/4B/4] [B,2/9B2/9B,,,15/32] z/36 [B,/4B/4] [B,15/32B15/32B,,15/32] z/32 
[_B,15/32_B15/32_B,,,15/32] z/32 [B,15/32B15/32_B,,15/32] z/32 [B,2/9B2/9B,,,15/32] z/36 [B,/4B/4] [z/4B,,15/32] [z/4B,17/36B17/36] [z/4B,,,15/32] [z/4B,17/36B17/36] [z/4B,,15/32] [B,/4B/4] [B,2/9B2/9B,,,15/32] z/36 [B,/4B/4] [B,15/32B15/32B,,15/32] z/32 
[C15/32c15/32C,,15/32] z/32 [C15/32c15/32C,15/32] z/32 [C2/9c2/9C,,15/32] z/36 [C/4c/4] [z/4C,15/32] [z/4C17/36c17/36] [z/4C,,15/32] [z/4C17/36c17/36] [z/4C,15/32] [C/4c/4] [C2/9c2/9C,,15/32] z/36 [C/4c/4] [C15/32c15/32C,15/32] z/32 
[D15/32d15/32D,,15/32] z/32 [D15/32d15/32D,15/32] z/32 [D2/9d2/9D,,15/32] z/36 [D/4d/4] [z/4D,15/32] [z/4D17/36d17/36] [z/4D,,15/32] [z/4D17/36d17/36] [z/4D,15/32] [D/4d/4] [D2/9d2/9D,,15/32] z/36 [D/4d/4] [D15/32d15/32D,15/32] z/32 
[D15/32d15/32D,,15/32] z/32 [D15/32d15/32D,15/32] z/32 [D2/9d2/9D,,15/32] z/36 [D/4d/4] [z/4D,15/32] [z/4D17/36d17/36] [z/4D,,15/32] [z/4D17/36d17/36] [z/4D,15/32] [D/4d/4] [D2/9d2/9D,,15/32] z/36 [D/4d/4] [D15/32d15/32D,15/32] z/32 
[B,15/32B15/32B,,,15/32] z/32 [B,15/32B15/32B,,15/32] z/32 [B,2/9B2/9B,,,15/32] z/36 [B,/4B/4] [z/4B,,15/32] [z/4B,17/36B17/36] [z/4B,,,15/32] [z/4B,17/36B17/36] [z/4B,,15/32] [B,/4B/4] [B,2/9B2/9B,,,15/32] z/36 [B,/4B/4] [B,15/32B15/32B,,15/32] z/32 
[C15/32c15/32C,,15/32] z/32 [C15/32c15/32C,15/32] z/32 [C2/9c2/9C,,15/32] z/36 [C/4c/4] [z/4C,15/32] [z/4C17/36c17/36] [z/4C,,15/32] [z/4C17/36c17/36] [z/4C,15/32] [C/4c/4] [C2/9c2/9C,,15/32] z/36 [C/4c/4] [C15/32c15/32C,15/32] z/32 
[D15/32d15/32D,,15/32] z/32 [D15/32d15/32D,15/32] z/32 [D2/9d2/9D,,15/32] z/36 [D/4d/4] [z/4D,15/32] [z/4^C17/36^c17/36] [z/4^C,,15/32] [z/4C17/36c17/36] [z/4^C,15/32] [C/4c/4] [C2/9c2/9C,,15/32] z/36 [C/4c/4] [C15/32c15/32C,15/32] z/32 
[=C15/32=c15/32=C,,15/32] z/32 [C15/32c15/32=C,15/32] z/32 [C2/9c2/9C,,15/32] z/36 [C/4c/4] [z/4C,15/32] [z/4=B,17/36=B17/36] [z/4=B,,,15/32] [z/4B,17/36B17/36] [z/4=B,,15/32] [B,/4B/4] [B,2/9B2/9B,,,15/32] z/36 [B,/4B/4] [B,15/32B15/32B,,15/32] z/32 
[_B,15/32_B15/32_B,,,15/32] z/32 [B,15/32B15/32_B,,15/32] z/32 [B,2/9B2/9B,,,15/32] z/36 [B,/4B/4] [z/4B,,15/32] [z/4B,17/36B17/36] [z/4B,,,15/32] [z/4B,17/36B17/36] [z/4B,,15/32] [B,/4B/4] [B,2/9B2/9B,,,15/32] z/36 [B,/4B/4] [B,15/32B15/32B,,15/32] z/32 
[C15/32c15/32C,,15/32] z/32 [C15/32c15/32C,15/32] z/32 [C2/9c2/9C,,15/32] z/36 [C/4c/4] [z/4C,15/32] [z/4C17/36c17/36] [z/4C,,15/32] [z/4C17/36c17/36] [z/4C,15/32] [C/4c/4] [C2/9c2/9C,,15/32] z/36 [C/4c/4] [C15/32c15/32C,15/32] z/32 
[D2/9D,,15/32] z/36 D/4 [D/4d/4D,15/32] z/4 [D/4A/4D,,15/32] z/4 [z/4D,15/32] [D/4^G/4] [z/4D,,15/32] [D/4=G/4] [z/4D,15/32] [z/4D17/36F17/36] [z/4D,,15/32] D/4 [D2/9F2/9D,15/32] z/36 [D/4G/4] 
[D2/9D,,15/32] z/36 D/4 [D/4d/4D,15/32] z/4 [D/4A/4D,,15/32] z/4 [z/4D,15/32] [D/4^G/4] [z/4D,,15/32] [D/4=G/4] [z/4D,15/32] [z/4D17/36F17/36] [z/4D,,15/32] D/4 [D2/9F2/9D,15/32] z/36 [D/4G/4] 
B,2/9 z/36 B,/4 d/4 z/4 A/4 z/ ^G/4 z/4 =G/4 z/4 F17/36 z/36 D/4 F2/9 z/36 G/4 
C2/9 z/36 C/4 d/4 z/4 A/4 z/ ^G/4 z/4 =G/4 z/4 F17/36 z/36 D/4 F2/9 z/36 G/4 
D15/32 
