X: 1
T: Undertale - Megalovania (Lead)
Z: ABC Generated by Starbound Composer v0.8.7
L: 1/4
M: 4/4
Q: 1/4=120
K: C
D2/9 z/36 D/4 d/4 z/4 A/4 z/ ^G/4 z/4 =G/4 z/4 F17/36 z/36 D/4 F2/9 z/36 G/4 
C2/9 z/36 C/4 d/4 z/4 A/4 z/ ^G/4 z/4 =G/4 z/4 F17/36 z/36 D/4 F2/9 z/36 G/4 
B,2/9 z/36 B,/4 d/4 z/4 A/4 z/ ^G/4 z/4 =G/4 z/4 F17/36 z/36 D/4 F2/9 z/36 G/4 
_B,2/9 z/36 B,/4 d/4 z/4 A/4 z/ ^G/4 z/4 =G/4 z/4 F17/36 z/36 D/4 F2/9 z/36 G/4 
D2/9 z/36 D/4 d/4 z/4 A/4 z/ ^G/4 z/4 =G/4 z/4 F17/36 z/36 D/4 F2/9 z/36 G/4 
C2/9 z/36 C/4 d/4 z/4 A/4 z/ ^G/4 z/4 =G/4 z/4 F17/36 z/36 D/4 F2/9 z/36 G/4 
=B,2/9 z/36 B,/4 d/4 z/4 A/4 z/ ^G/4 z/4 =G/4 z/4 F17/36 z/36 D/4 F2/9 z/36 G/4 
_B,2/9 z/36 B,/4 d/4 z/4 A/4 z/ ^G/4 z/4 =G/4 z/4 F17/36 z/36 D/4 F2/9 z/36 G/4 
[D2/9d2/9] z/36 [D/4d/4] [d/4d'/4] z/4 [A/4a/4] z/ [^G/4^g/4] z/4 [=G/4=g/4] z/4 [F17/36f17/36] z/36 [D/4d/4] [F2/9f2/9] z/36 [G/4g/4] 
[C2/9c2/9] z/36 [C/4c/4] [d/4d'/4] z/4 [A/4a/4] z/ [^G/4^g/4] z/4 [=G/4=g/4] z/4 [F17/36f17/36] z/36 [D/4d/4] [F2/9f2/9] z/36 [G/4g/4] 
[=B,2/9B2/9] z/36 [B,/4B/4] [d/4d'/4] z/4 [A/4a/4] z/ [^G/4^g/4] z/4 [=G/4=g/4] z/4 [F17/36f17/36] z/36 [D/4d/4] [F2/9f2/9] z/36 [G/4g/4] 
[_B,2/9_B2/9] z/36 [B,/4B/4] [d/4d'/4] z/4 [A/4a/4] z/ [^G/4^g/4] z/4 [=G/4=g/4] z/4 [F17/36f17/36] z/36 [D/4d/4] [F2/9f2/9] z/36 [G/4g/4] 
[D2/9d2/9] z/36 [D/4d/4] [d/4d'/4] z/4 [A/4a/4] z/ [^G/4^g/4] z/4 [=G/4=g/4] z/4 [F17/36f17/36] z/36 [D/4d/4] [F2/9f2/9] z/36 [G/4g/4] 
[C2/9c2/9] z/36 [C/4c/4] [d/4d'/4] z/4 [A/4a/4] z/ [^G/4^g/4] z/4 [=G/4=g/4] z/4 [F17/36f17/36] z/36 [D/4d/4] [F2/9f2/9] z/36 [G/4g/4] 
[=B,2/9=B2/9] z/36 [B,/4B/4] [d/4d'/4] z/4 [A/4a/4] z/ [^G/4^g/4] z/4 [=G/4=g/4] z/4 [F17/36f17/36] z/36 [D/4d/4] [F2/9f2/9] z/36 [G/4g/4] 
[_B,2/9_B2/9] z/36 [B,/4B/4] [d/4d'/4] z/4 [A/4a/4] z/ [^G/4^g/4] z/4 [=G/4=g/4] z/4 [F17/36f17/36] z/36 [D/4d/4] c15/32 z/32 
e/8 f11/32 z/32 f2/9 z/36 f/4 z/4 f/4 z/4 e/8 f3/8 d/4 z/4 d19/16 z/16 
f15/32 z/32 f2/9 z/36 f/4 z/4 g/4 z/4 ^g17/36 z/36 =g/8 ^g/8 =g/8 z/8 d/4 f2/9 z/36 g17/24 z/24 
f15/32 z/32 f2/9 z/36 f/4 z/4 g/4 z/4 ^g/4 z/4 a17/36 z/36 c'/4 z/4 a17/24 z/24 
d'15/32 z/32 d'15/32 z/32 d'2/9 z/36 a/4 d'2/9 z/36 [zc'35/16] g'5/4 
[f15/32a15/32] z/32 [f2/9a2/9] z/36 [f17/36a17/36] z/36 [f17/36a17/36] z/36 [f17/36a17/36] z/36 [d17/36=g17/36] z/36 [d19/16g19/16] z/16 
[f15/32a15/32] z/32 [f15/32a15/32] z/32 [f2/9a2/9] z/36 [f/4a/4] z/4 [d/4g/4] z/4 [f/4a/4] z/4 [d'17/36d19/16] z/36 a/4 g15/32 z/32 
[f/d'/] a/ g/ f/ [e/c'/] g/ f/ e/ 
B15/32 z/32 d2/9 z/36 e/4 z/4 f/4 z/4 [e77/36c'77/36] z19/9 
[d2/9f2/9] z/36 [B/4d/4] [d2/9f2/9] z/36 [d/4g/4] [d2/9^g2/9] z/36 [d/4=g/4] [d2/9f2/9] z/36 [B/4d/4] [f/9^g/9] z/72 [e/8=g/8] d/4 [d15/32f15/32] z/32 [e19/10g15/7] z7/20 
^g17/36 z/36 a/4 c'15/32 z/32 a2/9 z/36 g/4 =g2/9 z/36 f/4 d2/9 z/36 e/4 f15/32 z/32 g15/32 z/32 a15/32 z/32 
c'15/32 z/32 ^c'15/32 z/32 ^g15/32 z/32 g2/9 z/36 =g/4 f2/9 z/36 g77/36 z/9 
[F15/32d15/32] z/32 [G15/32e15/32] z/32 [A15/32f15/32] z/32 [a15/32f'15/32] z/32 [g19/20e'19/20] z/20 [f19/20d'19/20] z/20 
[g19/20e'19/20] z/20 [a19/20f'19/20] z/20 [=c'19/20g'19/20] z/20 [a19/20e'19/20] z/20 
a'19/10 z/10 a'2/9 z/36 ^g'/4 =g'2/9 z/36 ^f'/4 =f'2/9 z/36 e'/4 ^d'2/9 z/36 =d'/20 z/5 
[z^g19/10^c'19/10] [zd'57/20] [_b19/10^d'19/10] z21/10 
[d2/9f2/9] z/36 [B/4d/4] [d2/9f2/9] z/36 [d/4=g/4] [d2/9^g2/9] z/36 [d/4=g/4] [d2/9f2/9] z/36 [B/4d/4] [f/9^g/9] z/72 [e/8=g/8] d/4 [d15/32f15/32] z/32 [e19/10g15/7] z7/20 
^g17/36 z/36 a/4 =c'15/32 z/32 a2/9 z/36 g/4 =g2/9 z/36 f/4 d2/9 z/36 e/4 f15/32 z/32 g15/32 z/32 a15/32 z/32 
c'15/32 z/32 ^c'15/32 z/32 ^g15/32 z/32 g2/9 z/36 =g/4 f2/9 z/36 g77/36 z/9 
[F15/32d15/32] z/32 [G15/32e15/32] z/32 [A15/32f15/32] z/32 [a15/32f'15/32] z/32 [g19/20e'19/20] z/20 [f19/20=d'19/20] z/20 
[g19/20e'19/20] z/20 [a19/20f'19/20] z/20 [=c'19/20g'19/20] z/20 [a19/20e'19/20] z/20 
a'19/10 z/10 a'2/9 z/36 ^g'/4 =g'2/9 z/36 ^f'/4 =f'2/9 z/36 e'/4 ^d'2/9 z/36 =d'/20 z/5 
[z^g19/10^c'19/10] [zd'57/20] [b19/10^d'19/10] z/10 
B,57/20 z3/20 F19/20 z/20 
E19/10 z/10 D19/10 z/10 
F19/5 z21/5 
B,57/20 z3/20 F19/20 z/20 
E19/10 z/10 D19/10 z/10 
D19/4 z/4 
D3/20 z/60 ^C7/48 z/48 =C13/96 z/32 =B,3/20 z/60 _B,7/48 z/48 A,13/96 z/32 ^G,3/20 z/60 =G,7/48 z/48 ^F,13/96 z/32 =F,3/20 z/60 E,7/48 z/48 ^D,13/96 z/32 =D,19/20 z/20 B,57/20 z3/20 
F19/20 z/20 E19/10 z/10 D19/10 z/10 
F19/5 z/5 
=g2/9 z/36 =d'/4 f'2/9 z/36 d'/4 g'15/32 z/32 f'15/32 z/32 d'2/9 z/36 =c'/4 z/ g19/20 z/20 
B,57/20 z3/20 F19/20 z/20 
E19/10 z/10 D19/10 z/10 
D15/32 z/32 [F/4f/4] z/4 [E/4e/4] z/ [C/4c/4] z/4 [E/4e/4] z/4 [D17/36d17/36] z/36 G/4 A2/9 z/36 c/4 z/ 
[F/4f/4] z/4 [E/4e/4] z/ [C/4c/4] z/4 [E/4e/4] z/4 [D17/36d17/36] z/36 G/4 A2/9 z/36 c/4 [B,15/32B15/32] z/32 
[B,15/32B15/32] z/32 [B,2/9B2/9] z/36 [B,/4B/4] z/4 [B,17/36B17/36] z/36 [B,17/36B17/36] z/36 [B,/4B/4] [B,2/9B2/9] z/36 [B,/4B/4] [B,15/32B15/32] z/32 [C15/32c15/32] z/32 
[C15/32c15/32] z/32 [C2/9c2/9] z/36 [C/4c/4] z/4 [C17/36c17/36] z/36 [C17/36c17/36] z/36 [C/4c/4] [C2/9c2/9] z/36 [C/4c/4] [C15/32c15/32] z/32 [D15/32d15/32] z/32 
[D15/32d15/32] z/32 [D2/9d2/9] z/36 [D/4d/4] z/4 [^C17/36^c17/36] z/36 [C17/36c17/36] z/36 [C/4c/4] [C2/9c2/9] z/36 [C/4c/4] [C15/32c15/32] z/32 [=C15/32=c15/32] z/32 
[C15/32c15/32] z/32 [C2/9c2/9] z/36 [C/4c/4] z/4 [=B,17/36=B17/36] z/36 [B,17/36B17/36] z/36 [B,/4B/4] [B,2/9B2/9] z/36 [B,/4B/4] [B,15/32B15/32] z/32 [_B,15/32_B15/32] z/32 
[B,15/32B15/32] z/32 [B,2/9B2/9] z/36 [B,/4B/4] z/4 [B,17/36B17/36] z/36 [B,17/36B17/36] z/36 [B,/4B/4] [B,2/9B2/9] z/36 [B,/4B/4] [B,15/32B15/32] z/32 [C15/32c15/32] z/32 
[C15/32c15/32] z/32 [C2/9c2/9] z/36 [C/4c/4] z/4 [C17/36c17/36] z/36 [C17/36c17/36] z/36 [C/4c/4] [C2/9c2/9] z/36 [C/4c/4] [C15/32c15/32] z/32 [D15/32d15/32] z/32 
[D15/32d15/32] z/32 [D2/9d2/9] z/36 [D/4d/4] z/4 [D17/36d17/36] z/36 [D17/36d17/36] z/36 [D/4d/4] [D2/9d2/9] z/36 [D/4d/4] [D15/32d15/32] z/32 [D15/32d15/32] z/32 
[D15/32d15/32] z/32 [D2/9d2/9] z/36 [D/4d/4] z/4 [D17/36d17/36] z/36 [D17/36d17/36] z/36 [D/4d/4] [D2/9d2/9] z/36 [D/4d/4] [D15/32d15/32] z/32 [B,15/32B15/32] z/32 
[B,15/32B15/32] z/32 [B,2/9B2/9] z/36 [B,/4B/4] z/4 [B,17/36B17/36] z/36 [B,17/36B17/36] z/36 [B,/4B/4] [B,2/9B2/9] z/36 [B,/4B/4] [B,15/32B15/32] z/32 [C15/32c15/32] z/32 
[C15/32c15/32] z/32 [C2/9c2/9] z/36 [C/4c/4] z/4 [C17/36c17/36] z/36 [C17/36c17/36] z/36 [C/4c/4] [C2/9c2/9] z/36 [C/4c/4] [C15/32c15/32] z/32 [D15/32d15/32] z/32 
[D15/32d15/32] z/32 [D2/9d2/9] z/36 [D/4d/4] z/4 [^C17/36^c17/36] z/36 [C17/36c17/36] z/36 [C/4c/4] [C2/9c2/9] z/36 [C/4c/4] [C15/32c15/32] z/32 [=C15/32=c15/32] z/32 
[C15/32c15/32] z/32 [C2/9c2/9] z/36 [C/4c/4] z/4 [=B,17/36=B17/36] z/36 [B,17/36B17/36] z/36 [B,/4B/4] [B,2/9B2/9] z/36 [B,/4B/4] [B,15/32B15/32] z/32 [_B,15/32_B15/32] z/32 
[B,15/32B15/32] z/32 [B,2/9B2/9] z/36 [B,/4B/4] z/4 [B,17/36B17/36] z/36 [B,17/36B17/36] z/36 [B,/4B/4] [B,2/9B2/9] z/36 [B,/4B/4] [B,15/32B15/32] z/32 [C15/32c15/32] z/32 
[C15/32c15/32] z/32 [C2/9c2/9] z/36 [C/4c/4] z/4 [C17/36c17/36] z/36 [C17/36c17/36] z/36 [C/4c/4] [C2/9c2/9] z/36 [C/4c/4] [C15/32c15/32] z/32 D2/9 z/36 D/4 
[D/4d/4] z/4 [D/4A/4] z/ [D/4^G/4] z/4 [D/4=G/4] z/4 [D17/36F17/36] z/36 D/4 [D2/9F2/9] z/36 [D/4G/4] D2/9 z/36 D/4 
[D/4d/4] z/4 [D/4A/4] z/ [D/4^G/4] z/4 [D/4=G/4] z/4 [D17/36F17/36] z/36 D/4 [D2/9F2/9] z/36 [D/4G/4] B,2/9 z/36 B,/4 
d/4 z/4 A/4 z/ ^G/4 z/4 =G/4 z/4 F17/36 z/36 D/4 F2/9 z/36 G/4 C2/9 z/36 C/4 
d/4 z/4 A/4 z/ ^G/4 z/4 =G/4 z/4 F17/36 z/36 D/4 F2/9 z/36 G/4 D15/32 
