[07:24:30.476] [Info] Root: Preparing Root...
[07:24:30.476] [Info] Root: Done preparing Root.
[07:24:30.477] [Info] Root: Scanning for asset sources in directory '../assets/'
[07:24:30.477] [Info] Root: Loaded Configuration in 0.000510523 seconds
[07:24:30.621] [Info] Root: Scanning for asset sources in directory '../mods/'
[07:24:31.270] [Warn] Root: Overriding duplicate asset source '../mods/WW Furnishing Fixed Again.pak' named 'ikn_furnishing' with higher or equal priority source '../mods/WW Furnishing.pak
[07:24:31.388] [Info] Root: Detected asset source named 'base' at '../assets/packed.pak'
[07:24:31.388] [Info] Root: Detected asset source named 'Optimizebound (Performance Improvement)' at '../mods/optimizebound.pak'
[07:24:31.388] [Info] Root: Detected asset source named 'EES' at '../mods/Equivalent Exchange.pak'
[07:24:31.388] [Info] Root: Detected asset source named 'Futara's Dragon Pixel Full Bright Shader' at '../mods/Futara Shaders.pak'
[07:24:31.388] [Info] Root: Detected asset source named 'QuickbarMini' at '../mods/Stardust Core Lite.pak'
[07:24:31.388] [Info] Root: Detected asset source named 'many_tabs1' at '../mods/Many Tabs - pt 1.pak'
[07:24:31.388] [Info] Root: Detected asset source named 'Pokemon Hairstyles' at '../mods/Pokemon Hairstyles.pak'
[07:24:31.388] [Info] Root: Detected asset source named 'Pokemon X and Y ' at '../mods/Pokemon X and Y Costumes.pak'
[07:24:31.388] [Info] Root: Detected asset source named 'HLib' at '../mods/HLib_stable.pak'
[07:24:31.388] [Info] Root: Detected asset source named 'WTM_Reloaded' at '../mods/WTM_3.3.pak'
[07:24:31.388] [Info] Root: Detected asset source named 'The Starforge v1.0' at '../mods/The_Starforge.pak'
[07:24:31.388] [Info] Root: Detected asset source named 'ikthemandalorian' at '../mods/The Mandalorian.pak'
[07:24:31.388] [Info] Root: Detected asset source named 'TheBackrooms' at '../mods/The Backrooms.pak'
[07:24:31.388] [Info] Root: Detected asset source named 'Twice - TT Club Deck' at '../mods/TT.pak'
[07:24:31.388] [Info] Root: Detected asset source named 'StarryPlanet' at '../mods/Starry Planets.pak'
[07:24:31.388] [Info] Root: Detected asset source named 'Wardrobe' at '../mods/Wardrobe Interface.pak'
[07:24:31.388] [Info] Root: Detected asset source named 'Felins' at '../mods/felin'
[07:24:31.389] [Info] Root: Detected asset source named 'bk3k_inventory' at '../mods/bk3k_Inventory'
[07:24:31.389] [Info] Root: Detected asset source named 'FrackinUniverse' at '../mods/FrackinUniverse.pak'
[07:24:31.389] [Info] Root: Detected asset source named 'FUStarryPlanetsCompatibilityPatch' at '../mods/Starry Planets - FU Patch.pak'
[07:24:31.389] [Info] Root: Detected asset source named 'Skittles Outfit Modpack' at '../mods/SkittlesOutfitModpack_5_0.4'
[07:24:31.389] [Info] Root: Detected asset source named 'Pokémon Trainer Hats' at '../mods/Pokemon Hats.pak'
[07:24:31.389] [Info] Root: Detected asset source named 'RedoneEncounters' at '../mods/Redone Ship Encounters.pak'
[07:24:31.389] [Info] Root: Detected asset source named 'rb_base' at '../mods/Recipe Browser.pak'
[07:24:31.389] [Info] Root: Detected asset source named 'MoreFarming' at '../mods/MoreFarming'
[07:24:31.389] [Info] Root: Detected asset source named 'FFS' at '../mods/Feast of Fire and Smoke.pak'
[07:24:31.389] [Info] Root: Detected asset source named 'RPG_Growth' at '../mods/RPG Growth.pak'
[07:24:31.389] [Info] Root: Detected asset source named 'rpggrowth_extendedlevels' at '../mods/RPG Growth Extended Levels.pak'
[07:24:31.389] [Info] Root: Detected asset source named 'Project Knightfall' at '../mods/Project-Knightfall-1.7.0.9'
[07:24:31.389] [Info] Root: Detected asset source named 'cmdr_eevee' at '../mods/Wild Eevee.pak'
[07:24:31.389] [Info] Root: Detected asset source named 'Ningen' at '../mods/ningenracemod'
[07:24:31.389] [Info] Root: Detected asset source named 'izzy_va11halla' at '../mods/izzy_va11halla.pak'
[07:24:31.389] [Info] Root: Detected asset source named 'Futara's Dragon Engine' at '../mods/futara dragon engine.pak'
[07:24:31.389] [Info] Root: Detected asset source named 'felinsfurplus' at '../mods/felins_furplus'
[07:24:31.389] [Info] Root: Detected asset source named 'felinsobjectplus' at '../mods/felin_objplus'
[07:24:31.389] [Info] Root: Detected asset source named 'Extended Songbook' at '../mods/extended_songbook_2-2.pak'
[07:24:31.389] [Info] Root: Detected asset source named 'bagelsmoreclothing' at '../mods/bagels more clothing.pak'
[07:24:31.389] [Info] Root: Detected asset source named 'ikn_furnishing' at '../mods/WW Furnishing.pak'
[07:24:31.389] [Info] Root: Detected asset source named 'Wardrobe-SlimeRace' at '../mods/Wardrobe - Slime Addon.pak'
[07:24:31.389] [Info] Root: Detected asset source named 'Wardrobe-SkittlesMegaPack' at '../mods/Wardrobe - Skittle Megapack Addon.pak'
[07:24:31.389] [Info] Root: Detected asset source named 'Wardrobe-PokemonXY' at '../mods/Wardrobe - Pokemon X and Y Addon.pak'
[07:24:31.389] [Info] Root: Detected asset source named 'Wardrobe-Peglaci' at '../mods/Wardrobe - Peglaci Addon.pak'
[07:24:31.389] [Info] Root: Detected asset source named 'Wardrobe-Ningen' at '../mods/Wardrobe - Ningen Addon.pak'
[07:24:31.389] [Info] Root: Detected asset source named 'Wardrobe-KawaiiStuff' at '../mods/Wardrobe - Kawaii Stuff Plus Addon.pak'
[07:24:31.389] [Info] Root: Detected asset source named 'Wardrobe-GravityFallsWearables' at '../mods/Wardrobe - Gravity Falls Addon.pak'
[07:24:31.389] [Info] Root: Detected asset source named 'Improved Food Descriptions' at '../mods/Improved Item Descriptions'
[07:24:31.389] [Info] Root: Detected asset source named 'IWantThoseClothesToo' at '../mods/I Want Those Clothes Too'
[07:24:31.389] [Info] Root: Detected asset source named 'HOUNDco' at '../mods/Hound Fashion.pak'
[07:24:31.389] [Info] Root: Detected asset source named 'Green's Dye Suite' at '../mods/Green's Dye Suite 1.7.pak'
[07:24:31.389] [Info] Root: Detected asset source named 'FrackinXmas' at '../mods/FrackinXmas'
[07:24:31.389] [Info] Root: Detected asset source named 'FrackinMusic' at '../mods/FrackinMusic-3.45'
[07:24:31.389] [Info] Root: Detected asset source named 'Felin Costumes+' at '../mods/Felin Costumes Plus.pak'
[07:24:31.389] [Info] Root: Detected asset source named 'Pixel Goods Store' at '../mods/Pixel Goods Store.pak'
[07:24:31.389] [Info] Root: Detected asset source named 'Arcana' at '../mods/Arcana.pak'
[07:24:31.389] [Info] Root: Detected asset source named 'FFS_dungeons' at '../mods/Feast of Fire and Smoke - Overworld Encounters.pak'
[07:24:31.389] [Info] Root: Detected asset source named 'FFS_DaE_4xLess' at '../mods/Feast of Fire and Smoke - Overworld Encounter Reducer.pak'
[07:24:31.389] [Info] Root: Detected asset source named 'FU-EE Ore patch' at '../mods/Equivalent Exchange - FU Patch.pak'
[07:24:31.389] [Info] Root: Detected asset source named 'cutebound_felins_kemonomimi' at '../mods/Cuter Felins.pak'
[07:24:31.389] [Info] Root: Detected asset source named 'CosmicHusbandry' at '../mods/Cosmic Husbandry.pak'
[07:24:31.389] [Info] Root: Detected asset source named 'Arcane Magus - A Starbound Magic Mod' at '../mods/Arcane Magus.pak'
[07:24:31.389] [Info] Root: Detected asset source named 'cutearcana' at '../mods/Arcana - Cutebound.pak'
[07:24:31.390] [Info] Root: Detected asset source named 'AltStatusIconsForFu' at '../mods/Alternate Status Icons for FU'
[07:24:31.390] [Info] Root: Detected asset source named ' Just Another StarBound Song Pack' at '../mods/JASBSP'
[07:24:31.390] [Info] Root: Detected asset source named 'CNMoreFarmingRPGGrowth' at '../mods/MoreFarming RPG Growth Addon.pak'
[07:24:31.390] [Info] Root: Detected asset source named 'MoreFarmingFR' at '../mods/MoreFarmingFR'
[07:24:31.390] [Info] Root: Detected asset source named 'MoreFarmingFU' at '../mods/MoreFarmingFU'
[07:24:31.390] [Info] Root: Detected asset source named 'pixelgoodsstorefix' at '../mods/Pixel Goods Store - Patch.pak'
[07:24:31.390] [Info] Root: Detected asset source named 'playerdancing plus' at '../mods/Player Dances and Emotes Plus.pak'
[07:24:31.390] [Info] Root: Detected asset source named 'Momiji Inubashiri 犬走 椛 東方project Touhou' at '../mods/Momoji Inubashiri Outfit.pak'
[07:24:31.390] [Info] Root: Detected asset source named 'CuteboundHeemi' at '../mods/Make the Universe a Cuter Place - Heemi Version.pak'
[07:24:31.390] [Info] Root: Detected asset source named 'largerTeleporterDialog' at '../mods/Larger Teleporter Dialogue.pak'
[07:24:31.390] [Info] Root: Detected asset source named 'KawaiiStuff+' at '../mods/Kawaii Stuff Plus.pak'
[07:24:31.390] [Info] Root: Detected asset source named 'Starbound Optimizer' at '../mods/Starbound Optimizer.pak'
[07:24:31.390] [Info] Root: Detected asset source named 'FUSAILModdedRaceSupport' at '../mods/SAIL Modded Race Support.pak'
[07:24:31.390] [Info] Root: Detected asset source named 'bk3k_inventory_reskin1' at '../mods/bk3k_Inventory_Reskin1'
[07:24:31.390] [Info] Root: Detected asset source named 'FrackinInterface' at '../mods/Frackin Interface.pak'
[07:24:31.390] [Info] Root: Detected asset source named 'skippable_cinematics' at '../mods/Skippable Cinematics.pak'
[07:24:31.390] [Info] Root: Detected asset source named 'many_tabs2' at '../mods/Many Tabs - pt 2.pak'
[07:24:31.390] [Info] Root: Detected asset source named 'Recipe Browser RPG Growth - Patch' at '../mods/Recipe Browser - RPG Growth Patch.pak'
[07:24:31.390] [Info] Root: Detected asset source named 'FUBYOSModdedRaceSupport' at '../mods/FUBYOSModdedRaceSupport.pak'
[07:24:31.390] [Info] Root: Detected asset source named 'FUBYOSModdedRaceSupportOther' at '../mods/FUBYOSModdedRaceSupportNonFR'
[07:24:31.390] [Info] Root: Detected asset source named 'TheBackrooms-FRCompatibility' at '../mods/The Backrooms FU Patch.pak'
[07:24:31.390] [Info] Root: Detected unnamed asset source at '../assets/user'
[07:24:31.390] [Info] Loading assets from: '../assets/packed.pak'
[07:24:31.612] [Info] Loading assets from: '../mods/optimizebound.pak'
[07:24:31.703] [Info] Loading assets from: '../mods/Equivalent Exchange.pak'
[07:24:31.704] [Info] Loading assets from: '../mods/Futara Shaders.pak'
[07:24:31.704] [Info] Loading assets from: '../mods/Stardust Core Lite.pak'
[07:24:31.705] [Info] Loading assets from: '../mods/Many Tabs - pt 1.pak'
[07:24:31.705] [Info] Loading assets from: '../mods/Pokemon Hairstyles.pak'
[07:24:31.705] [Info] Loading assets from: '../mods/Pokemon X and Y Costumes.pak'
[07:24:31.706] [Info] Loading assets from: '../mods/HLib_stable.pak'
[07:24:31.706] [Info] Loading assets from: '../mods/WTM_3.3.pak'
[07:24:31.707] [Info] Loading assets from: '../mods/The_Starforge.pak'
[07:24:31.720] [Info] Loading assets from: '../mods/The Mandalorian.pak'
[07:24:31.723] [Info] Loading assets from: '../mods/The Backrooms.pak'
[07:24:31.724] [Info] Loading assets from: '../mods/TT.pak'
[07:24:31.724] [Info] Loading assets from: '../mods/Starry Planets.pak'
[07:24:31.729] [Info] Loading assets from: '../mods/Wardrobe Interface.pak'
[07:24:31.730] [Info] Loading assets from: '../mods/felin'
[07:24:31.766] [Info] Loading assets from: '../mods/bk3k_Inventory'
[07:24:31.768] [Info] Loading assets from: '../mods/FrackinUniverse.pak'
[07:24:32.466] [Info] Loading assets from: '../mods/Starry Planets - FU Patch.pak'
[07:24:32.467] [Info] Loading assets from: '../mods/SkittlesOutfitModpack_5_0.4'
[07:24:32.769] [Info] Loading assets from: '../mods/Pokemon Hats.pak'
[07:24:32.769] [Info] Loading assets from: '../mods/Redone Ship Encounters.pak'
[07:24:32.770] [Info] Loading assets from: '../mods/Recipe Browser.pak'
[07:24:32.770] [Info] Loading assets from: '../mods/MoreFarming'
[07:24:33.000] [Info] Loading assets from: '../mods/Feast of Fire and Smoke.pak'
[07:24:33.027] [Info] Loading assets from: '../mods/RPG Growth.pak'
[07:24:33.073] [Info] Loading assets from: '../mods/RPG Growth Extended Levels.pak'
[07:24:33.073] [Info] Loading assets from: '../mods/Project-Knightfall-1.7.0.9'
[07:24:33.325] [Info] Loading assets from: '../mods/Wild Eevee.pak'
[07:24:33.326] [Info] Loading assets from: '../mods/ningenracemod'
[07:24:33.373] [Info] Loading assets from: '../mods/izzy_va11halla.pak'
[07:24:33.375] [Info] Loading assets from: '../mods/futara dragon engine.pak'
[07:24:33.376] [Info] Loading assets from: '../mods/felins_furplus'
[07:24:33.376] [Info] Loading assets from: '../mods/felin_objplus'
[07:24:33.487] [Info] Loading assets from: '../mods/extended_songbook_2-2.pak'
[07:24:33.487] [Info] Loading assets from: '../mods/bagels more clothing.pak'
[07:24:33.488] [Info] Loading assets from: '../mods/WW Furnishing.pak'
[07:24:33.600] [Info] Loading assets from: '../mods/Wardrobe - Slime Addon.pak'
[07:24:33.600] [Info] Loading assets from: '../mods/Wardrobe - Skittle Megapack Addon.pak'
[07:24:33.601] [Info] Loading assets from: '../mods/Wardrobe - Pokemon X and Y Addon.pak'
[07:24:33.601] [Info] Loading assets from: '../mods/Wardrobe - Peglaci Addon.pak'
[07:24:33.601] [Info] Loading assets from: '../mods/Wardrobe - Ningen Addon.pak'
[07:24:33.601] [Info] Loading assets from: '../mods/Wardrobe - Kawaii Stuff Plus Addon.pak'
[07:24:33.601] [Info] Loading assets from: '../mods/Wardrobe - Gravity Falls Addon.pak'
[07:24:33.601] [Info] Loading assets from: '../mods/Improved Item Descriptions'
[07:24:33.603] [Info] Loading assets from: '../mods/I Want Those Clothes Too'
[07:24:33.627] [Info] Loading assets from: '../mods/Hound Fashion.pak'
[07:24:33.654] [Info] Loading assets from: '../mods/Green's Dye Suite 1.7.pak'
[07:24:33.655] [Info] Loading assets from: '../mods/FrackinXmas'
[07:24:33.656] [Info] Loading assets from: '../mods/FrackinMusic-3.45'
[07:24:33.664] [Info] Loading assets from: '../mods/Felin Costumes Plus.pak'
[07:24:33.665] [Info] Loading assets from: '../mods/Pixel Goods Store.pak'
[07:24:33.671] [Info] Loading assets from: '../mods/Arcana.pak'
[07:24:33.723] [Info] Loading assets from: '../mods/Feast of Fire and Smoke - Overworld Encounters.pak'
[07:24:33.730] [Info] Loading assets from: '../mods/Feast of Fire and Smoke - Overworld Encounter Reducer.pak'
[07:24:33.731] [Info] Loading assets from: '../mods/Equivalent Exchange - FU Patch.pak'
[07:24:33.731] [Info] Loading assets from: '../mods/Cuter Felins.pak'
[07:24:33.731] [Info] Loading assets from: '../mods/Cosmic Husbandry.pak'
[07:24:33.735] [Info] Loading assets from: '../mods/Arcane Magus.pak'
[07:24:33.738] [Info] Loading assets from: '../mods/Arcana - Cutebound.pak'
[07:24:33.738] [Info] Loading assets from: '../mods/Alternate Status Icons for FU'
[07:24:33.740] [Info] Loading assets from: '../mods/JASBSP'
[07:24:33.749] [Info] Loading assets from: '../mods/MoreFarming RPG Growth Addon.pak'
[07:24:33.749] [Info] Loading assets from: '../mods/MoreFarmingFR'
[07:24:33.780] [Info] Loading assets from: '../mods/MoreFarmingFU'
[07:24:33.782] [Info] Loading assets from: '../mods/Pixel Goods Store - Patch.pak'
[07:24:33.782] [Info] Loading assets from: '../mods/Player Dances and Emotes Plus.pak'
[07:24:33.782] [Info] Loading assets from: '../mods/Momoji Inubashiri Outfit.pak'
[07:24:33.783] [Info] Loading assets from: '../mods/Make the Universe a Cuter Place - Heemi Version.pak'
[07:24:33.788] [Info] Loading assets from: '../mods/Larger Teleporter Dialogue.pak'
[07:24:33.789] [Info] Loading assets from: '../mods/Kawaii Stuff Plus.pak'
[07:24:33.790] [Info] Loading assets from: '../mods/Starbound Optimizer.pak'
[07:24:33.790] [Info] Loading assets from: '../mods/SAIL Modded Race Support.pak'
[07:24:33.793] [Info] Loading assets from: '../mods/bk3k_Inventory_Reskin1'
[07:24:33.795] [Info] Loading assets from: '../mods/Frackin Interface.pak'
[07:24:33.797] [Info] Loading assets from: '../mods/Skippable Cinematics.pak'
[07:24:33.797] [Info] Loading assets from: '../mods/Many Tabs - pt 2.pak'
[07:24:33.798] [Info] Loading assets from: '../mods/Recipe Browser - RPG Growth Patch.pak'
[07:24:33.798] [Info] Loading assets from: '../mods/FUBYOSModdedRaceSupport.pak'
[07:24:33.799] [Info] Loading assets from: '../mods/FUBYOSModdedRaceSupportNonFR'
[07:24:33.799] [Info] Loading assets from: '../mods/The Backrooms FU Patch.pak'
[07:24:33.800] [Info] Loading assets from: '../assets/user'
[07:24:36.681] [Info] Assets digest is d741c139421263fbc8d7001ca20d5dbe1c05928a6a6775de3bb0b89ad8a44f6d
[07:24:36.681] [Info] Root: Loaded Assets in 6.20409 seconds
[07:24:36.681] [Info] Root: Writing runtime configuration to '../storage/starbound_server.config'
[07:24:36.686] [Info] Root: Loaded NameGenerator in 6.20847 seconds
[07:24:36.732] [Info] Root: Loaded PlantDatabase in 0.0464363 seconds
[07:24:37.013] [Error] Duplicate projectile asset typeName ffs_bullet_fmj_3_burst_3crit_start. configfile /projectiles/ffs_bullet_v2/ffs_bullet_fmj_3/ffs_bullet_fmj_3_burst_crit_start.projectile
[07:24:37.158] [Info] Root: Loaded ProjectileDatabase in 0.426264 seconds
[07:24:37.302] [Info] Root: Loaded ObjectDatabase in 0.620874 seconds
[07:24:37.453] [Info] Root: Loaded MonsterDatabase in 0.294548 seconds
[07:24:37.456] [Info] Root: Loaded NpcDatabase in 0.154354 seconds
[07:24:37.465] [Info] Root: Loaded VehicleDatabase in 0.00926568 seconds
[07:24:37.494] [Info] Root: Loaded StagehandDatabase in 0.041197 seconds
[07:24:37.883] [Info] Root: Loaded PlayerFactory in 0.417788 seconds
[07:24:37.887] [Info] Root: Loaded VersioningDatabase in 0.00365682 seconds
[07:24:37.887] [Info] Root: Loaded EntityFactory in 0.392619 seconds
[07:24:37.954] [Info] Root: Loaded ParticleDatabase in 0.0664939 seconds
[07:24:37.956] [Info] Root: Loaded ImageMetadataDatabase in 8.5216e-07 seconds
[07:24:38.291] [Info] Root: Loaded MaterialDatabase in 0.403528 seconds
[07:24:38.296] [Info] Root: Loaded TerrainDatabase in 0.00520164 seconds
[07:24:38.596] [Info] Root: Loaded BiomeDatabase in 0.300375 seconds
[07:24:38.601] [Info] Root: Loaded LiquidsDatabase in 0.00452309 seconds
[07:24:38.686] [Info] Root: Loaded StatusEffectDatabase in 0.0851071 seconds
[07:24:39.102] [Info] Root: Loaded DamageDatabase in 0.416261 seconds
[07:24:39.106] [Info] Root: Loaded EffectSourceDatabase in 0.00395783 seconds
[07:24:39.124] [Info] Root: Loaded FunctionDatabase in 0.0180321 seconds
[07:24:39.134] [Error] Could not apply patch from file /treasure/fishing.treasurepools.patch in source: ../mods/RPG Growth.pak.  Caused by: (JsonPatchException) Could not apply patch to base. (JsonPatchException) Could not apply operation to base. (TraversalException) No such key 'fill' in pathApply("/fishingcommon/0/1/fill/-")
[07:24:39.207] [Info] Root: Loaded TreasureDatabase in 0.0822785 seconds
[07:24:39.541] [Info] Root: Loaded DungeonDefinitions in 0.33459 seconds
[07:24:39.542] [Info] Root: Loaded TilesetDatabase in 4.13693e-06 seconds
[07:24:39.543] [Info] Root: Loaded StatisticsDatabase in 0.001186 seconds
[07:24:39.543] [Info] Root: Loaded EmoteProcessor in 3.37958e-05 seconds
[07:24:39.570] [Info] Root: Loaded SpeciesDatabase in 0.0271535 seconds
[07:24:39.588] [Info] Root: Loaded QuestTemplateDatabase in 0.0178578 seconds
[07:24:39.589] [Info] Root: Loaded AiDatabase in 0.00134481 seconds
[07:24:39.594] [Info] Root: Loaded TechDatabase in 0.00418464 seconds
[07:24:39.605] [Info] Root: Loaded CodexDatabase in 0.0119288 seconds
[07:24:42.183] [Info] Root: Loaded BehaviorDatabase in 2.57782 seconds
[07:24:42.186] [Info] Root: Loaded DanceDatabase in 0.00286079 seconds
[07:24:42.192] [Info] Root: Loaded SpawnTypeDatabase in 0.00565009 seconds
[07:24:42.213] [Info] Root: Loaded RadioMessageDatabase in 0.0204931 seconds
[07:24:48.489] [Error] Could not load recipe /recipes/weapons/oldtier/broadsword/odb2tier2broadsword_c2.recipe: (ItemException) No such item 'steelbar'
[07:24:54.699] [Info] Root: Loaded ItemDatabase in 16.816 seconds
[07:24:54.976] [Info] Root: Loaded CollectionDatabase in 12.7637 seconds
[07:24:55.329] [Info] Server Version 1.4.4 (linux x86_64) Source ID: 8cbe6faf22282659828a194e06a08999f213769e Protocol: 747
[07:24:55.337] [Info] UniverseServer: Acquiring universe lock file
[07:24:55.366] [Info] UniverseServer: Loading settings
[07:24:55.367] [Info] UniverseServer: Starting UniverseServer with UUID: cbd64bfe3d4039fac5291d9715d519a9
[07:24:55.368] [Info] UniverseServer: listening for incoming TCP connections on 0000:0000:0000:0000:0000:0000:0000:0000:21025
[07:29:02.733] [Info] UniverseServer: Connection received from: 0000:0000:0000:0000:0000:ffff:181b:46f2:56539
[07:29:02.826] [Info] UniverseServer: Sending Handshake Challenge
[07:29:02.841] [Info] UniverseServer: Logged in account ''Yuu'' as player 'Yuu' from address 0000:0000:0000:0000:0000:ffff:181b:46f2
[07:29:02.842] [Info] UniverseServer: Loading system world (-114335893, -88135347, -165985538) from disk storage
[07:29:02.886] [Info] UniverseServer: Reviving player at CelestialWorld:667122378:776661426:68113754:10
[07:29:02.886] [Info] UniverseServer: Client 'Yuu' <1> (0000:0000:0000:0000:0000:ffff:181b:46f2) connected
[07:29:02.888] [Info] UniverseServer: Loading celestial world 667122378:776661426:68113754:10
[07:29:03.070] [Info] Protected dungeonIds for world set to (1, 65524)
[07:29:03.634] [Info] UniverseServer: Warping player 1 to CelestialWorld:667122378:776661426:68113754:10=901.338.687
[07:29:31.888] [Error] Could not instantiate item '[ikn_snowfall, 1, {}]'. (ItemException) No such item 'ikn_snowfall'
[07:29:32.350] [Error] Could not instantiate item '[ikn_snowfall, 1, {}]'. (ItemException) No such item 'ikn_snowfall'
[07:29:33.005] [Error] Could not instantiate item '[ikn_snowfall, 1, {}]'. (ItemException) No such item 'ikn_snowfall'
[07:29:56.033] [Info] Chat: <Yuu> /admin
[07:29:58.315] [Info] Chat: <Yuu> /admin
[07:30:06.847] [Error] Could not instantiate item '[ikn_snowfall, 1, {}]'. (ItemException) No such item 'ikn_snowfall'
[07:30:06.847] [Error] Could not instantiate item '[ikn_snowfall, 1, {}]'. (ItemException) No such item 'ikn_snowfall'
[07:30:06.847] [Error] Could not instantiate item '[ikn_snowfall, 1, {}]'. (ItemException) No such item 'ikn_snowfall'
[07:30:06.848] [Error] Could not instantiate item '[ikn_snowfall, 1, {}]'. (ItemException) No such item 'ikn_snowfall'
[07:30:06.848] [Error] Could not instantiate item '[ikn_snowfall, 1, {}]'. (ItemException) No such item 'ikn_snowfall'
[07:30:06.848] [Error] Could not instantiate item '[ikn_snowfall, 1, {}]'. (ItemException) No such item 'ikn_snowfall'
[07:30:07.854] [Error] Could not instantiate item '[ikn_snowfall, 1, {}]'. (ItemException) No such item 'ikn_snowfall'
[07:30:07.855] [Error] Could not instantiate item '[ikn_snowfall, 1, {}]'. (ItemException) No such item 'ikn_snowfall'
[07:30:07.855] [Error] Could not instantiate item '[ikn_snowfall, 1, {}]'. (ItemException) No such item 'ikn_snowfall'
[07:30:07.855] [Error] Could not instantiate item '[ikn_snowfall, 1, {}]'. (ItemException) No such item 'ikn_snowfall'
[07:30:07.855] [Error] Could not instantiate item '[ikn_snowfall, 1, {}]'. (ItemException) No such item 'ikn_snowfall'
[07:32:23.132] [Info] UniverseServer: Client 'Yuu' <1> (0000:0000:0000:0000:0000:ffff:181b:46f2) disconnected for reason: 
[07:32:23.136] [Info] UniverseServer: Stopping idle world CelestialWorld:667122378:776661426:68113754:10
[07:32:32.603] [Info] Interrupt caught!
[07:32:32.689] [Info] UniverseServer: Stopping UniverseServer
[07:32:32.691] [Info] UniverseServer: Stopping TCP Server
[07:32:32.696] [Info] Server shutdown gracefully
[07:32:32.696] [Info] Root: Shutting down Root
