[07:33:48.161] [Info] Root: Preparing Root...
[07:33:48.161] [Info] Root: Done preparing Root.
[07:33:48.162] [Info] Root: Scanning for asset sources in directory '../assets/'
[07:33:48.162] [Info] Root: Loaded Configuration in 0.000458581 seconds
[07:33:48.302] [Info] Root: Scanning for asset sources in directory '../mods/'
[07:33:49.046] [Info] Root: Detected asset source named 'base' at '../assets/packed.pak'
[07:33:49.046] [Info] Root: Detected asset source named 'Optimizebound (Performance Improvement)' at '../mods/optimizebound.pak'
[07:33:49.046] [Info] Root: Detected asset source named 'EES' at '../mods/Equivalent Exchange.pak'
[07:33:49.046] [Info] Root: Detected asset source named 'Futara's Dragon Pixel Full Bright Shader' at '../mods/Futara Shaders.pak'
[07:33:49.046] [Info] Root: Detected asset source named 'QuickbarMini' at '../mods/Stardust Core Lite.pak'
[07:33:49.046] [Info] Root: Detected asset source named 'many_tabs1' at '../mods/Many Tabs - pt 1.pak'
[07:33:49.046] [Info] Root: Detected asset source named 'Pokemon Hairstyles' at '../mods/Pokemon Hairstyles.pak'
[07:33:49.046] [Info] Root: Detected asset source named 'Pokemon X and Y ' at '../mods/Pokemon X and Y Costumes.pak'
[07:33:49.046] [Info] Root: Detected asset source named 'HLib' at '../mods/HLib_stable.pak'
[07:33:49.046] [Info] Root: Detected asset source named 'WTM_Reloaded' at '../mods/WTM_3.3.pak'
[07:33:49.047] [Info] Root: Detected asset source named 'The Starforge v1.0' at '../mods/The_Starforge.pak'
[07:33:49.047] [Info] Root: Detected asset source named 'ikthemandalorian' at '../mods/The Mandalorian.pak'
[07:33:49.047] [Info] Root: Detected asset source named 'TheBackrooms' at '../mods/The Backrooms.pak'
[07:33:49.047] [Info] Root: Detected asset source named 'Twice - TT Club Deck' at '../mods/TT.pak'
[07:33:49.047] [Info] Root: Detected asset source named 'StarryPlanet' at '../mods/Starry Planets.pak'
[07:33:49.047] [Info] Root: Detected asset source named 'Wardrobe' at '../mods/Wardrobe Interface.pak'
[07:33:49.047] [Info] Root: Detected asset source named 'Felins' at '../mods/felin'
[07:33:49.047] [Info] Root: Detected asset source named 'bk3k_inventory' at '../mods/bk3k_Inventory'
[07:33:49.047] [Info] Root: Detected asset source named 'FrackinUniverse' at '../mods/FrackinUniverse.pak'
[07:33:49.047] [Info] Root: Detected asset source named 'FUStarryPlanetsCompatibilityPatch' at '../mods/Starry Planets - FU Patch.pak'
[07:33:49.047] [Info] Root: Detected asset source named 'Skittles Outfit Modpack' at '../mods/SkittlesOutfitModpack_5_0.4'
[07:33:49.047] [Info] Root: Detected asset source named 'Pokémon Trainer Hats' at '../mods/Pokemon Hats.pak'
[07:33:49.047] [Info] Root: Detected asset source named 'RedoneEncounters' at '../mods/Redone Ship Encounters.pak'
[07:33:49.047] [Info] Root: Detected asset source named 'rb_base' at '../mods/Recipe Browser.pak'
[07:33:49.047] [Info] Root: Detected asset source named 'MoreFarming' at '../mods/MoreFarming'
[07:33:49.047] [Info] Root: Detected asset source named 'FFS' at '../mods/Feast of Fire and Smoke.pak'
[07:33:49.047] [Info] Root: Detected asset source named 'RPG_Growth' at '../mods/RPG Growth.pak'
[07:33:49.047] [Info] Root: Detected asset source named 'rpggrowth_extendedlevels' at '../mods/RPG Growth Extended Levels.pak'
[07:33:49.047] [Info] Root: Detected asset source named 'Project Knightfall' at '../mods/Project-Knightfall-1.7.0.9'
[07:33:49.047] [Info] Root: Detected asset source named 'cmdr_eevee' at '../mods/Wild Eevee.pak'
[07:33:49.047] [Info] Root: Detected asset source named 'Ningen' at '../mods/ningenracemod'
[07:33:49.047] [Info] Root: Detected asset source named 'izzy_va11halla' at '../mods/izzy_va11halla.pak'
[07:33:49.047] [Info] Root: Detected asset source named 'Futara's Dragon Engine' at '../mods/futara dragon engine.pak'
[07:33:49.047] [Info] Root: Detected asset source named 'felinsfurplus' at '../mods/felins_furplus'
[07:33:49.047] [Info] Root: Detected asset source named 'felinsobjectplus' at '../mods/felin_objplus'
[07:33:49.047] [Info] Root: Detected asset source named 'Extended Songbook' at '../mods/extended_songbook_2-2.pak'
[07:33:49.047] [Info] Root: Detected asset source named 'bagelsmoreclothing' at '../mods/bagels more clothing.pak'
[07:33:49.047] [Info] Root: Detected asset source named 'ikn_furnishing' at '../mods/WW Furnishing Fixed Again.pak'
[07:33:49.047] [Info] Root: Detected asset source named 'Wardrobe-SlimeRace' at '../mods/Wardrobe - Slime Addon.pak'
[07:33:49.047] [Info] Root: Detected asset source named 'Wardrobe-SkittlesMegaPack' at '../mods/Wardrobe - Skittle Megapack Addon.pak'
[07:33:49.047] [Info] Root: Detected asset source named 'Wardrobe-PokemonXY' at '../mods/Wardrobe - Pokemon X and Y Addon.pak'
[07:33:49.047] [Info] Root: Detected asset source named 'Wardrobe-Peglaci' at '../mods/Wardrobe - Peglaci Addon.pak'
[07:33:49.047] [Info] Root: Detected asset source named 'Wardrobe-Ningen' at '../mods/Wardrobe - Ningen Addon.pak'
[07:33:49.047] [Info] Root: Detected asset source named 'Wardrobe-KawaiiStuff' at '../mods/Wardrobe - Kawaii Stuff Plus Addon.pak'
[07:33:49.047] [Info] Root: Detected asset source named 'Wardrobe-GravityFallsWearables' at '../mods/Wardrobe - Gravity Falls Addon.pak'
[07:33:49.047] [Info] Root: Detected asset source named 'Improved Food Descriptions' at '../mods/Improved Item Descriptions'
[07:33:49.047] [Info] Root: Detected asset source named 'IWantThoseClothesToo' at '../mods/I Want Those Clothes Too'
[07:33:49.047] [Info] Root: Detected asset source named 'HOUNDco' at '../mods/Hound Fashion.pak'
[07:33:49.047] [Info] Root: Detected asset source named 'Green's Dye Suite' at '../mods/Green's Dye Suite 1.7.pak'
[07:33:49.047] [Info] Root: Detected asset source named 'FrackinXmas' at '../mods/FrackinXmas'
[07:33:49.047] [Info] Root: Detected asset source named 'FrackinMusic' at '../mods/FrackinMusic-3.45'
[07:33:49.047] [Info] Root: Detected asset source named 'Felin Costumes+' at '../mods/Felin Costumes Plus.pak'
[07:33:49.047] [Info] Root: Detected asset source named 'Pixel Goods Store' at '../mods/Pixel Goods Store.pak'
[07:33:49.047] [Info] Root: Detected asset source named 'Arcana' at '../mods/Arcana.pak'
[07:33:49.047] [Info] Root: Detected asset source named 'FFS_dungeons' at '../mods/Feast of Fire and Smoke - Overworld Encounters.pak'
[07:33:49.047] [Info] Root: Detected asset source named 'FFS_DaE_4xLess' at '../mods/Feast of Fire and Smoke - Overworld Encounter Reducer.pak'
[07:33:49.047] [Info] Root: Detected asset source named 'FU-EE Ore patch' at '../mods/Equivalent Exchange - FU Patch.pak'
[07:33:49.047] [Info] Root: Detected asset source named 'cutebound_felins_kemonomimi' at '../mods/Cuter Felins.pak'
[07:33:49.047] [Info] Root: Detected asset source named 'CosmicHusbandry' at '../mods/Cosmic Husbandry.pak'
[07:33:49.047] [Info] Root: Detected asset source named 'Arcane Magus - A Starbound Magic Mod' at '../mods/Arcane Magus.pak'
[07:33:49.047] [Info] Root: Detected asset source named 'cutearcana' at '../mods/Arcana - Cutebound.pak'
[07:33:49.047] [Info] Root: Detected asset source named 'AltStatusIconsForFu' at '../mods/Alternate Status Icons for FU'
[07:33:49.047] [Info] Root: Detected asset source named ' Just Another StarBound Song Pack' at '../mods/JASBSP'
[07:33:49.047] [Info] Root: Detected asset source named 'CNMoreFarmingRPGGrowth' at '../mods/MoreFarming RPG Growth Addon.pak'
[07:33:49.047] [Info] Root: Detected asset source named 'MoreFarmingFR' at '../mods/MoreFarmingFR'
[07:33:49.047] [Info] Root: Detected asset source named 'MoreFarmingFU' at '../mods/MoreFarmingFU'
[07:33:49.047] [Info] Root: Detected asset source named 'pixelgoodsstorefix' at '../mods/Pixel Goods Store - Patch.pak'
[07:33:49.047] [Info] Root: Detected asset source named 'playerdancing plus' at '../mods/Player Dances and Emotes Plus.pak'
[07:33:49.047] [Info] Root: Detected asset source named 'Momiji Inubashiri 犬走 椛 東方project Touhou' at '../mods/Momoji Inubashiri Outfit.pak'
[07:33:49.047] [Info] Root: Detected asset source named 'CuteboundHeemi' at '../mods/Make the Universe a Cuter Place - Heemi Version.pak'
[07:33:49.048] [Info] Root: Detected asset source named 'largerTeleporterDialog' at '../mods/Larger Teleporter Dialogue.pak'
[07:33:49.048] [Info] Root: Detected asset source named 'KawaiiStuff+' at '../mods/Kawaii Stuff Plus.pak'
[07:33:49.048] [Info] Root: Detected asset source named 'Starbound Optimizer' at '../mods/Starbound Optimizer.pak'
[07:33:49.048] [Info] Root: Detected asset source named 'FUSAILModdedRaceSupport' at '../mods/SAIL Modded Race Support.pak'
[07:33:49.048] [Info] Root: Detected asset source named 'bk3k_inventory_reskin1' at '../mods/bk3k_Inventory_Reskin1'
[07:33:49.048] [Info] Root: Detected asset source named 'FrackinInterface' at '../mods/Frackin Interface.pak'
[07:33:49.048] [Info] Root: Detected asset source named 'skippable_cinematics' at '../mods/Skippable Cinematics.pak'
[07:33:49.048] [Info] Root: Detected asset source named 'many_tabs2' at '../mods/Many Tabs - pt 2.pak'
[07:33:49.048] [Info] Root: Detected asset source named 'Recipe Browser RPG Growth - Patch' at '../mods/Recipe Browser - RPG Growth Patch.pak'
[07:33:49.048] [Info] Root: Detected asset source named 'FUBYOSModdedRaceSupport' at '../mods/FUBYOSModdedRaceSupport.pak'
[07:33:49.048] [Info] Root: Detected asset source named 'FUBYOSModdedRaceSupportOther' at '../mods/FUBYOSModdedRaceSupportNonFR'
[07:33:49.048] [Info] Root: Detected asset source named 'TheBackrooms-FRCompatibility' at '../mods/The Backrooms FU Patch.pak'
[07:33:49.048] [Info] Root: Detected unnamed asset source at '../assets/user'
[07:33:49.048] [Info] Loading assets from: '../assets/packed.pak'
[07:33:49.262] [Info] Loading assets from: '../mods/optimizebound.pak'
[07:33:49.352] [Info] Loading assets from: '../mods/Equivalent Exchange.pak'
[07:33:49.353] [Info] Loading assets from: '../mods/Futara Shaders.pak'
[07:33:49.353] [Info] Loading assets from: '../mods/Stardust Core Lite.pak'
[07:33:49.353] [Info] Loading assets from: '../mods/Many Tabs - pt 1.pak'
[07:33:49.353] [Info] Loading assets from: '../mods/Pokemon Hairstyles.pak'
[07:33:49.353] [Info] Loading assets from: '../mods/Pokemon X and Y Costumes.pak'
[07:33:49.354] [Info] Loading assets from: '../mods/HLib_stable.pak'
[07:33:49.354] [Info] Loading assets from: '../mods/WTM_3.3.pak'
[07:33:49.355] [Info] Loading assets from: '../mods/The_Starforge.pak'
[07:33:49.369] [Info] Loading assets from: '../mods/The Mandalorian.pak'
[07:33:49.372] [Info] Loading assets from: '../mods/The Backrooms.pak'
[07:33:49.372] [Info] Loading assets from: '../mods/TT.pak'
[07:33:49.372] [Info] Loading assets from: '../mods/Starry Planets.pak'
[07:33:49.377] [Info] Loading assets from: '../mods/Wardrobe Interface.pak'
[07:33:49.378] [Info] Loading assets from: '../mods/felin'
[07:33:49.414] [Info] Loading assets from: '../mods/bk3k_Inventory'
[07:33:49.416] [Info] Loading assets from: '../mods/FrackinUniverse.pak'
[07:33:50.114] [Info] Loading assets from: '../mods/Starry Planets - FU Patch.pak'
[07:33:50.115] [Info] Loading assets from: '../mods/SkittlesOutfitModpack_5_0.4'
[07:33:50.419] [Info] Loading assets from: '../mods/Pokemon Hats.pak'
[07:33:50.419] [Info] Loading assets from: '../mods/Redone Ship Encounters.pak'
[07:33:50.420] [Info] Loading assets from: '../mods/Recipe Browser.pak'
[07:33:50.420] [Info] Loading assets from: '../mods/MoreFarming'
[07:33:50.649] [Info] Loading assets from: '../mods/Feast of Fire and Smoke.pak'
[07:33:50.676] [Info] Loading assets from: '../mods/RPG Growth.pak'
[07:33:50.722] [Info] Loading assets from: '../mods/RPG Growth Extended Levels.pak'
[07:33:50.722] [Info] Loading assets from: '../mods/Project-Knightfall-1.7.0.9'
[07:33:50.974] [Info] Loading assets from: '../mods/Wild Eevee.pak'
[07:33:50.974] [Info] Loading assets from: '../mods/ningenracemod'
[07:33:51.022] [Info] Loading assets from: '../mods/izzy_va11halla.pak'
[07:33:51.023] [Info] Loading assets from: '../mods/futara dragon engine.pak'
[07:33:51.024] [Info] Loading assets from: '../mods/felins_furplus'
[07:33:51.025] [Info] Loading assets from: '../mods/felin_objplus'
[07:33:51.135] [Info] Loading assets from: '../mods/extended_songbook_2-2.pak'
[07:33:51.135] [Info] Loading assets from: '../mods/bagels more clothing.pak'
[07:33:51.136] [Info] Loading assets from: '../mods/WW Furnishing Fixed Again.pak'
[07:33:51.248] [Info] Loading assets from: '../mods/Wardrobe - Slime Addon.pak'
[07:33:51.248] [Info] Loading assets from: '../mods/Wardrobe - Skittle Megapack Addon.pak'
[07:33:51.248] [Info] Loading assets from: '../mods/Wardrobe - Pokemon X and Y Addon.pak'
[07:33:51.249] [Info] Loading assets from: '../mods/Wardrobe - Peglaci Addon.pak'
[07:33:51.249] [Info] Loading assets from: '../mods/Wardrobe - Ningen Addon.pak'
[07:33:51.249] [Info] Loading assets from: '../mods/Wardrobe - Kawaii Stuff Plus Addon.pak'
[07:33:51.249] [Info] Loading assets from: '../mods/Wardrobe - Gravity Falls Addon.pak'
[07:33:51.249] [Info] Loading assets from: '../mods/Improved Item Descriptions'
[07:33:51.251] [Info] Loading assets from: '../mods/I Want Those Clothes Too'
[07:33:51.275] [Info] Loading assets from: '../mods/Hound Fashion.pak'
[07:33:51.302] [Info] Loading assets from: '../mods/Green's Dye Suite 1.7.pak'
[07:33:51.303] [Info] Loading assets from: '../mods/FrackinXmas'
[07:33:51.304] [Info] Loading assets from: '../mods/FrackinMusic-3.45'
[07:33:51.312] [Info] Loading assets from: '../mods/Felin Costumes Plus.pak'
[07:33:51.313] [Info] Loading assets from: '../mods/Pixel Goods Store.pak'
[07:33:51.319] [Info] Loading assets from: '../mods/Arcana.pak'
[07:33:51.370] [Info] Loading assets from: '../mods/Feast of Fire and Smoke - Overworld Encounters.pak'
[07:33:51.378] [Info] Loading assets from: '../mods/Feast of Fire and Smoke - Overworld Encounter Reducer.pak'
[07:33:51.378] [Info] Loading assets from: '../mods/Equivalent Exchange - FU Patch.pak'
[07:33:51.378] [Info] Loading assets from: '../mods/Cuter Felins.pak'
[07:33:51.379] [Info] Loading assets from: '../mods/Cosmic Husbandry.pak'
[07:33:51.383] [Info] Loading assets from: '../mods/Arcane Magus.pak'
[07:33:51.385] [Info] Loading assets from: '../mods/Arcana - Cutebound.pak'
[07:33:51.385] [Info] Loading assets from: '../mods/Alternate Status Icons for FU'
[07:33:51.387] [Info] Loading assets from: '../mods/JASBSP'
[07:33:51.397] [Info] Loading assets from: '../mods/MoreFarming RPG Growth Addon.pak'
[07:33:51.397] [Info] Loading assets from: '../mods/MoreFarmingFR'
[07:33:51.427] [Info] Loading assets from: '../mods/MoreFarmingFU'
[07:33:51.429] [Info] Loading assets from: '../mods/Pixel Goods Store - Patch.pak'
[07:33:51.430] [Info] Loading assets from: '../mods/Player Dances and Emotes Plus.pak'
[07:33:51.430] [Info] Loading assets from: '../mods/Momoji Inubashiri Outfit.pak'
[07:33:51.430] [Info] Loading assets from: '../mods/Make the Universe a Cuter Place - Heemi Version.pak'
[07:33:51.436] [Info] Loading assets from: '../mods/Larger Teleporter Dialogue.pak'
[07:33:51.436] [Info] Loading assets from: '../mods/Kawaii Stuff Plus.pak'
[07:33:51.437] [Info] Loading assets from: '../mods/Starbound Optimizer.pak'
[07:33:51.437] [Info] Loading assets from: '../mods/SAIL Modded Race Support.pak'
[07:33:51.441] [Info] Loading assets from: '../mods/bk3k_Inventory_Reskin1'
[07:33:51.442] [Info] Loading assets from: '../mods/Frackin Interface.pak'
[07:33:51.444] [Info] Loading assets from: '../mods/Skippable Cinematics.pak'
[07:33:51.445] [Info] Loading assets from: '../mods/Many Tabs - pt 2.pak'
[07:33:51.445] [Info] Loading assets from: '../mods/Recipe Browser - RPG Growth Patch.pak'
[07:33:51.445] [Info] Loading assets from: '../mods/FUBYOSModdedRaceSupport.pak'
[07:33:51.447] [Info] Loading assets from: '../mods/FUBYOSModdedRaceSupportNonFR'
[07:33:51.447] [Info] Loading assets from: '../mods/The Backrooms FU Patch.pak'
[07:33:51.447] [Info] Loading assets from: '../assets/user'
[07:33:54.386] [Info] Assets digest is d733c0ae6a586cb301d89c28e09e2bada1b56c5932ec83e97cd8286832ac5dec
[07:33:54.386] [Info] Root: Loaded Assets in 6.22449 seconds
[07:33:54.386] [Info] Root: Writing runtime configuration to '../storage/starbound_server.config'
[07:33:54.391] [Info] Root: Loaded NameGenerator in 6.22866 seconds
[07:33:54.440] [Info] Root: Loaded PlantDatabase in 0.0495669 seconds
[07:33:54.701] [Error] Duplicate projectile asset typeName ffs_bullet_fmj_3_burst_3crit_start. configfile /projectiles/ffs_bullet_v2/ffs_bullet_fmj_3/ffs_bullet_fmj_3_burst_crit_start.projectile
[07:33:54.837] [Info] Root: Loaded ProjectileDatabase in 0.396325 seconds
[07:33:54.870] [Info] Root: Loaded ObjectDatabase in 0.483663 seconds
[07:33:55.005] [Info] Root: Loaded NpcDatabase in 0.135112 seconds
[07:33:55.044] [Info] Root: Loaded StagehandDatabase in 0.0395299 seconds
[07:33:55.056] [Info] Root: Loaded VehicleDatabase in 0.0116436 seconds
[07:33:55.077] [Info] Root: Loaded MonsterDatabase in 0.240397 seconds
[07:33:55.477] [Info] Root: Loaded PlayerFactory in 0.420602 seconds
[07:33:55.478] [Info] Root: Loaded VersioningDatabase in 0.000994828 seconds
[07:33:55.478] [Info] Root: Loaded EntityFactory in 0.400732 seconds
[07:33:55.525] [Info] Root: Loaded ParticleDatabase in 0.0466461 seconds
[07:33:55.527] [Info] Root: Loaded ImageMetadataDatabase in 9.19681e-07 seconds
[07:33:55.836] [Info] Root: Loaded MaterialDatabase in 0.358319 seconds
[07:33:55.842] [Info] Root: Loaded TerrainDatabase in 0.00533563 seconds
[07:33:56.133] [Info] Root: Loaded BiomeDatabase in 0.291576 seconds
[07:33:56.135] [Info] Root: Loaded LiquidsDatabase in 0.00180433 seconds
[07:33:56.166] [Info] Root: Loaded StatusEffectDatabase in 0.0309029 seconds
[07:33:56.544] [Info] Root: Loaded DamageDatabase in 0.377802 seconds
[07:33:56.548] [Info] Root: Loaded EffectSourceDatabase in 0.00386378 seconds
[07:33:56.567] [Info] Root: Loaded FunctionDatabase in 0.0189737 seconds
[07:33:56.577] [Error] Could not apply patch from file /treasure/fishing.treasurepools.patch in source: ../mods/RPG Growth.pak.  Caused by: (JsonPatchException) Could not apply patch to base. (JsonPatchException) Could not apply operation to base. (TraversalException) No such key 'fill' in pathApply("/fishingcommon/0/1/fill/-")
[07:33:56.651] [Info] Root: Loaded TreasureDatabase in 0.0844185 seconds
[07:33:56.984] [Info] Root: Loaded DungeonDefinitions in 0.332937 seconds
[07:33:56.984] [Info] Root: Loaded TilesetDatabase in 5.02402e-06 seconds
[07:33:56.986] [Info] Root: Loaded StatisticsDatabase in 0.00113579 seconds
[07:33:56.986] [Info] Root: Loaded EmoteProcessor in 4.1218e-05 seconds
[07:33:57.017] [Info] Root: Loaded SpeciesDatabase in 0.0310662 seconds
[07:33:57.035] [Info] Root: Loaded QuestTemplateDatabase in 0.0183155 seconds
[07:33:57.036] [Info] Root: Loaded AiDatabase in 0.0011905 seconds
[07:33:57.041] [Info] Root: Loaded TechDatabase in 0.00473217 seconds
[07:33:57.053] [Info] Root: Loaded CodexDatabase in 0.0120436 seconds
[07:33:59.720] [Info] Root: Loaded BehaviorDatabase in 2.66701 seconds
[07:33:59.723] [Info] Root: Loaded DanceDatabase in 0.00283165 seconds
[07:33:59.733] [Info] Root: Loaded SpawnTypeDatabase in 0.00940411 seconds
[07:33:59.752] [Info] Root: Loaded RadioMessageDatabase in 0.0197926 seconds
[07:34:05.205] [Error] Could not load recipe /recipes/weapons/oldtier/broadsword/odb2tier2broadsword_c2.recipe: (ItemException) No such item 'steelbar'
[07:34:11.379] [Info] Root: Loaded ItemDatabase in 15.9022 seconds
[07:34:11.655] [Info] Root: Loaded CollectionDatabase in 11.9024 seconds
[07:34:12.013] [Info] Server Version 1.4.4 (linux x86_64) Source ID: 8cbe6faf22282659828a194e06a08999f213769e Protocol: 747
[07:34:12.020] [Info] UniverseServer: Acquiring universe lock file
[07:34:12.049] [Info] UniverseServer: Loading settings
[07:34:12.050] [Info] UniverseServer: Starting UniverseServer with UUID: cbd64bfe3d4039fac5291d9715d519a9
[07:34:12.051] [Info] UniverseServer: listening for incoming TCP connections on 0000:0000:0000:0000:0000:0000:0000:0000:21025
[07:34:43.526] [Info] UniverseServer: Connection received from: 0000:0000:0000:0000:0000:ffff:181b:46f2:56625
[07:34:43.625] [Info] UniverseServer: Sending Handshake Challenge
[07:34:43.652] [Info] UniverseServer: Logged in account ''Yuu'' as player 'Yuu' from address 0000:0000:0000:0000:0000:ffff:181b:46f2
[07:34:43.653] [Info] UniverseServer: Loading system world (-114335893, -88135347, -165985538) from disk storage
[07:34:43.685] [Info] UniverseServer: Reviving player at CelestialWorld:667122378:776661426:68113754:10
[07:34:43.685] [Info] UniverseServer: Client 'Yuu' <1> (0000:0000:0000:0000:0000:ffff:181b:46f2) connected
[07:34:43.686] [Info] UniverseServer: Loading celestial world 667122378:776661426:68113754:10
[07:34:43.863] [Info] Protected dungeonIds for world set to (1, 65524)
[07:34:43.986] [Info] UniverseServer: Warping player 1 to CelestialWorld:667122378:776661426:68113754:10=902.725.697
[07:40:13.747] [Info] UniverseServer: Client 'Yuu' <1> (0000:0000:0000:0000:0000:ffff:181b:46f2) disconnected for reason: 
[07:40:13.762] [Info] UniverseServer: Stopping idle world CelestialWorld:667122378:776661426:68113754:10
[07:40:23.824] [Info] UniverseServer: Reaped 1 dead connections
[08:55:15.606] [Info] Interrupt caught!
[08:55:15.650] [Info] UniverseServer: Stopping UniverseServer
[08:55:15.652] [Info] UniverseServer: Stopping TCP Server
[08:55:15.654] [Info] Server shutdown gracefully
[08:55:15.654] [Info] Root: Shutting down Root
