[00:00:15.908] [Info] Root: Preparing Root...
[00:00:15.909] [Info] Root: Done preparing Root.
[00:00:15.909] [Info] Root: Scanning for asset sources in directory '../assets/'
[00:00:15.911] [Info] Root: Loaded Configuration in 0.00167947 seconds
[00:00:16.036] [Info] Root: Scanning for asset sources in directory '../mods/'
[00:00:18.304] [Warn] Root: Overriding duplicate asset source '../mods/WW Furnishing.pak' named 'ikn_furnishing' with higher or equal priority source '../mods/ikn_furnishing.pak
[00:00:18.449] [Info] Root: Detected asset source named 'base' at '../assets/packed.pak'
[00:00:18.449] [Info] Root: Detected asset source named 'Optimizebound (Performance Improvement)' at '../mods/optimizebound.pak'
[00:00:18.449] [Info] Root: Detected asset source named 'EES' at '../mods/Equivalent Exchange.pak'
[00:00:18.449] [Info] Root: Detected asset source named 'Futara's Dragon Pixel Full Bright Shader' at '../mods/Futara Shaders.pak'
[00:00:18.449] [Info] Root: Detected asset source named 'QuickbarMini' at '../mods/Stardust Core Lite.pak'
[00:00:18.449] [Info] Root: Detected asset source named 'many_tabs1' at '../mods/Many Tabs - pt 1.pak'
[00:00:18.450] [Info] Root: Detected asset source named 'rb_base' at '../mods/Recipe Browser.pak'
[00:00:18.450] [Info] Root: Detected asset source named 'Wardrobe' at '../mods/Wardrobe Interface.pak'
[00:00:18.450] [Info] Root: Detected asset source named 'Felins' at '../mods/felin'
[00:00:18.450] [Info] Root: Detected asset source named 'bk3k_inventory' at '../mods/bk3k_Inventory'
[00:00:18.450] [Info] Root: Detected asset source named 'FrackinUniverse' at '../mods/FrackinUniverse.pak'
[00:00:18.450] [Info] Root: Detected asset source named 'RedoneEncounters' at '../mods/Redone Ship Encounters.pak'
[00:00:18.450] [Info] Root: Detected asset source named 'MoreFarming' at '../mods/MoreFarming'
[00:00:18.450] [Info] Root: Detected asset source named 'FFS' at '../mods/Feast of Fire and Smoke.pak'
[00:00:18.450] [Info] Root: Detected asset source named 'RPG_Growth' at '../mods/RPG Growth.pak'
[00:00:18.450] [Info] Root: Detected asset source named 'rpggrowth_extendedlevels' at '../mods/RPG Growth Extended Levels.pak'
[00:00:18.450] [Info] Root: Detected asset source named 'Skittles Outfit Modpack' at '../mods/SkittlesOutfitModpack_5_0.4'
[00:00:18.451] [Info] Root: Detected asset source named 'Wardrobe-Ningen' at '../mods/Wardrobe - Ningen Addon.pak'
[00:00:18.451] [Info] Root: Detected asset source named 'Project Knightfall' at '../mods/Project-Knightfall-1.7.0.9'
[00:00:18.451] [Info] Root: Detected asset source named 'Twice - TT Club Deck' at '../mods/TT.pak'
[00:00:18.451] [Info] Root: Detected asset source named 'TheBackrooms' at '../mods/The Backrooms.pak'
[00:00:18.451] [Info] Root: Detected asset source named 'ikthemandalorian' at '../mods/The Mandalorian.pak'
[00:00:18.451] [Info] Root: Detected asset source named 'The Starforge v1.0' at '../mods/The_Starforge.pak'
[00:00:18.451] [Info] Root: Detected asset source named 'HLib' at '../mods/HLib_stable.pak'
[00:00:18.451] [Info] Root: Detected asset source named 'WTM_Reloaded' at '../mods/WTM_3.3.pak'
[00:00:18.451] [Info] Root: Detected asset source named 'ikn_furnishing' at '../mods/ikn_furnishing.pak'
[00:00:18.451] [Info] Root: Detected asset source named 'Wardrobe-GravityFallsWearables' at '../mods/Wardrobe - Gravity Falls Addon.pak'
[00:00:18.451] [Info] Root: Detected asset source named 'Pokémon Trainer Hats' at '../mods/Pokemon Hats.pak'
[00:00:18.452] [Info] Root: Detected asset source named 'bagelsmoreclothing' at '../mods/bagels more clothing.pak'
[00:00:18.452] [Info] Root: Detected asset source named 'More worker pool threads x8 version' at '../mods/server-thread-perf'
[00:00:18.452] [Info] Root: Detected asset source named 'Ningen' at '../mods/ningenracemod'
[00:00:18.452] [Info] Root: Detected asset source named 'izzy_va11halla' at '../mods/izzy_va11halla.pak'
[00:00:18.452] [Info] Root: Detected asset source named 'Futara's Dragon Engine' at '../mods/futara dragon engine.pak'
[00:00:18.452] [Info] Root: Detected asset source named 'felinsfurplus' at '../mods/felins_furplus'
[00:00:18.452] [Info] Root: Detected asset source named 'felinsobjectplus' at '../mods/felin_objplus'
[00:00:18.452] [Info] Root: Detected asset source named 'Extended Songbook' at '../mods/extended_songbook_2-2.pak'
[00:00:18.452] [Info] Root: Detected asset source named 'Wardrobe-KawaiiStuff' at '../mods/Wardrobe - Kawaii Stuff Plus Addon.pak'
[00:00:18.452] [Info] Root: Detected asset source named 'cmdr_eevee' at '../mods/Wild Eevee.pak'
[00:00:18.452] [Info] Root: Detected asset source named 'Wardrobe-SlimeRace' at '../mods/Wardrobe - Slime Addon.pak'
[00:00:18.453] [Info] Root: Detected asset source named 'Wardrobe-SkittlesMegaPack' at '../mods/Wardrobe - Skittle Megapack Addon.pak'
[00:00:18.453] [Info] Root: Detected asset source named 'Wardrobe-PokemonXY' at '../mods/Wardrobe - Pokemon X and Y Addon.pak'
[00:00:18.453] [Info] Root: Detected asset source named 'Wardrobe-Peglaci' at '../mods/Wardrobe - Peglaci Addon.pak'
[00:00:18.453] [Info] Root: Detected asset source named 'Pokemon X and Y ' at '../mods/Pokemon X and Y Costumes.pak'
[00:00:18.453] [Info] Root: Detected asset source named 'Felin Costumes+' at '../mods/Felin Costumes Plus.pak'
[00:00:18.453] [Info] Root: Detected asset source named 'Improved Food Descriptions' at '../mods/Improved Item Descriptions'
[00:00:18.453] [Info] Root: Detected asset source named 'IWantThoseClothesToo' at '../mods/I Want Those Clothes Too'
[00:00:18.453] [Info] Root: Detected asset source named 'HOUNDco' at '../mods/Hound Fashion.pak'
[00:00:18.453] [Info] Root: Detected asset source named 'Green's Dye Suite' at '../mods/Green's Dye Suite 1.7.pak'
[00:00:18.453] [Info] Root: Detected asset source named 'FrackinXmas' at '../mods/FrackinXmas'
[00:00:18.453] [Info] Root: Detected asset source named 'FrackinMusic' at '../mods/FrackinMusic-3.45'
[00:00:18.454] [Info] Root: Detected asset source named 'playerdancing plus' at '../mods/Player Dances and Emotes Plus.pak'
[00:00:18.454] [Info] Root: Detected asset source named 'Arcana' at '../mods/Arcana.pak'
[00:00:18.454] [Info] Root: Detected asset source named 'FFS_dungeons' at '../mods/Feast of Fire and Smoke - Overworld Encounters.pak'
[00:00:18.454] [Info] Root: Detected asset source named 'FFS_DaE_4xLess' at '../mods/Feast of Fire and Smoke - Overworld Encounter Reducer.pak'
[00:00:18.454] [Info] Root: Detected asset source named 'FU-EE Ore patch' at '../mods/Equivalent Exchange - FU Patch.pak'
[00:00:18.454] [Info] Root: Detected asset source named 'cutebound_felins_kemonomimi' at '../mods/Cuter Felins.pak'
[00:00:18.454] [Info] Root: Detected asset source named 'CosmicHusbandry' at '../mods/Cosmic Husbandry.pak'
[00:00:18.454] [Info] Root: Detected asset source named 'cutearcana' at '../mods/Arcana - Cutebound.pak'
[00:00:18.454] [Info] Root: Detected asset source named 'AltStatusIconsForFu' at '../mods/Alternate Status Icons for FU'
[00:00:18.454] [Info] Root: Detected asset source named 'KawaiiStuff+' at '../mods/Kawaii Stuff Plus.pak'
[00:00:18.454] [Info] Root: Detected asset source named 'CNMoreFarmingRPGGrowth' at '../mods/MoreFarming RPG Growth Addon.pak'
[00:00:18.455] [Info] Root: Detected asset source named 'MoreFarmingFR' at '../mods/MoreFarmingFR'
[00:00:18.455] [Info] Root: Detected asset source named 'MoreFarmingFU' at '../mods/MoreFarmingFU'
[00:00:18.455] [Info] Root: Detected asset source named ' Just Another StarBound Song Pack' at '../mods/JASBSP'
[00:00:18.455] [Info] Root: Detected asset source named 'Momiji Inubashiri 犬走 椛 東方project Touhou' at '../mods/Momoji Inubashiri Outfit.pak'
[00:00:18.455] [Info] Root: Detected asset source named 'CuteboundHeemi' at '../mods/Make the Universe a Cuter Place - Heemi Version.pak'
[00:00:18.455] [Info] Root: Detected asset source named 'largerTeleporterDialog' at '../mods/Larger Teleporter Dialogue.pak'
[00:00:18.455] [Info] Root: Detected asset source named 'Pokemon Hairstyles' at '../mods/Pokemon Hairstyles.pak'
[00:00:18.455] [Info] Root: Detected asset source named 'Starbound Optimizer' at '../mods/Starbound Optimizer.pak'
[00:00:18.455] [Info] Root: Detected asset source named 'FUSAILModdedRaceSupport' at '../mods/SAIL Modded Race Support.pak'
[00:00:18.455] [Info] Root: Detected asset source named 'bk3k_inventory_reskin1' at '../mods/bk3k_Inventory_Reskin1'
[00:00:18.456] [Info] Root: Detected asset source named 'FrackinInterface' at '../mods/Frackin Interface.pak'
[00:00:18.456] [Info] Root: Detected asset source named 'skippable_cinematics' at '../mods/Skippable Cinematics.pak'
[00:00:18.456] [Info] Root: Detected asset source named 'many_tabs2' at '../mods/Many Tabs - pt 2.pak'
[00:00:18.456] [Info] Root: Detected asset source named 'Recipe Browser RPG Growth - Patch' at '../mods/Recipe Browser - RPG Growth Patch.pak'
[00:00:18.456] [Info] Root: Detected asset source named 'FUBYOSModdedRaceSupport' at '../mods/FUBYOSModdedRaceSupport.pak'
[00:00:18.456] [Info] Root: Detected asset source named 'FUBYOSModdedRaceSupportOther' at '../mods/FUBYOSModdedRaceSupportNonFR'
[00:00:18.456] [Info] Root: Detected asset source named 'TheBackrooms-FRCompatibility' at '../mods/The Backrooms FU Patch.pak'
[00:00:18.456] [Info] Root: Detected unnamed asset source at '../assets/user'
[00:00:18.456] [Info] Loading assets from: '../assets/packed.pak'
[00:00:18.739] [Info] Loading assets from: '../mods/optimizebound.pak'
[00:00:18.837] [Info] Loading assets from: '../mods/Equivalent Exchange.pak'
[00:00:18.838] [Info] Loading assets from: '../mods/Futara Shaders.pak'
[00:00:18.838] [Info] Loading assets from: '../mods/Stardust Core Lite.pak'
[00:00:18.838] [Info] Loading assets from: '../mods/Many Tabs - pt 1.pak'
[00:00:18.839] [Info] Loading assets from: '../mods/Recipe Browser.pak'
[00:00:18.839] [Info] Loading assets from: '../mods/Wardrobe Interface.pak'
[00:00:18.839] [Info] Loading assets from: '../mods/felin'
[00:00:18.888] [Info] Loading assets from: '../mods/bk3k_Inventory'
[00:00:18.891] [Info] Loading assets from: '../mods/FrackinUniverse.pak'
[00:00:19.384] [Info] Loading assets from: '../mods/Redone Ship Encounters.pak'
[00:00:19.384] [Info] Loading assets from: '../mods/MoreFarming'
[00:00:19.815] [Info] Loading assets from: '../mods/Feast of Fire and Smoke.pak'
[00:00:19.852] [Info] Loading assets from: '../mods/RPG Growth.pak'
[00:00:19.915] [Info] Loading assets from: '../mods/RPG Growth Extended Levels.pak'
[00:00:19.916] [Info] Loading assets from: '../mods/SkittlesOutfitModpack_5_0.4'
[00:00:20.407] [Info] Loading assets from: '../mods/Wardrobe - Ningen Addon.pak'
[00:00:20.407] [Info] Loading assets from: '../mods/Project-Knightfall-1.7.0.9'
[00:00:20.748] [Info] Loading assets from: '../mods/TT.pak'
[00:00:20.749] [Info] Loading assets from: '../mods/The Backrooms.pak'
[00:00:20.749] [Info] Loading assets from: '../mods/The Mandalorian.pak'
[00:00:20.753] [Info] Loading assets from: '../mods/The_Starforge.pak'
[00:00:20.767] [Info] Loading assets from: '../mods/HLib_stable.pak'
[00:00:20.767] [Info] Loading assets from: '../mods/WTM_3.3.pak'
[00:00:20.769] [Info] Loading assets from: '../mods/ikn_furnishing.pak'
[00:00:20.798] [Info] Loading assets from: '../mods/Wardrobe - Gravity Falls Addon.pak'
[00:00:20.798] [Info] Loading assets from: '../mods/Pokemon Hats.pak'
[00:00:20.799] [Info] Loading assets from: '../mods/bagels more clothing.pak'
[00:00:20.800] [Info] Loading assets from: '../mods/server-thread-perf'
[00:00:20.800] [Info] Loading assets from: '../mods/ningenracemod'
[00:00:20.861] [Info] Loading assets from: '../mods/izzy_va11halla.pak'
[00:00:20.863] [Info] Loading assets from: '../mods/futara dragon engine.pak'
[00:00:20.864] [Info] Loading assets from: '../mods/felins_furplus'
[00:00:20.864] [Info] Loading assets from: '../mods/felin_objplus'
[00:00:21.140] [Info] Loading assets from: '../mods/extended_songbook_2-2.pak'
[00:00:21.140] [Info] Loading assets from: '../mods/Wardrobe - Kawaii Stuff Plus Addon.pak'
[00:00:21.141] [Info] Loading assets from: '../mods/Wild Eevee.pak'
[00:00:21.142] [Info] Loading assets from: '../mods/Wardrobe - Slime Addon.pak'
[00:00:21.142] [Info] Loading assets from: '../mods/Wardrobe - Skittle Megapack Addon.pak'
[00:00:21.142] [Info] Loading assets from: '../mods/Wardrobe - Pokemon X and Y Addon.pak'
[00:00:21.142] [Info] Loading assets from: '../mods/Wardrobe - Peglaci Addon.pak'
[00:00:21.142] [Info] Loading assets from: '../mods/Pokemon X and Y Costumes.pak'
[00:00:21.143] [Info] Loading assets from: '../mods/Felin Costumes Plus.pak'
[00:00:21.144] [Info] Loading assets from: '../mods/Improved Item Descriptions'
[00:00:21.147] [Info] Loading assets from: '../mods/I Want Those Clothes Too'
[00:00:21.177] [Info] Loading assets from: '../mods/Hound Fashion.pak'
[00:00:21.207] [Info] Loading assets from: '../mods/Green's Dye Suite 1.7.pak'
[00:00:21.209] [Info] Loading assets from: '../mods/FrackinXmas'
[00:00:21.210] [Info] Loading assets from: '../mods/FrackinMusic-3.45'
[00:00:21.223] [Info] Loading assets from: '../mods/Player Dances and Emotes Plus.pak'
[00:00:21.223] [Info] Loading assets from: '../mods/Arcana.pak'
[00:00:21.279] [Info] Loading assets from: '../mods/Feast of Fire and Smoke - Overworld Encounters.pak'
[00:00:21.288] [Info] Loading assets from: '../mods/Feast of Fire and Smoke - Overworld Encounter Reducer.pak'
[00:00:21.288] [Info] Loading assets from: '../mods/Equivalent Exchange - FU Patch.pak'
[00:00:21.289] [Info] Loading assets from: '../mods/Cuter Felins.pak'
[00:00:21.290] [Info] Loading assets from: '../mods/Cosmic Husbandry.pak'
[00:00:21.295] [Info] Loading assets from: '../mods/Arcana - Cutebound.pak'
[00:00:21.295] [Info] Loading assets from: '../mods/Alternate Status Icons for FU'
[00:00:21.298] [Info] Loading assets from: '../mods/Kawaii Stuff Plus.pak'
[00:00:21.299] [Info] Loading assets from: '../mods/MoreFarming RPG Growth Addon.pak'
[00:00:21.299] [Info] Loading assets from: '../mods/MoreFarmingFR'
[00:00:21.339] [Info] Loading assets from: '../mods/MoreFarmingFU'
[00:00:21.342] [Info] Loading assets from: '../mods/JASBSP'
[00:00:21.354] [Info] Loading assets from: '../mods/Momoji Inubashiri Outfit.pak'
[00:00:21.355] [Info] Loading assets from: '../mods/Make the Universe a Cuter Place - Heemi Version.pak'
[00:00:21.360] [Info] Loading assets from: '../mods/Larger Teleporter Dialogue.pak'
[00:00:21.360] [Info] Loading assets from: '../mods/Pokemon Hairstyles.pak'
[00:00:21.361] [Info] Loading assets from: '../mods/Starbound Optimizer.pak'
[00:00:21.361] [Info] Loading assets from: '../mods/SAIL Modded Race Support.pak'
[00:00:21.365] [Info] Loading assets from: '../mods/bk3k_Inventory_Reskin1'
[00:00:21.366] [Info] Loading assets from: '../mods/Frackin Interface.pak'
[00:00:21.369] [Info] Loading assets from: '../mods/Skippable Cinematics.pak'
[00:00:21.369] [Info] Loading assets from: '../mods/Many Tabs - pt 2.pak'
[00:00:21.370] [Info] Loading assets from: '../mods/Recipe Browser - RPG Growth Patch.pak'
[00:00:21.370] [Info] Loading assets from: '../mods/FUBYOSModdedRaceSupport.pak'
[00:00:21.372] [Info] Loading assets from: '../mods/FUBYOSModdedRaceSupportNonFR'
[00:00:21.372] [Info] Loading assets from: '../mods/The Backrooms FU Patch.pak'
[00:00:21.373] [Info] Loading assets from: '../assets/user'
[00:00:28.289] [Info] Assets digest is 2ccb8918e11f1e282c00d917a0f8ae73ce609a6e53caf9c1cf08e35f59952498
[00:00:28.289] [Info] Root: Loaded Assets in 12.3806 seconds
[00:00:28.290] [Info] Root: Writing runtime configuration to '../storage/starbound_server.config'
[00:00:28.310] [Info] Root: Loaded NameGenerator in 12.3993 seconds
[00:00:28.540] [Info] Root: Loaded PlantDatabase in 0.229471 seconds
[00:00:30.006] [Error] Duplicate projectile asset typeName ffs_bullet_fmj_3_burst_3crit_start. configfile /projectiles/ffs_bullet_v2/ffs_bullet_fmj_3/ffs_bullet_fmj_3_burst_crit_start.projectile
[00:00:30.382] [Info] Root: Loaded ProjectileDatabase in 1.84167 seconds
[00:00:30.938] [Info] Root: Loaded ObjectDatabase in 2.64821 seconds
[00:00:31.270] [Info] Root: Loaded MonsterDatabase in 0.888058 seconds
[00:00:31.341] [Info] Root: Loaded NpcDatabase in 0.402865 seconds
[00:00:31.363] [Info] Root: Loaded VehicleDatabase in 0.0215897 seconds
[00:00:31.374] [Info] Root: Loaded StagehandDatabase in 0.102604 seconds
[00:00:31.885] [Info] Root: Loaded PlayerFactory in 0.521671 seconds
[00:00:31.888] [Info] Root: Loaded VersioningDatabase in 0.00300038 seconds
[00:00:31.888] [Info] Root: Loaded EntityFactory in 0.51455 seconds
[00:00:32.040] [Info] Root: Loaded ParticleDatabase in 0.1515 seconds
[00:00:32.045] [Info] Root: Loaded ImageMetadataDatabase in 2.31399e-06 seconds
[00:00:32.749] [Info] Root: Loaded MaterialDatabase in 0.859943 seconds
[00:00:32.757] [Info] Root: Loaded TerrainDatabase in 0.00789931 seconds
[00:00:33.432] [Info] Root: Loaded BiomeDatabase in 0.675007 seconds
[00:00:33.444] [Info] Root: Loaded LiquidsDatabase in 0.0106676 seconds
[00:00:33.698] [Info] Root: Loaded StatusEffectDatabase in 0.253283 seconds
[00:00:34.667] [Info] Root: Loaded DamageDatabase in 0.968854 seconds
[00:00:34.680] [Info] Root: Loaded EffectSourceDatabase in 0.0130257 seconds
[00:00:34.717] [Info] Root: Loaded FunctionDatabase in 0.0362333 seconds
[00:00:34.736] [Error] Could not apply patch from file /treasure/fishing.treasurepools.patch in source: ../mods/RPG Growth.pak.  Caused by: (JsonPatchException) Could not apply patch to base. (JsonPatchException) Could not apply operation to base. (TraversalException) No such key 'fill' in pathApply("/fishingcommon/0/1/fill/-")
[00:00:34.887] [Info] Root: Loaded TreasureDatabase in 0.1702 seconds
[00:00:35.507] [Info] Root: Loaded DungeonDefinitions in 0.619489 seconds
[00:00:35.507] [Info] Root: Loaded TilesetDatabase in 1.193e-05 seconds
[00:00:35.510] [Info] Root: Loaded StatisticsDatabase in 0.00249752 seconds
[00:00:35.510] [Info] Root: Loaded EmoteProcessor in 9.3516e-05 seconds
[00:00:35.576] [Info] Root: Loaded SpeciesDatabase in 0.0663093 seconds
[00:00:35.619] [Info] Root: Loaded QuestTemplateDatabase in 0.042068 seconds
[00:00:35.622] [Info] Root: Loaded AiDatabase in 0.00316261 seconds
[00:00:35.632] [Info] Root: Loaded TechDatabase in 0.0103911 seconds
[00:00:35.673] [Info] Root: Loaded CodexDatabase in 0.0402775 seconds
[00:00:40.497] [Info] Root: Loaded BehaviorDatabase in 4.82428 seconds
[00:00:40.502] [Info] Root: Loaded DanceDatabase in 0.00530119 seconds
[00:00:40.516] [Info] Root: Loaded SpawnTypeDatabase in 0.0138931 seconds
[00:00:40.559] [Info] Root: Loaded RadioMessageDatabase in 0.0424146 seconds
[00:00:55.214] [Error] Could not load recipe /recipes/weapons/oldtier/broadsword/odb2tier2broadsword_c2.recipe: (ItemException) No such item 'steelbar'
[00:01:06.801] [Info] Root: Loaded ItemDatabase in 34.9157 seconds
[00:01:07.529] [Info] Root: Loaded CollectionDatabase in 26.9703 seconds
[00:01:08.489] [Info] Server Version 1.4.4 (linux x86_64) Source ID: 8cbe6faf22282659828a194e06a08999f213769e Protocol: 747
[00:01:08.511] [Info] UniverseServer: Acquiring universe lock file
[00:01:08.573] [Info] UniverseServer: Loading settings
[00:01:08.584] [Info] UniverseServer: Starting UniverseServer with UUID: cbd64bfe3d4039fac5291d9715d519a9
[00:01:08.590] [Info] UniverseServer: listening for incoming TCP connections on 0000:0000:0000:0000:0000:0000:0000:0000:21025
[00:20:41.416] [Info] UniverseServer: Connection received from: 0000:0000:0000:0000:0000:ffff:181b:46f2:61442
[00:20:41.553] [Info] UniverseServer: Sending Handshake Challenge
[00:20:41.598] [Info] UniverseServer: Logged in account ''Yuu'' as player 'Yuu' from address 0000:0000:0000:0000:0000:ffff:181b:46f2
[00:20:41.599] [Info] UniverseServer: Loading system world (-114335735, -88135407, -269830184) from disk storage
[00:20:41.665] [Info] UniverseServer: Reviving player at CelestialWorld:-114335735:-88135407:-269830184:5
[00:20:41.666] [Info] UniverseServer: Client 'Yuu' <1> (0000:0000:0000:0000:0000:ffff:181b:46f2) connected
[00:20:41.667] [Info] UniverseServer: Loading celestial world -114335735:-88135407:-269830184:5
[00:20:41.902] [Info] Protected dungeonIds for world set to (65524)
[00:20:42.068] [Info] UniverseServer: Warping player 1 to CelestialWorld:-114335735:-88135407:-269830184:5=1599.9.166
[00:20:46.971] [Info] Chat: <Yuu> /admin
[00:26:05.530] [Info] UniverseServer: Loading client ship world ClientShipWorld:0866221feebf39b9854f5920389980fd
[00:26:05.613] [Info] Protected dungeonIds for world set to (65524)
[00:26:05.963] [Info] UniverseServer: Warping player 1 to ClientShipWorld:0866221feebf39b9854f5920389980fd
[00:26:06.002] [Info] UniverseServer: Stopping idle world CelestialWorld:-114335735:-88135407:-269830184:5
[00:26:13.470] [Info] Chat: <Yuu> /admin
[00:26:16.091] [Info] UniverseServer: Client 'Yuu' <1> (0000:0000:0000:0000:0000:ffff:181b:46f2) disconnected for reason: 
[00:26:16.092] [Info] UniverseServer: Stopping idle world ClientShipWorld:0866221feebf39b9854f5920389980fd
[00:26:26.156] [Info] UniverseServer: Reaped 1 dead connections
[00:26:37.177] [Info] Interrupt caught!
[00:26:37.185] [Info] UniverseServer: Stopping UniverseServer
[00:26:37.187] [Info] UniverseServer: Stopping TCP Server
[00:26:37.191] [Info] Server shutdown gracefully
[00:26:37.192] [Info] Root: Shutting down Root
