{
	"kind" : "catvettewreck2",
	"definition" : {
		"type" : "textured",
		"image" : "/particles/catvettewreck/catvettewreck2.png",
		"position" : [2.25, -0.5],
		"size" : 1.0,
		"color" : [255, 255, 255, 255],
		"fade" : 0,
		"initialVelocity" : [2.25, 15.0],
		"finalVelocity" : [0, -10],
		"approach" : [5, 50],
		"rotation" : 0,
		"flippable" : true,
		"angularVelocity" : 30,
		"timeToLive" : 0.75,
		"destructionAction" : "shrink",
		"destructionTime" : 0.25,
		"layer" : "front"
	}
}